(module CY8C5866LTI-LP022 (layer F.Cu)
  (fp_text reference REF** (at 0 0) (layer F.SilkS)
    (effects (font (size 1 1) (thickness .15)))
  )
  (fp_text value QFN-68 (at 0 0) (layer F.SilkS)
    (effects (font (size 1 1) (thickness .15)))
  )
  (fp_text user "Copyright 2016 Accelerated Designs. All rights reserved." (at 0 0) (layer Cmts.User)
    (effects (font (size .127 .127) (thickness .002)))
  )
  (fp_text user "*" (at -4.9911 -3.4) (layer F.SilkS)
    (effects (font (size 1 1) (thickness .15)))
  )
  (fp_text user "*" (at -3.5433 -3.4) (layer F.Fab)
    (effects (font (size 1 1) (thickness .15)))
  )
  (fp_text user "0.016in/0.4mm" (at -5.9817 -3) (layer Dwgs.User)
    (effects (font (size 1 1) (thickness .15)))
  )
  (fp_text user "0.032in/0.813mm" (at -3.9497 -6.9977) (layer Dwgs.User)
    (effects (font (size 1 1) (thickness .15)))
  )
  (fp_text user "0.01in/0.254mm" (at -6.9977 3.9497) (layer Dwgs.User)
    (effects (font (size 1 1) (thickness .15)))
  )
  (fp_text user "0.311in/7.899mm" (at 0 9.5377) (layer Dwgs.User)
    (effects (font (size 1 1) (thickness .15)))
  )
  (fp_text user "0.311in/7.899mm" (at 9.5377 .635) (layer Dwgs.User)
    (effects (font (size 1 1) (thickness .15)))
  )
  (fp_text user "0.228in/5.791mm" (at 0 5.9436) (layer Dwgs.User)
    (effects (font (size 1 1) (thickness .15)))
  )
  (fp_text user "0.228in/5.791mm" (at 5.9436 -.635) (layer Dwgs.User)
    (effects (font (size 1 1) (thickness .15)))
  )
  (fp_text user "*" (at -4.9911 -3.4) (layer F.SilkS)
    (effects (font (size 1 1) (thickness .15)))
  )
  (fp_text user "*" (at -3.5433 -3.4) (layer F.Fab)
    (effects (font (size 1 1) (thickness .15)))
  )
  (fp_line (start -4.0513 -2.7813) (end -2.7813 -4.0513) (layer F.Fab) (width .1524))
  (fp_line (start 3.073 -4.0513) (end 3.327 -4.0513) (layer F.Fab) (width .1524))
  (fp_line (start 3.327 -4.0513) (end 3.327 -4.0513) (layer F.Fab) (width .1524))
  (fp_line (start 3.327 -4.0513) (end 3.073 -4.0513) (layer F.Fab) (width .1524))
  (fp_line (start 3.073 -4.0513) (end 3.073 -4.0513) (layer F.Fab) (width .1524))
  (fp_line (start 2.673 -4.0513) (end 2.927 -4.0513) (layer F.Fab) (width .1524))
  (fp_line (start 2.927 -4.0513) (end 2.927 -4.0513) (layer F.Fab) (width .1524))
  (fp_line (start 2.927 -4.0513) (end 2.673 -4.0513) (layer F.Fab) (width .1524))
  (fp_line (start 2.673 -4.0513) (end 2.673 -4.0513) (layer F.Fab) (width .1524))
  (fp_line (start 2.273 -4.0513) (end 2.527 -4.0513) (layer F.Fab) (width .1524))
  (fp_line (start 2.527 -4.0513) (end 2.527 -4.0513) (layer F.Fab) (width .1524))
  (fp_line (start 2.527 -4.0513) (end 2.273 -4.0513) (layer F.Fab) (width .1524))
  (fp_line (start 2.273 -4.0513) (end 2.273 -4.0513) (layer F.Fab) (width .1524))
  (fp_line (start 1.873 -4.0513) (end 2.127 -4.0513) (layer F.Fab) (width .1524))
  (fp_line (start 2.127 -4.0513) (end 2.127 -4.0513) (layer F.Fab) (width .1524))
  (fp_line (start 2.127 -4.0513) (end 1.873 -4.0513) (layer F.Fab) (width .1524))
  (fp_line (start 1.873 -4.0513) (end 1.873 -4.0513) (layer F.Fab) (width .1524))
  (fp_line (start 1.473 -4.0513) (end 1.727 -4.0513) (layer F.Fab) (width .1524))
  (fp_line (start 1.727 -4.0513) (end 1.727 -4.0513) (layer F.Fab) (width .1524))
  (fp_line (start 1.727 -4.0513) (end 1.473 -4.0513) (layer F.Fab) (width .1524))
  (fp_line (start 1.473 -4.0513) (end 1.473 -4.0513) (layer F.Fab) (width .1524))
  (fp_line (start 1.073 -4.0513) (end 1.327 -4.0513) (layer F.Fab) (width .1524))
  (fp_line (start 1.327 -4.0513) (end 1.327 -4.0513) (layer F.Fab) (width .1524))
  (fp_line (start 1.327 -4.0513) (end 1.073 -4.0513) (layer F.Fab) (width .1524))
  (fp_line (start 1.073 -4.0513) (end 1.073 -4.0513) (layer F.Fab) (width .1524))
  (fp_line (start .673 -4.0513) (end .927 -4.0513) (layer F.Fab) (width .1524))
  (fp_line (start .927 -4.0513) (end .927 -4.0513) (layer F.Fab) (width .1524))
  (fp_line (start .927 -4.0513) (end .673 -4.0513) (layer F.Fab) (width .1524))
  (fp_line (start .673 -4.0513) (end .673 -4.0513) (layer F.Fab) (width .1524))
  (fp_line (start .273 -4.0513) (end .527 -4.0513) (layer F.Fab) (width .1524))
  (fp_line (start .527 -4.0513) (end .527 -4.0513) (layer F.Fab) (width .1524))
  (fp_line (start .527 -4.0513) (end .273 -4.0513) (layer F.Fab) (width .1524))
  (fp_line (start .273 -4.0513) (end .273 -4.0513) (layer F.Fab) (width .1524))
  (fp_line (start -.127 -4.0513) (end .127 -4.0513) (layer F.Fab) (width .1524))
  (fp_line (start .127 -4.0513) (end .127 -4.0513) (layer F.Fab) (width .1524))
  (fp_line (start .127 -4.0513) (end -.127 -4.0513) (layer F.Fab) (width .1524))
  (fp_line (start -.127 -4.0513) (end -.127 -4.0513) (layer F.Fab) (width .1524))
  (fp_line (start -.527 -4.0513) (end -.273 -4.0513) (layer F.Fab) (width .1524))
  (fp_line (start -.273 -4.0513) (end -.273 -4.0513) (layer F.Fab) (width .1524))
  (fp_line (start -.273 -4.0513) (end -.527 -4.0513) (layer F.Fab) (width .1524))
  (fp_line (start -.527 -4.0513) (end -.527 -4.0513) (layer F.Fab) (width .1524))
  (fp_line (start -.927 -4.0513) (end -.673 -4.0513) (layer F.Fab) (width .1524))
  (fp_line (start -.673 -4.0513) (end -.673 -4.0513) (layer F.Fab) (width .1524))
  (fp_line (start -.673 -4.0513) (end -.927 -4.0513) (layer F.Fab) (width .1524))
  (fp_line (start -.927 -4.0513) (end -.927 -4.0513) (layer F.Fab) (width .1524))
  (fp_line (start -1.327 -4.0513) (end -1.073 -4.0513) (layer F.Fab) (width .1524))
  (fp_line (start -1.073 -4.0513) (end -1.073 -4.0513) (layer F.Fab) (width .1524))
  (fp_line (start -1.073 -4.0513) (end -1.327 -4.0513) (layer F.Fab) (width .1524))
  (fp_line (start -1.327 -4.0513) (end -1.327 -4.0513) (layer F.Fab) (width .1524))
  (fp_line (start -1.727 -4.0513) (end -1.473 -4.0513) (layer F.Fab) (width .1524))
  (fp_line (start -1.473 -4.0513) (end -1.473 -4.0513) (layer F.Fab) (width .1524))
  (fp_line (start -1.473 -4.0513) (end -1.727 -4.0513) (layer F.Fab) (width .1524))
  (fp_line (start -1.727 -4.0513) (end -1.727 -4.0513) (layer F.Fab) (width .1524))
  (fp_line (start -2.127 -4.0513) (end -1.873 -4.0513) (layer F.Fab) (width .1524))
  (fp_line (start -1.873 -4.0513) (end -1.873 -4.0513) (layer F.Fab) (width .1524))
  (fp_line (start -1.873 -4.0513) (end -2.127 -4.0513) (layer F.Fab) (width .1524))
  (fp_line (start -2.127 -4.0513) (end -2.127 -4.0513) (layer F.Fab) (width .1524))
  (fp_line (start -2.527 -4.0513) (end -2.273 -4.0513) (layer F.Fab) (width .1524))
  (fp_line (start -2.273 -4.0513) (end -2.273 -4.0513) (layer F.Fab) (width .1524))
  (fp_line (start -2.273 -4.0513) (end -2.527 -4.0513) (layer F.Fab) (width .1524))
  (fp_line (start -2.527 -4.0513) (end -2.527 -4.0513) (layer F.Fab) (width .1524))
  (fp_line (start -2.927 -4.0513) (end -2.673 -4.0513) (layer F.Fab) (width .1524))
  (fp_line (start -2.673 -4.0513) (end -2.673 -4.0513) (layer F.Fab) (width .1524))
  (fp_line (start -2.673 -4.0513) (end -2.927 -4.0513) (layer F.Fab) (width .1524))
  (fp_line (start -2.927 -4.0513) (end -2.927 -4.0513) (layer F.Fab) (width .1524))
  (fp_line (start -3.327 -4.0513) (end -3.073 -4.0513) (layer F.Fab) (width .1524))
  (fp_line (start -3.073 -4.0513) (end -3.073 -4.0513) (layer F.Fab) (width .1524))
  (fp_line (start -3.073 -4.0513) (end -3.327 -4.0513) (layer F.Fab) (width .1524))
  (fp_line (start -3.327 -4.0513) (end -3.327 -4.0513) (layer F.Fab) (width .1524))
  (fp_line (start -4.0513 -3.073) (end -4.0513 -3.327) (layer F.Fab) (width .1524))
  (fp_line (start -4.0513 -3.327) (end -4.0513 -3.327) (layer F.Fab) (width .1524))
  (fp_line (start -4.0513 -3.327) (end -4.0513 -3.073) (layer F.Fab) (width .1524))
  (fp_line (start -4.0513 -3.073) (end -4.0513 -3.073) (layer F.Fab) (width .1524))
  (fp_line (start -4.0513 -2.673) (end -4.0513 -2.927) (layer F.Fab) (width .1524))
  (fp_line (start -4.0513 -2.927) (end -4.0513 -2.927) (layer F.Fab) (width .1524))
  (fp_line (start -4.0513 -2.927) (end -4.0513 -2.673) (layer F.Fab) (width .1524))
  (fp_line (start -4.0513 -2.673) (end -4.0513 -2.673) (layer F.Fab) (width .1524))
  (fp_line (start -4.0513 -2.273) (end -4.0513 -2.527) (layer F.Fab) (width .1524))
  (fp_line (start -4.0513 -2.527) (end -4.0513 -2.527) (layer F.Fab) (width .1524))
  (fp_line (start -4.0513 -2.527) (end -4.0513 -2.273) (layer F.Fab) (width .1524))
  (fp_line (start -4.0513 -2.273) (end -4.0513 -2.273) (layer F.Fab) (width .1524))
  (fp_line (start -4.0513 -1.873) (end -4.0513 -2.127) (layer F.Fab) (width .1524))
  (fp_line (start -4.0513 -2.127) (end -4.0513 -2.127) (layer F.Fab) (width .1524))
  (fp_line (start -4.0513 -2.127) (end -4.0513 -1.873) (layer F.Fab) (width .1524))
  (fp_line (start -4.0513 -1.873) (end -4.0513 -1.873) (layer F.Fab) (width .1524))
  (fp_line (start -4.0513 -1.473) (end -4.0513 -1.727) (layer F.Fab) (width .1524))
  (fp_line (start -4.0513 -1.727) (end -4.0513 -1.727) (layer F.Fab) (width .1524))
  (fp_line (start -4.0513 -1.727) (end -4.0513 -1.473) (layer F.Fab) (width .1524))
  (fp_line (start -4.0513 -1.473) (end -4.0513 -1.473) (layer F.Fab) (width .1524))
  (fp_line (start -4.0513 -1.073) (end -4.0513 -1.327) (layer F.Fab) (width .1524))
  (fp_line (start -4.0513 -1.327) (end -4.0513 -1.327) (layer F.Fab) (width .1524))
  (fp_line (start -4.0513 -1.327) (end -4.0513 -1.073) (layer F.Fab) (width .1524))
  (fp_line (start -4.0513 -1.073) (end -4.0513 -1.073) (layer F.Fab) (width .1524))
  (fp_line (start -4.0513 -.673) (end -4.0513 -.927) (layer F.Fab) (width .1524))
  (fp_line (start -4.0513 -.927) (end -4.0513 -.927) (layer F.Fab) (width .1524))
  (fp_line (start -4.0513 -.927) (end -4.0513 -.673) (layer F.Fab) (width .1524))
  (fp_line (start -4.0513 -.673) (end -4.0513 -.673) (layer F.Fab) (width .1524))
  (fp_line (start -4.0513 -.273) (end -4.0513 -.527) (layer F.Fab) (width .1524))
  (fp_line (start -4.0513 -.527) (end -4.0513 -.527) (layer F.Fab) (width .1524))
  (fp_line (start -4.0513 -.527) (end -4.0513 -.273) (layer F.Fab) (width .1524))
  (fp_line (start -4.0513 -.273) (end -4.0513 -.273) (layer F.Fab) (width .1524))
  (fp_line (start -4.0513 .127) (end -4.0513 -.127) (layer F.Fab) (width .1524))
  (fp_line (start -4.0513 -.127) (end -4.0513 -.127) (layer F.Fab) (width .1524))
  (fp_line (start -4.0513 -.127) (end -4.0513 .127) (layer F.Fab) (width .1524))
  (fp_line (start -4.0513 .127) (end -4.0513 .127) (layer F.Fab) (width .1524))
  (fp_line (start -4.0513 .527) (end -4.0513 .273) (layer F.Fab) (width .1524))
  (fp_line (start -4.0513 .273) (end -4.0513 .273) (layer F.Fab) (width .1524))
  (fp_line (start -4.0513 .273) (end -4.0513 .527) (layer F.Fab) (width .1524))
  (fp_line (start -4.0513 .527) (end -4.0513 .527) (layer F.Fab) (width .1524))
  (fp_line (start -4.0513 .927) (end -4.0513 .673) (layer F.Fab) (width .1524))
  (fp_line (start -4.0513 .673) (end -4.0513 .673) (layer F.Fab) (width .1524))
  (fp_line (start -4.0513 .673) (end -4.0513 .927) (layer F.Fab) (width .1524))
  (fp_line (start -4.0513 .927) (end -4.0513 .927) (layer F.Fab) (width .1524))
  (fp_line (start -4.0513 1.327) (end -4.0513 1.073) (layer F.Fab) (width .1524))
  (fp_line (start -4.0513 1.073) (end -4.0513 1.073) (layer F.Fab) (width .1524))
  (fp_line (start -4.0513 1.073) (end -4.0513 1.327) (layer F.Fab) (width .1524))
  (fp_line (start -4.0513 1.327) (end -4.0513 1.327) (layer F.Fab) (width .1524))
  (fp_line (start -4.0513 1.727) (end -4.0513 1.473) (layer F.Fab) (width .1524))
  (fp_line (start -4.0513 1.473) (end -4.0513 1.473) (layer F.Fab) (width .1524))
  (fp_line (start -4.0513 1.473) (end -4.0513 1.727) (layer F.Fab) (width .1524))
  (fp_line (start -4.0513 1.727) (end -4.0513 1.727) (layer F.Fab) (width .1524))
  (fp_line (start -4.0513 2.127) (end -4.0513 1.873) (layer F.Fab) (width .1524))
  (fp_line (start -4.0513 1.873) (end -4.0513 1.873) (layer F.Fab) (width .1524))
  (fp_line (start -4.0513 1.873) (end -4.0513 2.127) (layer F.Fab) (width .1524))
  (fp_line (start -4.0513 2.127) (end -4.0513 2.127) (layer F.Fab) (width .1524))
  (fp_line (start -4.0513 2.527) (end -4.0513 2.273) (layer F.Fab) (width .1524))
  (fp_line (start -4.0513 2.273) (end -4.0513 2.273) (layer F.Fab) (width .1524))
  (fp_line (start -4.0513 2.273) (end -4.0513 2.527) (layer F.Fab) (width .1524))
  (fp_line (start -4.0513 2.527) (end -4.0513 2.527) (layer F.Fab) (width .1524))
  (fp_line (start -4.0513 2.927) (end -4.0513 2.673) (layer F.Fab) (width .1524))
  (fp_line (start -4.0513 2.673) (end -4.0513 2.673) (layer F.Fab) (width .1524))
  (fp_line (start -4.0513 2.673) (end -4.0513 2.927) (layer F.Fab) (width .1524))
  (fp_line (start -4.0513 2.927) (end -4.0513 2.927) (layer F.Fab) (width .1524))
  (fp_line (start -4.0513 3.327) (end -4.0513 3.073) (layer F.Fab) (width .1524))
  (fp_line (start -4.0513 3.073) (end -4.0513 3.073) (layer F.Fab) (width .1524))
  (fp_line (start -4.0513 3.073) (end -4.0513 3.327) (layer F.Fab) (width .1524))
  (fp_line (start -4.0513 3.327) (end -4.0513 3.327) (layer F.Fab) (width .1524))
  (fp_line (start -3.073 4.0513) (end -3.327 4.0513) (layer F.Fab) (width .1524))
  (fp_line (start -3.327 4.0513) (end -3.327 4.0513) (layer F.Fab) (width .1524))
  (fp_line (start -3.327 4.0513) (end -3.073 4.0513) (layer F.Fab) (width .1524))
  (fp_line (start -3.073 4.0513) (end -3.073 4.0513) (layer F.Fab) (width .1524))
  (fp_line (start -2.673 4.0513) (end -2.927 4.0513) (layer F.Fab) (width .1524))
  (fp_line (start -2.927 4.0513) (end -2.927 4.0513) (layer F.Fab) (width .1524))
  (fp_line (start -2.927 4.0513) (end -2.673 4.0513) (layer F.Fab) (width .1524))
  (fp_line (start -2.673 4.0513) (end -2.673 4.0513) (layer F.Fab) (width .1524))
  (fp_line (start -2.273 4.0513) (end -2.527 4.0513) (layer F.Fab) (width .1524))
  (fp_line (start -2.527 4.0513) (end -2.527 4.0513) (layer F.Fab) (width .1524))
  (fp_line (start -2.527 4.0513) (end -2.273 4.0513) (layer F.Fab) (width .1524))
  (fp_line (start -2.273 4.0513) (end -2.273 4.0513) (layer F.Fab) (width .1524))
  (fp_line (start -1.873 4.0513) (end -2.127 4.0513) (layer F.Fab) (width .1524))
  (fp_line (start -2.127 4.0513) (end -2.127 4.0513) (layer F.Fab) (width .1524))
  (fp_line (start -2.127 4.0513) (end -1.873 4.0513) (layer F.Fab) (width .1524))
  (fp_line (start -1.873 4.0513) (end -1.873 4.0513) (layer F.Fab) (width .1524))
  (fp_line (start -1.473 4.0513) (end -1.727 4.0513) (layer F.Fab) (width .1524))
  (fp_line (start -1.727 4.0513) (end -1.727 4.0513) (layer F.Fab) (width .1524))
  (fp_line (start -1.727 4.0513) (end -1.473 4.0513) (layer F.Fab) (width .1524))
  (fp_line (start -1.473 4.0513) (end -1.473 4.0513) (layer F.Fab) (width .1524))
  (fp_line (start -1.073 4.0513) (end -1.327 4.0513) (layer F.Fab) (width .1524))
  (fp_line (start -1.327 4.0513) (end -1.327 4.0513) (layer F.Fab) (width .1524))
  (fp_line (start -1.327 4.0513) (end -1.073 4.0513) (layer F.Fab) (width .1524))
  (fp_line (start -1.073 4.0513) (end -1.073 4.0513) (layer F.Fab) (width .1524))
  (fp_line (start -.673 4.0513) (end -.927 4.0513) (layer F.Fab) (width .1524))
  (fp_line (start -.927 4.0513) (end -.927 4.0513) (layer F.Fab) (width .1524))
  (fp_line (start -.927 4.0513) (end -.673 4.0513) (layer F.Fab) (width .1524))
  (fp_line (start -.673 4.0513) (end -.673 4.0513) (layer F.Fab) (width .1524))
  (fp_line (start -.273 4.0513) (end -.527 4.0513) (layer F.Fab) (width .1524))
  (fp_line (start -.527 4.0513) (end -.527 4.0513) (layer F.Fab) (width .1524))
  (fp_line (start -.527 4.0513) (end -.273 4.0513) (layer F.Fab) (width .1524))
  (fp_line (start -.273 4.0513) (end -.273 4.0513) (layer F.Fab) (width .1524))
  (fp_line (start .127 4.0513) (end -.127 4.0513) (layer F.Fab) (width .1524))
  (fp_line (start -.127 4.0513) (end -.127 4.0513) (layer F.Fab) (width .1524))
  (fp_line (start -.127 4.0513) (end .127 4.0513) (layer F.Fab) (width .1524))
  (fp_line (start .127 4.0513) (end .127 4.0513) (layer F.Fab) (width .1524))
  (fp_line (start .527 4.0513) (end .273 4.0513) (layer F.Fab) (width .1524))
  (fp_line (start .273 4.0513) (end .273 4.0513) (layer F.Fab) (width .1524))
  (fp_line (start .273 4.0513) (end .527 4.0513) (layer F.Fab) (width .1524))
  (fp_line (start .527 4.0513) (end .527 4.0513) (layer F.Fab) (width .1524))
  (fp_line (start .927 4.0513) (end .673 4.0513) (layer F.Fab) (width .1524))
  (fp_line (start .673 4.0513) (end .673 4.0513) (layer F.Fab) (width .1524))
  (fp_line (start .673 4.0513) (end .927 4.0513) (layer F.Fab) (width .1524))
  (fp_line (start .927 4.0513) (end .927 4.0513) (layer F.Fab) (width .1524))
  (fp_line (start 1.327 4.0513) (end 1.073 4.0513) (layer F.Fab) (width .1524))
  (fp_line (start 1.073 4.0513) (end 1.073 4.0513) (layer F.Fab) (width .1524))
  (fp_line (start 1.073 4.0513) (end 1.327 4.0513) (layer F.Fab) (width .1524))
  (fp_line (start 1.327 4.0513) (end 1.327 4.0513) (layer F.Fab) (width .1524))
  (fp_line (start 1.727 4.0513) (end 1.473 4.0513) (layer F.Fab) (width .1524))
  (fp_line (start 1.473 4.0513) (end 1.473 4.0513) (layer F.Fab) (width .1524))
  (fp_line (start 1.473 4.0513) (end 1.727 4.0513) (layer F.Fab) (width .1524))
  (fp_line (start 1.727 4.0513) (end 1.727 4.0513) (layer F.Fab) (width .1524))
  (fp_line (start 2.127 4.0513) (end 1.873 4.0513) (layer F.Fab) (width .1524))
  (fp_line (start 1.873 4.0513) (end 1.873 4.0513) (layer F.Fab) (width .1524))
  (fp_line (start 1.873 4.0513) (end 2.127 4.0513) (layer F.Fab) (width .1524))
  (fp_line (start 2.127 4.0513) (end 2.127 4.0513) (layer F.Fab) (width .1524))
  (fp_line (start 2.527 4.0513) (end 2.273 4.0513) (layer F.Fab) (width .1524))
  (fp_line (start 2.273 4.0513) (end 2.273 4.0513) (layer F.Fab) (width .1524))
  (fp_line (start 2.273 4.0513) (end 2.527 4.0513) (layer F.Fab) (width .1524))
  (fp_line (start 2.527 4.0513) (end 2.527 4.0513) (layer F.Fab) (width .1524))
  (fp_line (start 2.927 4.0513) (end 2.673 4.0513) (layer F.Fab) (width .1524))
  (fp_line (start 2.673 4.0513) (end 2.673 4.0513) (layer F.Fab) (width .1524))
  (fp_line (start 2.673 4.0513) (end 2.927 4.0513) (layer F.Fab) (width .1524))
  (fp_line (start 2.927 4.0513) (end 2.927 4.0513) (layer F.Fab) (width .1524))
  (fp_line (start 3.327 4.0513) (end 3.073 4.0513) (layer F.Fab) (width .1524))
  (fp_line (start 3.073 4.0513) (end 3.073 4.0513) (layer F.Fab) (width .1524))
  (fp_line (start 3.073 4.0513) (end 3.327 4.0513) (layer F.Fab) (width .1524))
  (fp_line (start 3.327 4.0513) (end 3.327 4.0513) (layer F.Fab) (width .1524))
  (fp_line (start 4.0513 3.073) (end 4.0513 3.327) (layer F.Fab) (width .1524))
  (fp_line (start 4.0513 3.327) (end 4.0513 3.327) (layer F.Fab) (width .1524))
  (fp_line (start 4.0513 3.327) (end 4.0513 3.073) (layer F.Fab) (width .1524))
  (fp_line (start 4.0513 3.073) (end 4.0513 3.073) (layer F.Fab) (width .1524))
  (fp_line (start 4.0513 2.673) (end 4.0513 2.927) (layer F.Fab) (width .1524))
  (fp_line (start 4.0513 2.927) (end 4.0513 2.927) (layer F.Fab) (width .1524))
  (fp_line (start 4.0513 2.927) (end 4.0513 2.673) (layer F.Fab) (width .1524))
  (fp_line (start 4.0513 2.673) (end 4.0513 2.673) (layer F.Fab) (width .1524))
  (fp_line (start 4.0513 2.273) (end 4.0513 2.527) (layer F.Fab) (width .1524))
  (fp_line (start 4.0513 2.527) (end 4.0513 2.527) (layer F.Fab) (width .1524))
  (fp_line (start 4.0513 2.527) (end 4.0513 2.273) (layer F.Fab) (width .1524))
  (fp_line (start 4.0513 2.273) (end 4.0513 2.273) (layer F.Fab) (width .1524))
  (fp_line (start 4.0513 1.873) (end 4.0513 2.127) (layer F.Fab) (width .1524))
  (fp_line (start 4.0513 2.127) (end 4.0513 2.127) (layer F.Fab) (width .1524))
  (fp_line (start 4.0513 2.127) (end 4.0513 1.873) (layer F.Fab) (width .1524))
  (fp_line (start 4.0513 1.873) (end 4.0513 1.873) (layer F.Fab) (width .1524))
  (fp_line (start 4.0513 1.473) (end 4.0513 1.727) (layer F.Fab) (width .1524))
  (fp_line (start 4.0513 1.727) (end 4.0513 1.727) (layer F.Fab) (width .1524))
  (fp_line (start 4.0513 1.727) (end 4.0513 1.473) (layer F.Fab) (width .1524))
  (fp_line (start 4.0513 1.473) (end 4.0513 1.473) (layer F.Fab) (width .1524))
  (fp_line (start 4.0513 1.073) (end 4.0513 1.327) (layer F.Fab) (width .1524))
  (fp_line (start 4.0513 1.327) (end 4.0513 1.327) (layer F.Fab) (width .1524))
  (fp_line (start 4.0513 1.327) (end 4.0513 1.073) (layer F.Fab) (width .1524))
  (fp_line (start 4.0513 1.073) (end 4.0513 1.073) (layer F.Fab) (width .1524))
  (fp_line (start 4.0513 .673) (end 4.0513 .927) (layer F.Fab) (width .1524))
  (fp_line (start 4.0513 .927) (end 4.0513 .927) (layer F.Fab) (width .1524))
  (fp_line (start 4.0513 .927) (end 4.0513 .673) (layer F.Fab) (width .1524))
  (fp_line (start 4.0513 .673) (end 4.0513 .673) (layer F.Fab) (width .1524))
  (fp_line (start 4.0513 .273) (end 4.0513 .527) (layer F.Fab) (width .1524))
  (fp_line (start 4.0513 .527) (end 4.0513 .527) (layer F.Fab) (width .1524))
  (fp_line (start 4.0513 .527) (end 4.0513 .273) (layer F.Fab) (width .1524))
  (fp_line (start 4.0513 .273) (end 4.0513 .273) (layer F.Fab) (width .1524))
  (fp_line (start 4.0513 -.127) (end 4.0513 .127) (layer F.Fab) (width .1524))
  (fp_line (start 4.0513 .127) (end 4.0513 .127) (layer F.Fab) (width .1524))
  (fp_line (start 4.0513 .127) (end 4.0513 -.127) (layer F.Fab) (width .1524))
  (fp_line (start 4.0513 -.127) (end 4.0513 -.127) (layer F.Fab) (width .1524))
  (fp_line (start 4.0513 -.527) (end 4.0513 -.273) (layer F.Fab) (width .1524))
  (fp_line (start 4.0513 -.273) (end 4.0513 -.273) (layer F.Fab) (width .1524))
  (fp_line (start 4.0513 -.273) (end 4.0513 -.527) (layer F.Fab) (width .1524))
  (fp_line (start 4.0513 -.527) (end 4.0513 -.527) (layer F.Fab) (width .1524))
  (fp_line (start 4.0513 -.927) (end 4.0513 -.673) (layer F.Fab) (width .1524))
  (fp_line (start 4.0513 -.673) (end 4.0513 -.673) (layer F.Fab) (width .1524))
  (fp_line (start 4.0513 -.673) (end 4.0513 -.927) (layer F.Fab) (width .1524))
  (fp_line (start 4.0513 -.927) (end 4.0513 -.927) (layer F.Fab) (width .1524))
  (fp_line (start 4.0513 -1.327) (end 4.0513 -1.073) (layer F.Fab) (width .1524))
  (fp_line (start 4.0513 -1.073) (end 4.0513 -1.073) (layer F.Fab) (width .1524))
  (fp_line (start 4.0513 -1.073) (end 4.0513 -1.327) (layer F.Fab) (width .1524))
  (fp_line (start 4.0513 -1.327) (end 4.0513 -1.327) (layer F.Fab) (width .1524))
  (fp_line (start 4.0513 -1.727) (end 4.0513 -1.473) (layer F.Fab) (width .1524))
  (fp_line (start 4.0513 -1.473) (end 4.0513 -1.473) (layer F.Fab) (width .1524))
  (fp_line (start 4.0513 -1.473) (end 4.0513 -1.727) (layer F.Fab) (width .1524))
  (fp_line (start 4.0513 -1.727) (end 4.0513 -1.727) (layer F.Fab) (width .1524))
  (fp_line (start 4.0513 -2.127) (end 4.0513 -1.873) (layer F.Fab) (width .1524))
  (fp_line (start 4.0513 -1.873) (end 4.0513 -1.873) (layer F.Fab) (width .1524))
  (fp_line (start 4.0513 -1.873) (end 4.0513 -2.127) (layer F.Fab) (width .1524))
  (fp_line (start 4.0513 -2.127) (end 4.0513 -2.127) (layer F.Fab) (width .1524))
  (fp_line (start 4.0513 -2.527) (end 4.0513 -2.273) (layer F.Fab) (width .1524))
  (fp_line (start 4.0513 -2.273) (end 4.0513 -2.273) (layer F.Fab) (width .1524))
  (fp_line (start 4.0513 -2.273) (end 4.0513 -2.527) (layer F.Fab) (width .1524))
  (fp_line (start 4.0513 -2.527) (end 4.0513 -2.527) (layer F.Fab) (width .1524))
  (fp_line (start 4.0513 -2.927) (end 4.0513 -2.673) (layer F.Fab) (width .1524))
  (fp_line (start 4.0513 -2.673) (end 4.0513 -2.673) (layer F.Fab) (width .1524))
  (fp_line (start 4.0513 -2.673) (end 4.0513 -2.927) (layer F.Fab) (width .1524))
  (fp_line (start 4.0513 -2.927) (end 4.0513 -2.927) (layer F.Fab) (width .1524))
  (fp_line (start 4.0513 -3.327) (end 4.0513 -3.073) (layer F.Fab) (width .1524))
  (fp_line (start 4.0513 -3.073) (end 4.0513 -3.073) (layer F.Fab) (width .1524))
  (fp_line (start 4.0513 -3.073) (end 4.0513 -3.327) (layer F.Fab) (width .1524))
  (fp_line (start 4.0513 -3.327) (end 4.0513 -3.327) (layer F.Fab) (width .1524))
  (fp_line (start -4.1783 4.1783) (end -3.659739 4.1783) (layer F.SilkS) (width .1524))
  (fp_line (start 4.1783 4.1783) (end 4.1783 3.659739) (layer F.SilkS) (width .1524))
  (fp_line (start 4.1783 -4.1783) (end 3.659739 -4.1783) (layer F.SilkS) (width .1524))
  (fp_line (start -4.1783 -4.1783) (end -4.1783 -3.659739) (layer F.SilkS) (width .1524))
  (fp_line (start -4.1783 3.659739) (end -4.1783 4.1783) (layer F.SilkS) (width .1524))
  (fp_line (start -4.0513 4.0513) (end 4.0513 4.0513) (layer F.Fab) (width .1524))
  (fp_line (start 4.0513 4.0513) (end 4.0513 4.0513) (layer F.Fab) (width .1524))
  (fp_line (start 4.0513 4.0513) (end 4.0513 -4.0513) (layer F.Fab) (width .1524))
  (fp_line (start 4.0513 -4.0513) (end 4.0513 -4.0513) (layer F.Fab) (width .1524))
  (fp_line (start 4.0513 -4.0513) (end -4.0513 -4.0513) (layer F.Fab) (width .1524))
  (fp_line (start -4.0513 -4.0513) (end -4.0513 -4.0513) (layer F.Fab) (width .1524))
  (fp_line (start -4.0513 -4.0513) (end -4.0513 4.0513) (layer F.Fab) (width .1524))
  (fp_line (start -4.0513 4.0513) (end -4.0513 4.0513) (layer F.Fab) (width .1524))
  (fp_line (start 3.659739 4.1783) (end 4.1783 4.1783) (layer F.SilkS) (width .1524))
  (fp_line (start 4.1783 -3.659739) (end 4.1783 -4.1783) (layer F.SilkS) (width .1524))
  (fp_line (start -3.659739 -4.1783) (end -4.1783 -4.1783) (layer F.SilkS) (width .1524))
  (fp_line (start -4.8641 .209499) (end -4.8641 .590499) (layer F.SilkS) (width .1524))
  (fp_line (start -4.8641 .590499) (end -4.6101 .590499) (layer F.SilkS) (width .1524))
  (fp_line (start -4.6101 .590499) (end -4.6101 .209499) (layer F.SilkS) (width .1524))
  (fp_line (start -4.6101 .209499) (end -4.8641 .209499) (layer F.SilkS) (width .1524))
  (fp_line (start -2.5905 4.6101) (end -2.5905 4.8641) (layer F.SilkS) (width .1524))
  (fp_line (start -2.5905 4.8641) (end -2.2095 4.8641) (layer F.SilkS) (width .1524))
  (fp_line (start -2.2095 4.8641) (end -2.2095 4.6101) (layer F.SilkS) (width .1524))
  (fp_line (start -2.2095 4.6101) (end -2.5905 4.6101) (layer F.SilkS) (width .1524))
  (fp_line (start 1.409499 4.6101) (end 1.409499 4.8641) (layer F.SilkS) (width .1524))
  (fp_line (start 1.409499 4.8641) (end 1.790499 4.8641) (layer F.SilkS) (width .1524))
  (fp_line (start 1.790499 4.8641) (end 1.790499 4.6101) (layer F.SilkS) (width .1524))
  (fp_line (start 1.790499 4.6101) (end 1.409499 4.6101) (layer F.SilkS) (width .1524))
  (fp_line (start 4.8641 1.0095) (end 4.8641 1.3905) (layer F.SilkS) (width .1524))
  (fp_line (start 4.8641 1.3905) (end 4.6101 1.3905) (layer F.SilkS) (width .1524))
  (fp_line (start 4.6101 1.3905) (end 4.6101 1.0095) (layer F.SilkS) (width .1524))
  (fp_line (start 4.6101 1.0095) (end 4.8641 1.0095) (layer F.SilkS) (width .1524))
  (fp_line (start 4.8641 -2.990499) (end 4.8641 -2.609499) (layer F.SilkS) (width .1524))
  (fp_line (start 4.8641 -2.609499) (end 4.6101 -2.609499) (layer F.SilkS) (width .1524))
  (fp_line (start 4.6101 -2.609499) (end 4.6101 -2.990499) (layer F.SilkS) (width .1524))
  (fp_line (start 4.6101 -2.990499) (end 4.8641 -2.990499) (layer F.SilkS) (width .1524))
  (fp_line (start -.1905 -4.6101) (end -.1905 -4.8641) (layer F.SilkS) (width .1524))
  (fp_line (start -.1905 -4.8641) (end .1905 -4.8641) (layer F.SilkS) (width .1524))
  (fp_line (start .1905 -4.8641) (end .1905 -4.6101) (layer F.SilkS) (width .1524))
  (fp_line (start .1905 -4.6101) (end -.1905 -4.6101) (layer F.SilkS) (width .1524))
  (fp_line (start -2.7956 -2.7956) (end -2.7956 -1.5478) (layer F.Paste) (width .1524))
  (fp_line (start -2.7956 -1.5478) (end -1.5478 -1.5478) (layer F.Paste) (width .1524))
  (fp_line (start -1.5478 -1.5478) (end -1.5478 -2.7956) (layer F.Paste) (width .1524))
  (fp_line (start -1.5478 -2.7956) (end -2.7956 -2.7956) (layer F.Paste) (width .1524))
  (fp_line (start -2.7956 -1.3478) (end -2.7956 -.1) (layer F.Paste) (width .1524))
  (fp_line (start -2.7956 -.1) (end -1.5478 -.1) (layer F.Paste) (width .1524))
  (fp_line (start -1.5478 -.1) (end -1.5478 -1.3478) (layer F.Paste) (width .1524))
  (fp_line (start -1.5478 -1.3478) (end -2.7956 -1.3478) (layer F.Paste) (width .1524))
  (fp_line (start -2.7956 .1) (end -2.7956 1.3478) (layer F.Paste) (width .1524))
  (fp_line (start -2.7956 1.3478) (end -1.5478 1.3478) (layer F.Paste) (width .1524))
  (fp_line (start -1.5478 1.3478) (end -1.5478 .1) (layer F.Paste) (width .1524))
  (fp_line (start -1.5478 .1) (end -2.7956 .1) (layer F.Paste) (width .1524))
  (fp_line (start -2.7956 1.5478) (end -2.7956 2.7956) (layer F.Paste) (width .1524))
  (fp_line (start -2.7956 2.7956) (end -1.5478 2.7956) (layer F.Paste) (width .1524))
  (fp_line (start -1.5478 2.7956) (end -1.5478 1.5478) (layer F.Paste) (width .1524))
  (fp_line (start -1.5478 1.5478) (end -2.7956 1.5478) (layer F.Paste) (width .1524))
  (fp_line (start -1.3478 -2.7956) (end -1.3478 -1.5478) (layer F.Paste) (width .1524))
  (fp_line (start -1.3478 -1.5478) (end -.1 -1.5478) (layer F.Paste) (width .1524))
  (fp_line (start -.1 -1.5478) (end -.1 -2.7956) (layer F.Paste) (width .1524))
  (fp_line (start -.1 -2.7956) (end -1.3478 -2.7956) (layer F.Paste) (width .1524))
  (fp_line (start -1.3478 -1.3478) (end -1.3478 -.1) (layer F.Paste) (width .1524))
  (fp_line (start -1.3478 -.1) (end -.1 -.1) (layer F.Paste) (width .1524))
  (fp_line (start -.1 -.1) (end -.1 -1.3478) (layer F.Paste) (width .1524))
  (fp_line (start -.1 -1.3478) (end -1.3478 -1.3478) (layer F.Paste) (width .1524))
  (fp_line (start -1.3478 .1) (end -1.3478 1.3478) (layer F.Paste) (width .1524))
  (fp_line (start -1.3478 1.3478) (end -.1 1.3478) (layer F.Paste) (width .1524))
  (fp_line (start -.1 1.3478) (end -.1 .1) (layer F.Paste) (width .1524))
  (fp_line (start -.1 .1) (end -1.3478 .1) (layer F.Paste) (width .1524))
  (fp_line (start -1.3478 1.5478) (end -1.3478 2.7956) (layer F.Paste) (width .1524))
  (fp_line (start -1.3478 2.7956) (end -.1 2.7956) (layer F.Paste) (width .1524))
  (fp_line (start -.1 2.7956) (end -.1 1.5478) (layer F.Paste) (width .1524))
  (fp_line (start -.1 1.5478) (end -1.3478 1.5478) (layer F.Paste) (width .1524))
  (fp_line (start .1 -2.7956) (end .1 -1.5478) (layer F.Paste) (width .1524))
  (fp_line (start .1 -1.5478) (end 1.3478 -1.5478) (layer F.Paste) (width .1524))
  (fp_line (start 1.3478 -1.5478) (end 1.3478 -2.7956) (layer F.Paste) (width .1524))
  (fp_line (start 1.3478 -2.7956) (end .1 -2.7956) (layer F.Paste) (width .1524))
  (fp_line (start .1 -1.3478) (end .1 -.1) (layer F.Paste) (width .1524))
  (fp_line (start .1 -.1) (end 1.3478 -.1) (layer F.Paste) (width .1524))
  (fp_line (start 1.3478 -.1) (end 1.3478 -1.3478) (layer F.Paste) (width .1524))
  (fp_line (start 1.3478 -1.3478) (end .1 -1.3478) (layer F.Paste) (width .1524))
  (fp_line (start .1 .1) (end .1 1.3478) (layer F.Paste) (width .1524))
  (fp_line (start .1 1.3478) (end 1.3478 1.3478) (layer F.Paste) (width .1524))
  (fp_line (start 1.3478 1.3478) (end 1.3478 .1) (layer F.Paste) (width .1524))
  (fp_line (start 1.3478 .1) (end .1 .1) (layer F.Paste) (width .1524))
  (fp_line (start .1 1.5478) (end .1 2.7956) (layer F.Paste) (width .1524))
  (fp_line (start .1 2.7956) (end 1.3478 2.7956) (layer F.Paste) (width .1524))
  (fp_line (start 1.3478 2.7956) (end 1.3478 1.5478) (layer F.Paste) (width .1524))
  (fp_line (start 1.3478 1.5478) (end .1 1.5478) (layer F.Paste) (width .1524))
  (fp_line (start 1.5478 -2.7956) (end 1.5478 -1.5478) (layer F.Paste) (width .1524))
  (fp_line (start 1.5478 -1.5478) (end 2.7956 -1.5478) (layer F.Paste) (width .1524))
  (fp_line (start 2.7956 -1.5478) (end 2.7956 -2.7956) (layer F.Paste) (width .1524))
  (fp_line (start 2.7956 -2.7956) (end 1.5478 -2.7956) (layer F.Paste) (width .1524))
  (fp_line (start 1.5478 -1.3478) (end 1.5478 -.1) (layer F.Paste) (width .1524))
  (fp_line (start 1.5478 -.1) (end 2.7956 -.1) (layer F.Paste) (width .1524))
  (fp_line (start 2.7956 -.1) (end 2.7956 -1.3478) (layer F.Paste) (width .1524))
  (fp_line (start 2.7956 -1.3478) (end 1.5478 -1.3478) (layer F.Paste) (width .1524))
  (fp_line (start 1.5478 .1) (end 1.5478 1.3478) (layer F.Paste) (width .1524))
  (fp_line (start 1.5478 1.3478) (end 2.7956 1.3478) (layer F.Paste) (width .1524))
  (fp_line (start 2.7956 1.3478) (end 2.7956 .1) (layer F.Paste) (width .1524))
  (fp_line (start 2.7956 .1) (end 1.5478 .1) (layer F.Paste) (width .1524))
  (fp_line (start 1.5478 1.5478) (end 1.5478 2.7956) (layer F.Paste) (width .1524))
  (fp_line (start 1.5478 2.7956) (end 2.7956 2.7956) (layer F.Paste) (width .1524))
  (fp_line (start 2.7956 2.7956) (end 2.7956 1.5478) (layer F.Paste) (width .1524))
  (fp_line (start 2.7956 1.5478) (end 1.5478 1.5478) (layer F.Paste) (width .1524))
  (fp_line (start -4.3053 4.3053) (end -4.3053 3.4) (layer F.CrtYd) (width .1524))
  (fp_line (start -4.3053 3.4) (end -4.5593 3.4) (layer F.CrtYd) (width .1524))
  (fp_line (start -4.5593 3.4) (end -4.5593 -3.4) (layer F.CrtYd) (width .1524))
  (fp_line (start -4.5593 -3.4) (end -4.3053 -3.4) (layer F.CrtYd) (width .1524))
  (fp_line (start -4.3053 -3.4) (end -4.3053 -4.3053) (layer F.CrtYd) (width .1524))
  (fp_line (start -4.3053 -4.3053) (end -3.4 -4.3053) (layer F.CrtYd) (width .1524))
  (fp_line (start -3.4 -4.3053) (end -3.4 -4.5593) (layer F.CrtYd) (width .1524))
  (fp_line (start -3.4 -4.5593) (end 3.4 -4.5593) (layer F.CrtYd) (width .1524))
  (fp_line (start 3.4 -4.5593) (end 3.4 -4.3053) (layer F.CrtYd) (width .1524))
  (fp_line (start 3.4 -4.3053) (end 4.3053 -4.3053) (layer F.CrtYd) (width .1524))
  (fp_line (start 4.3053 -4.3053) (end 4.3053 -3.4) (layer F.CrtYd) (width .1524))
  (fp_line (start 4.3053 -3.4) (end 4.5593 -3.4) (layer F.CrtYd) (width .1524))
  (fp_line (start 4.5593 -3.4) (end 4.5593 3.4) (layer F.CrtYd) (width .1524))
  (fp_line (start 4.5593 3.4) (end 4.3053 3.4) (layer F.CrtYd) (width .1524))
  (fp_line (start 4.3053 3.4) (end 4.3053 4.3053) (layer F.CrtYd) (width .1524))
  (fp_line (start 4.3053 4.3053) (end 3.4 4.3053) (layer F.CrtYd) (width .1524))
  (fp_line (start 3.4 4.3053) (end 3.4 4.5593) (layer F.CrtYd) (width .1524))
  (fp_line (start 3.4 4.5593) (end -3.4 4.5593) (layer F.CrtYd) (width .1524))
  (fp_line (start -3.4 4.5593) (end -3.4 4.3053) (layer F.CrtYd) (width .1524))
  (fp_line (start -3.4 4.3053) (end -4.3053 4.3053) (layer F.CrtYd) (width .1524))
  (pad 1 smd rect (at -3.9497 -3.199999 90) (size .254 .8128) (layers F.Cu F.Paste F.Mask))
  (pad 2 smd rect (at -3.9497 -2.799999 90) (size .254 .8128) (layers F.Cu F.Paste F.Mask))
  (pad 3 smd rect (at -3.9497 -2.4 90) (size .254 .8128) (layers F.Cu F.Paste F.Mask))
  (pad 4 smd rect (at -3.9497 -2.000001 90) (size .254 .8128) (layers F.Cu F.Paste F.Mask))
  (pad 5 smd rect (at -3.9497 -1.599999 90) (size .254 .8128) (layers F.Cu F.Paste F.Mask))
  (pad 6 smd rect (at -3.9497 -1.2 90) (size .254 .8128) (layers F.Cu F.Paste F.Mask))
  (pad 7 smd rect (at -3.9497 -.800001 90) (size .254 .8128) (layers F.Cu F.Paste F.Mask))
  (pad 8 smd rect (at -3.9497 -.399999 90) (size .254 .8128) (layers F.Cu F.Paste F.Mask))
  (pad 9 smd rect (at -3.9497 0 90) (size .254 .8128) (layers F.Cu F.Paste F.Mask))
  (pad 10 smd rect (at -3.9497 .399999 90) (size .254 .8128) (layers F.Cu F.Paste F.Mask))
  (pad 11 smd rect (at -3.9497 .800001 90) (size .254 .8128) (layers F.Cu F.Paste F.Mask))
  (pad 12 smd rect (at -3.9497 1.2 90) (size .254 .8128) (layers F.Cu F.Paste F.Mask))
  (pad 13 smd rect (at -3.9497 1.599999 90) (size .254 .8128) (layers F.Cu F.Paste F.Mask))
  (pad 14 smd rect (at -3.9497 1.999999 90) (size .254 .8128) (layers F.Cu F.Paste F.Mask))
  (pad 15 smd rect (at -3.9497 2.4 90) (size .254 .8128) (layers F.Cu F.Paste F.Mask))
  (pad 16 smd rect (at -3.9497 2.799999 90) (size .254 .8128) (layers F.Cu F.Paste F.Mask))
  (pad 17 smd rect (at -3.9497 3.199999 90) (size .254 .8128) (layers F.Cu F.Paste F.Mask))
  (pad 18 smd rect (at -3.199999 3.9497) (size .254 .8128) (layers F.Cu F.Paste F.Mask))
  (pad 19 smd rect (at -2.799999 3.9497) (size .254 .8128) (layers F.Cu F.Paste F.Mask))
  (pad 20 smd rect (at -2.4 3.9497) (size .254 .8128) (layers F.Cu F.Paste F.Mask))
  (pad 21 smd rect (at -1.999999 3.9497) (size .254 .8128) (layers F.Cu F.Paste F.Mask))
  (pad 22 smd rect (at -1.599999 3.9497) (size .254 .8128) (layers F.Cu F.Paste F.Mask))
  (pad 23 smd rect (at -1.2 3.9497) (size .254 .8128) (layers F.Cu F.Paste F.Mask))
  (pad 24 smd rect (at -.800001 3.9497) (size .254 .8128) (layers F.Cu F.Paste F.Mask))
  (pad 25 smd rect (at -.399999 3.9497) (size .254 .8128) (layers F.Cu F.Paste F.Mask))
  (pad 26 smd rect (at 0 3.9497) (size .254 .8128) (layers F.Cu F.Paste F.Mask))
  (pad 27 smd rect (at .399999 3.9497) (size .254 .8128) (layers F.Cu F.Paste F.Mask))
  (pad 28 smd rect (at .800001 3.9497) (size .254 .8128) (layers F.Cu F.Paste F.Mask))
  (pad 29 smd rect (at 1.2 3.9497) (size .254 .8128) (layers F.Cu F.Paste F.Mask))
  (pad 30 smd rect (at 1.599999 3.9497) (size .254 .8128) (layers F.Cu F.Paste F.Mask))
  (pad 31 smd rect (at 1.999999 3.9497) (size .254 .8128) (layers F.Cu F.Paste F.Mask))
  (pad 32 smd rect (at 2.4 3.9497) (size .254 .8128) (layers F.Cu F.Paste F.Mask))
  (pad 33 smd rect (at 2.799999 3.9497) (size .254 .8128) (layers F.Cu F.Paste F.Mask))
  (pad 34 smd rect (at 3.199999 3.9497) (size .254 .8128) (layers F.Cu F.Paste F.Mask))
  (pad 35 smd rect (at 3.9497 3.199999 90) (size .254 .8128) (layers F.Cu F.Paste F.Mask))
  (pad 36 smd rect (at 3.9497 2.799999 90) (size .254 .8128) (layers F.Cu F.Paste F.Mask))
  (pad 37 smd rect (at 3.9497 2.4 90) (size .254 .8128) (layers F.Cu F.Paste F.Mask))
  (pad 38 smd rect (at 3.9497 1.999999 90) (size .254 .8128) (layers F.Cu F.Paste F.Mask))
  (pad 39 smd rect (at 3.9497 1.599999 90) (size .254 .8128) (layers F.Cu F.Paste F.Mask))
  (pad 40 smd rect (at 3.9497 1.2 90) (size .254 .8128) (layers F.Cu F.Paste F.Mask))
  (pad 41 smd rect (at 3.9497 .800001 90) (size .254 .8128) (layers F.Cu F.Paste F.Mask))
  (pad 42 smd rect (at 3.9497 .399999 90) (size .254 .8128) (layers F.Cu F.Paste F.Mask))
  (pad 43 smd rect (at 3.9497 0 90) (size .254 .8128) (layers F.Cu F.Paste F.Mask))
  (pad 44 smd rect (at 3.9497 -.399999 90) (size .254 .8128) (layers F.Cu F.Paste F.Mask))
  (pad 45 smd rect (at 3.9497 -.800001 90) (size .254 .8128) (layers F.Cu F.Paste F.Mask))
  (pad 46 smd rect (at 3.9497 -1.2 90) (size .254 .8128) (layers F.Cu F.Paste F.Mask))
  (pad 47 smd rect (at 3.9497 -1.599999 90) (size .254 .8128) (layers F.Cu F.Paste F.Mask))
  (pad 48 smd rect (at 3.9497 -1.999999 90) (size .254 .8128) (layers F.Cu F.Paste F.Mask))
  (pad 49 smd rect (at 3.9497 -2.4 90) (size .254 .8128) (layers F.Cu F.Paste F.Mask))
  (pad 50 smd rect (at 3.9497 -2.799999 90) (size .254 .8128) (layers F.Cu F.Paste F.Mask))
  (pad 51 smd rect (at 3.9497 -3.199999 90) (size .254 .8128) (layers F.Cu F.Paste F.Mask))
  (pad 52 smd rect (at 3.199999 -3.9497) (size .254 .8128) (layers F.Cu F.Paste F.Mask))
  (pad 53 smd rect (at 2.799999 -3.9497) (size .254 .8128) (layers F.Cu F.Paste F.Mask))
  (pad 54 smd rect (at 2.4 -3.9497) (size .254 .8128) (layers F.Cu F.Paste F.Mask))
  (pad 55 smd rect (at 1.999999 -3.9497) (size .254 .8128) (layers F.Cu F.Paste F.Mask))
  (pad 56 smd rect (at 1.599999 -3.9497) (size .254 .8128) (layers F.Cu F.Paste F.Mask))
  (pad 57 smd rect (at 1.2 -3.9497) (size .254 .8128) (layers F.Cu F.Paste F.Mask))
  (pad 58 smd rect (at .800001 -3.9497) (size .254 .8128) (layers F.Cu F.Paste F.Mask))
  (pad 59 smd rect (at .399999 -3.9497) (size .254 .8128) (layers F.Cu F.Paste F.Mask))
  (pad 60 smd rect (at 0 -3.9497) (size .254 .8128) (layers F.Cu F.Paste F.Mask))
  (pad 61 smd rect (at -.399999 -3.9497) (size .254 .8128) (layers F.Cu F.Paste F.Mask))
  (pad 62 smd rect (at -.800001 -3.9497) (size .254 .8128) (layers F.Cu F.Paste F.Mask))
  (pad 63 smd rect (at -1.2 -3.9497) (size .254 .8128) (layers F.Cu F.Paste F.Mask))
  (pad 64 smd rect (at -1.599999 -3.9497) (size .254 .8128) (layers F.Cu F.Paste F.Mask))
  (pad 65 smd rect (at -1.999999 -3.9497) (size .254 .8128) (layers F.Cu F.Paste F.Mask))
  (pad 66 smd rect (at -2.4 -3.9497) (size .254 .8128) (layers F.Cu F.Paste F.Mask))
  (pad 67 smd rect (at -2.799999 -3.9497) (size .254 .8128) (layers F.Cu F.Paste F.Mask))
  (pad 68 smd rect (at -3.199999 -3.9497) (size .254 .8128) (layers F.Cu F.Paste F.Mask))
  (pad 69 smd rect (at 0 0) (size 5.7912 5.7912) (layers F.Cu F.Paste F.Mask))
)
