Loading plugins phase: Elapsed time ==> 0s.418ms
<CYPRESSTAG name="CyDsfit arguments...">
cydsfit arguments: -.fdsnotice -.fdswarpdepfile=warp_dependencies.txt -.fdselabdepfile=elab_dependencies.txt -.fdsbldfile=generated_files.txt -.fdsreffile=referenced_files.txt -p C:\Users\jonathanp\Documents\SiTime\HW\TIC\psoc\TIC\SPI_TDC7200.cydsn\SPI_TDC7200.cyprj -d CY8C5866LTI-LP022 -s C:\Users\jonathanp\Documents\SiTime\HW\TIC\psoc\TIC\SPI_TDC7200.cydsn\Generated_Source\PSoC5 -- -yv2 -q10 -ygs -o2 -v3 -.fftcfgtype=LE
</CYPRESSTAG>
<CYPRESSTAG name="Design elaboration results...">
</CYPRESSTAG>
Elaboration phase: Elapsed time ==> 1s.825ms
<CYPRESSTAG name="HDL generation results...">
</CYPRESSTAG>
HDL generation phase: Elapsed time ==> 0s.034ms
<CYPRESSTAG name="Synthesis results...">

     | | | | | | |
   _________________
  -|               |-
  -|               |-
  -|               |-
  -|    CYPRESS    |-
  -|               |-
  -|               |-   Warp Verilog Synthesis Compiler: Version 6.3 IR 41
  -|               |-   Copyright (C) 1991-2001 Cypress Semiconductor
   |_______________|
     | | | | | | |

======================================================================
Compiling:  SPI_TDC7200.v
Program  :   C:\Program Files (x86)\Cypress\PSoC Creator\4.3\PSoC Creator\warp\bin\warp.exe
Options  :    -yv2 -q10 -ygs -o2 -v3 -.fftcfgtype=LE -ya -.fftprj=C:\Users\jonathanp\Documents\SiTime\HW\TIC\psoc\TIC\SPI_TDC7200.cydsn\SPI_TDC7200.cyprj -dcpsoc3 SPI_TDC7200.v -verilog
======================================================================

======================================================================
Compiling:  SPI_TDC7200.v
Program  :   C:\Program Files (x86)\Cypress\PSoC Creator\4.3\PSoC Creator\warp\bin\warp.exe
Options  :    -yv2 -q10 -ygs -o2 -v3 -.fftcfgtype=LE -ya -.fftprj=C:\Users\jonathanp\Documents\SiTime\HW\TIC\psoc\TIC\SPI_TDC7200.cydsn\SPI_TDC7200.cyprj -dcpsoc3 SPI_TDC7200.v -verilog
======================================================================

======================================================================
Compiling:  SPI_TDC7200.v
Program  :   vlogfe
Options  :    -yv2 -q10 -ygs -o2 -v3 -.fftcfgtype=LE -ya -.fftprj=C:\Users\jonathanp\Documents\SiTime\HW\TIC\psoc\TIC\SPI_TDC7200.cydsn\SPI_TDC7200.cyprj -dcpsoc3 -verilog SPI_TDC7200.v
======================================================================

vlogfe V6.3 IR 41:  Verilog parser
Fri Sep 25 23:19:08 2020


======================================================================
Compiling:  SPI_TDC7200.v
Program  :   vpp
Options  :    -yv2 -q10 SPI_TDC7200.v
======================================================================

vpp V6.3 IR 41:  Verilog Pre-Processor
Fri Sep 25 23:19:08 2020

Flattening file 'C:\Program Files (x86)\Cypress\PSoC Creator\4.3\PSoC Creator\psoc\content\CyPrimitives\cyprimitives.cylib\CyStatusReg_v1_90\CyStatusReg_v1_90.v'
Flattening file 'C:\Program Files (x86)\Cypress\PSoC Creator\4.3\PSoC Creator\warp\lib\common\cypress.v'
Flattening file 'C:\Program Files (x86)\Cypress\PSoC Creator\4.3\PSoC Creator\warp\lib\common\cy_psoc3_inc.v'
Flattening file 'C:\Program Files (x86)\Cypress\PSoC Creator\4.3\PSoC Creator\psoc\content\CyPrimitives\cyprimitives.cylib\cy_virtualmux_v1_0\cy_virtualmux_v1_0.v'
Flattening file 'C:\Program Files (x86)\Cypress\PSoC Creator\4.3\PSoC Creator\psoc\content\CyComponentLibrary\CyComponentLibrary.cylib\B_SPI_Master_v2_50\B_SPI_Master_v2_50.v'
Flattening file 'C:\Program Files (x86)\Cypress\PSoC Creator\4.3\PSoC Creator\warp\lib\common\cypress.v'
Flattening file 'C:\Program Files (x86)\Cypress\PSoC Creator\4.3\PSoC Creator\psoc\content\CyPrimitives\cyprimitives.cylib\ZeroTerminal\ZeroTerminal.v'
Flattening file 'C:\Program Files (x86)\Cypress\PSoC Creator\4.3\PSoC Creator\psoc\content\CyPrimitives\cyprimitives.cylib\cy_constant_v1_0\cy_constant_v1_0.v'

vpp:  No errors.

Library 'work' => directory 'lcpsoc3'
General_symbol_table
General_symbol_table
Linking 'C:\Program Files (x86)\Cypress\PSoC Creator\4.3\PSoC Creator\warp\lib\common\std.vhd'.
Linking 'C:\Program Files (x86)\Cypress\PSoC Creator\4.3\PSoC Creator\warp\lib\common\cypress.vhd'.
Linking 'C:\Program Files (x86)\Cypress\PSoC Creator\4.3\PSoC Creator\warp\lib\common\work\cypress.vif'.
Linking 'C:\Program Files (x86)\Cypress\PSoC Creator\4.3\PSoC Creator\warp\lib\ieee\work\stdlogic.vif'.
Linking 'C:\Program Files (x86)\Cypress\PSoC Creator\4.3\PSoC Creator\warp\lib\common\stdlogic\lpmpkg.vif'.
Linking 'C:\Program Files (x86)\Cypress\PSoC Creator\4.3\PSoC Creator\warp\lib\common\stdlogic\rtlpkg.vif'.
Linking 'C:\Program Files (x86)\Cypress\PSoC Creator\4.3\PSoC Creator\warp\lib\common\stdlogic\mod_cnst.vif'.
Linking 'C:\Program Files (x86)\Cypress\PSoC Creator\4.3\PSoC Creator\warp\lib\common\stdlogic\mod_mthv.vif'.
Linking 'C:\Program Files (x86)\Cypress\PSoC Creator\4.3\PSoC Creator\warp\lib\common\stdlogic\mod_genv.vif'.
Using control file 'SPI_TDC7200.ctl'.
Linking 'C:\Program Files (x86)\Cypress\PSoC Creator\4.3\PSoC Creator\warp\lib\common\stdlogic\cy_psoc3pkg.vif'.
Linking 'C:\Program Files (x86)\Cypress\PSoC Creator\4.3\PSoC Creator\warp\lib\common\stdlogic\cy_psoc3.vif'.

vlogfe:  No errors.


======================================================================
Compiling:  SPI_TDC7200.v
Program  :   tovif
Options  :    -yv2 -q10 -ygs -o2 -v3 -.fftcfgtype=LE -ya -.fftprj=C:\Users\jonathanp\Documents\SiTime\HW\TIC\psoc\TIC\SPI_TDC7200.cydsn\SPI_TDC7200.cyprj -dcpsoc3 -verilog SPI_TDC7200.v
======================================================================

tovif V6.3 IR 41:  High-level synthesis
Fri Sep 25 23:19:08 2020

Linking 'C:\Program Files (x86)\Cypress\PSoC Creator\4.3\PSoC Creator\warp\lib\common\std.vhd'.
Linking 'C:\Program Files (x86)\Cypress\PSoC Creator\4.3\PSoC Creator\warp\lib\common\cypress.vhd'.
Linking 'C:\Program Files (x86)\Cypress\PSoC Creator\4.3\PSoC Creator\warp\lib\common\work\cypress.vif'.
Linking 'C:\Program Files (x86)\Cypress\PSoC Creator\4.3\PSoC Creator\warp\lib\ieee\work\stdlogic.vif'.
Linking 'C:\Program Files (x86)\Cypress\PSoC Creator\4.3\PSoC Creator\warp\lib\common\stdlogic\lpmpkg.vif'.
Linking 'C:\Program Files (x86)\Cypress\PSoC Creator\4.3\PSoC Creator\warp\lib\common\stdlogic\rtlpkg.vif'.
Linking 'C:\Program Files (x86)\Cypress\PSoC Creator\4.3\PSoC Creator\warp\lib\common\stdlogic\mod_cnst.vif'.
Linking 'C:\Program Files (x86)\Cypress\PSoC Creator\4.3\PSoC Creator\warp\lib\common\stdlogic\mod_mthv.vif'.
Linking 'C:\Program Files (x86)\Cypress\PSoC Creator\4.3\PSoC Creator\warp\lib\common\stdlogic\mod_genv.vif'.
Linking 'C:\Users\jonathanp\Documents\SiTime\HW\TIC\psoc\TIC\SPI_TDC7200.cydsn\codegentemp\SPI_TDC7200.ctl'.
Linking 'C:\Program Files (x86)\Cypress\PSoC Creator\4.3\PSoC Creator\psoc\content\CyPrimitives\cyprimitives.cylib\CyStatusReg_v1_90\CyStatusReg_v1_90.v'.
Linking 'C:\Program Files (x86)\Cypress\PSoC Creator\4.3\PSoC Creator\warp\lib\common\cypress.v'.
Linking 'C:\Program Files (x86)\Cypress\PSoC Creator\4.3\PSoC Creator\warp\lib\common\cy_psoc3_inc.v'.
Linking 'C:\Users\jonathanp\Documents\SiTime\HW\TIC\psoc\TIC\SPI_TDC7200.cydsn\codegentemp\SPI_TDC7200.v'.
Linking 'C:\Program Files (x86)\Cypress\PSoC Creator\4.3\PSoC Creator\psoc\content\CyPrimitives\cyprimitives.cylib\cy_virtualmux_v1_0\cy_virtualmux_v1_0.v'.
Linking 'C:\Program Files (x86)\Cypress\PSoC Creator\4.3\PSoC Creator\psoc\content\CyComponentLibrary\CyComponentLibrary.cylib\B_SPI_Master_v2_50\B_SPI_Master_v2_50.v'.
Linking 'C:\Program Files (x86)\Cypress\PSoC Creator\4.3\PSoC Creator\psoc\content\CyPrimitives\cyprimitives.cylib\ZeroTerminal\ZeroTerminal.v'.
Linking 'C:\Program Files (x86)\Cypress\PSoC Creator\4.3\PSoC Creator\psoc\content\CyPrimitives\cyprimitives.cylib\cy_constant_v1_0\cy_constant_v1_0.v'.
Linking 'C:\Program Files (x86)\Cypress\PSoC Creator\4.3\PSoC Creator\warp\lib\common\stdlogic\cy_psoc3pkg.vif'.
Linking 'C:\Program Files (x86)\Cypress\PSoC Creator\4.3\PSoC Creator\warp\lib\common\stdlogic\cy_psoc3.vif'.

tovif:  No errors.


======================================================================
Compiling:  SPI_TDC7200.v
Program  :   topld
Options  :    -yv2 -q10 -ygs -o2 -v3 -.fftcfgtype=LE -ya -.fftprj=C:\Users\jonathanp\Documents\SiTime\HW\TIC\psoc\TIC\SPI_TDC7200.cydsn\SPI_TDC7200.cyprj -dcpsoc3 -verilog SPI_TDC7200.v
======================================================================

topld V6.3 IR 41:  Synthesis and optimization
Fri Sep 25 23:19:08 2020

Linking 'C:\Program Files (x86)\Cypress\PSoC Creator\4.3\PSoC Creator\warp\lib\common\std.vhd'.
Linking 'C:\Program Files (x86)\Cypress\PSoC Creator\4.3\PSoC Creator\warp\lib\common\cypress.vhd'.
Linking 'C:\Program Files (x86)\Cypress\PSoC Creator\4.3\PSoC Creator\warp\lib\common\work\cypress.vif'.
Linking 'C:\Program Files (x86)\Cypress\PSoC Creator\4.3\PSoC Creator\warp\lib\ieee\work\stdlogic.vif'.
Linking 'C:\Program Files (x86)\Cypress\PSoC Creator\4.3\PSoC Creator\warp\lib\common\stdlogic\lpmpkg.vif'.
Linking 'C:\Program Files (x86)\Cypress\PSoC Creator\4.3\PSoC Creator\warp\lib\common\stdlogic\rtlpkg.vif'.
Linking 'C:\Program Files (x86)\Cypress\PSoC Creator\4.3\PSoC Creator\warp\lib\common\stdlogic\mod_cnst.vif'.
Linking 'C:\Program Files (x86)\Cypress\PSoC Creator\4.3\PSoC Creator\warp\lib\common\stdlogic\mod_mthv.vif'.
Linking 'C:\Program Files (x86)\Cypress\PSoC Creator\4.3\PSoC Creator\warp\lib\common\stdlogic\mod_genv.vif'.
Linking 'C:\Users\jonathanp\Documents\SiTime\HW\TIC\psoc\TIC\SPI_TDC7200.cydsn\codegentemp\SPI_TDC7200.ctl'.
Linking 'C:\Program Files (x86)\Cypress\PSoC Creator\4.3\PSoC Creator\psoc\content\CyPrimitives\cyprimitives.cylib\CyStatusReg_v1_90\CyStatusReg_v1_90.v'.
Linking 'C:\Program Files (x86)\Cypress\PSoC Creator\4.3\PSoC Creator\warp\lib\common\cypress.v'.
Linking 'C:\Program Files (x86)\Cypress\PSoC Creator\4.3\PSoC Creator\warp\lib\common\cy_psoc3_inc.v'.
Linking 'C:\Users\jonathanp\Documents\SiTime\HW\TIC\psoc\TIC\SPI_TDC7200.cydsn\codegentemp\SPI_TDC7200.v'.
Linking 'C:\Program Files (x86)\Cypress\PSoC Creator\4.3\PSoC Creator\psoc\content\CyPrimitives\cyprimitives.cylib\cy_virtualmux_v1_0\cy_virtualmux_v1_0.v'.
Linking 'C:\Program Files (x86)\Cypress\PSoC Creator\4.3\PSoC Creator\psoc\content\CyComponentLibrary\CyComponentLibrary.cylib\B_SPI_Master_v2_50\B_SPI_Master_v2_50.v'.
Linking 'C:\Program Files (x86)\Cypress\PSoC Creator\4.3\PSoC Creator\psoc\content\CyPrimitives\cyprimitives.cylib\ZeroTerminal\ZeroTerminal.v'.
Linking 'C:\Program Files (x86)\Cypress\PSoC Creator\4.3\PSoC Creator\psoc\content\CyPrimitives\cyprimitives.cylib\cy_constant_v1_0\cy_constant_v1_0.v'.
Linking 'C:\Program Files (x86)\Cypress\PSoC Creator\4.3\PSoC Creator\warp\lib\common\stdlogic\cy_psoc3pkg.vif'.
Linking 'C:\Program Files (x86)\Cypress\PSoC Creator\4.3\PSoC Creator\warp\lib\common\stdlogic\cy_psoc3.vif'.
Linking 'C:\Program Files (x86)\Cypress\PSoC Creator\4.3\PSoC Creator\warp\lib\lcpsoc3\stdlogic\cpsoc3.vif'.

----------------------------------------------------------
Detecting unused logic.
----------------------------------------------------------
    User names
	\SPI_TDC:BSPIM:mosi_after_ld\
	\SPI_TDC:BSPIM:so_send\
	\SPI_TDC:BSPIM:mosi_fin\
	\SPI_TDC:BSPIM:mosi_cpha_0\
	\SPI_TDC:BSPIM:mosi_cpha_1\
	\SPI_TDC:BSPIM:pre_mosi\
	\SPI_TDC:BSPIM:dpcounter_zero\
	\SPI_TDC:BSPIM:control_7\
	\SPI_TDC:BSPIM:control_6\
	\SPI_TDC:BSPIM:control_5\
	\SPI_TDC:BSPIM:control_4\
	\SPI_TDC:BSPIM:control_3\
	\SPI_TDC:BSPIM:control_2\
	\SPI_TDC:BSPIM:control_1\
	\SPI_TDC:BSPIM:control_0\
	\SPI_TDC:Net_294\
	Net_18


Deleted 17 User equations/components.
Deleted 0 Synthesized equations/components.

------------------------------------------------------
Alias Detection
------------------------------------------------------
Aliasing \STR_SPI_TDC:status_3\ to \STR_SPI_TDC:status_2\
Aliasing \STR_SPI_TDC:status_4\ to \STR_SPI_TDC:status_2\
Aliasing \STR_SPI_TDC:status_5\ to \STR_SPI_TDC:status_2\
Aliasing \STR_SPI_TDC:status_6\ to \STR_SPI_TDC:status_2\
Aliasing \STR_SPI_TDC:status_7\ to \STR_SPI_TDC:status_2\
Aliasing zero to \STR_SPI_TDC:status_2\
Aliasing \SPI_TDC:BSPIM:pol_supprt\ to \STR_SPI_TDC:status_2\
Aliasing \SPI_TDC:BSPIM:tx_status_3\ to \SPI_TDC:BSPIM:load_rx_data\
Aliasing \SPI_TDC:BSPIM:tx_status_6\ to \STR_SPI_TDC:status_2\
Aliasing \SPI_TDC:BSPIM:tx_status_5\ to \STR_SPI_TDC:status_2\
Aliasing \SPI_TDC:BSPIM:rx_status_3\ to \STR_SPI_TDC:status_2\
Aliasing \SPI_TDC:BSPIM:rx_status_2\ to \STR_SPI_TDC:status_2\
Aliasing \SPI_TDC:BSPIM:rx_status_1\ to \STR_SPI_TDC:status_2\
Aliasing \SPI_TDC:BSPIM:rx_status_0\ to \STR_SPI_TDC:status_2\
Aliasing \SPI_TDC:Net_289\ to \STR_SPI_TDC:status_2\
Aliasing tmpOE__SPI_MOSI_net_0 to one
Aliasing tmpOE__SPI_SS_net_0 to one
Aliasing tmpOE__SPI_CLK_net_0 to one
Aliasing tmpOE__SPI_MISO_net_0 to one
Aliasing \SPI_TDC:BSPIM:so_send_reg\\D\ to \STR_SPI_TDC:status_2\
Aliasing \SPI_TDC:BSPIM:mosi_pre_reg\\D\ to \STR_SPI_TDC:status_2\
Aliasing \SPI_TDC:BSPIM:dpcounter_one_reg\\D\ to \SPI_TDC:BSPIM:load_rx_data\
Removing Lhs of wire \STR_SPI_TDC:status_0\[0] = Net_619[1]
Removing Lhs of wire \STR_SPI_TDC:status_1\[2] = Net_983[3]
Removing Lhs of wire \STR_SPI_TDC:status_3\[5] = \STR_SPI_TDC:status_2\[4]
Removing Lhs of wire \STR_SPI_TDC:status_4\[6] = \STR_SPI_TDC:status_2\[4]
Removing Lhs of wire \STR_SPI_TDC:status_5\[7] = \STR_SPI_TDC:status_2\[4]
Removing Lhs of wire \STR_SPI_TDC:status_6\[8] = \STR_SPI_TDC:status_2\[4]
Removing Lhs of wire \STR_SPI_TDC:status_7\[9] = \STR_SPI_TDC:status_2\[4]
Removing Rhs of wire zero[11] = \STR_SPI_TDC:status_2\[4]
Removing Rhs of wire \SPI_TDC:Net_276\[17] = \SPI_TDC:Net_288\[18]
Removing Rhs of wire \SPI_TDC:BSPIM:load_rx_data\[23] = \SPI_TDC:BSPIM:dpcounter_one\[24]
Removing Lhs of wire \SPI_TDC:BSPIM:pol_supprt\[25] = zero[11]
Removing Lhs of wire \SPI_TDC:BSPIM:miso_to_dp\[26] = \SPI_TDC:Net_244\[27]
Removing Lhs of wire \SPI_TDC:Net_244\[27] = Net_100[118]
Removing Rhs of wire Net_24[31] = \SPI_TDC:BSPIM:mosi_reg\[32]
Removing Rhs of wire \SPI_TDC:BSPIM:tx_status_1\[54] = \SPI_TDC:BSPIM:dpMOSI_fifo_empty\[55]
Removing Rhs of wire \SPI_TDC:BSPIM:tx_status_2\[56] = \SPI_TDC:BSPIM:dpMOSI_fifo_not_full\[57]
Removing Lhs of wire \SPI_TDC:BSPIM:tx_status_3\[58] = \SPI_TDC:BSPIM:load_rx_data\[23]
Removing Rhs of wire \SPI_TDC:BSPIM:rx_status_4\[60] = \SPI_TDC:BSPIM:dpMISO_fifo_full\[61]
Removing Rhs of wire \SPI_TDC:BSPIM:rx_status_5\[62] = \SPI_TDC:BSPIM:dpMISO_fifo_not_empty\[63]
Removing Lhs of wire \SPI_TDC:BSPIM:tx_status_6\[65] = zero[11]
Removing Lhs of wire \SPI_TDC:BSPIM:tx_status_5\[66] = zero[11]
Removing Lhs of wire \SPI_TDC:BSPIM:rx_status_3\[67] = zero[11]
Removing Lhs of wire \SPI_TDC:BSPIM:rx_status_2\[68] = zero[11]
Removing Lhs of wire \SPI_TDC:BSPIM:rx_status_1\[69] = zero[11]
Removing Lhs of wire \SPI_TDC:BSPIM:rx_status_0\[70] = zero[11]
Removing Lhs of wire \SPI_TDC:Net_273\[80] = zero[11]
Removing Lhs of wire \SPI_TDC:Net_289\[119] = zero[11]
Removing Lhs of wire tmpOE__SPI_MOSI_net_0[123] = one[21]
Removing Lhs of wire tmpOE__SPI_SS_net_0[130] = one[21]
Removing Lhs of wire tmpOE__SPI_CLK_net_0[137] = one[21]
Removing Lhs of wire tmpOE__SPI_MISO_net_0[144] = one[21]
Removing Lhs of wire \SPI_TDC:BSPIM:so_send_reg\\D\[149] = zero[11]
Removing Lhs of wire \SPI_TDC:BSPIM:mosi_pre_reg\\D\[155] = zero[11]
Removing Lhs of wire \SPI_TDC:BSPIM:dpcounter_one_reg\\D\[157] = \SPI_TDC:BSPIM:load_rx_data\[23]
Removing Lhs of wire \SPI_TDC:BSPIM:mosi_from_dp_reg\\D\[158] = \SPI_TDC:BSPIM:mosi_from_dp\[38]

------------------------------------------------------
Aliased 0 equations, 35 wires.
------------------------------------------------------

----------------------------------------------------------
Circuit simplification
----------------------------------------------------------

Substituting virtuals - pass 1:

Note:  Expanding virtual equation for 'zero' (cost = 0):
zero <=  ('0') ;

Note:  Expanding virtual equation for '\SPI_TDC:BSPIM:load_rx_data\' (cost = 1):
\SPI_TDC:BSPIM:load_rx_data\ <= ((not \SPI_TDC:BSPIM:count_4\ and not \SPI_TDC:BSPIM:count_3\ and not \SPI_TDC:BSPIM:count_2\ and not \SPI_TDC:BSPIM:count_1\ and \SPI_TDC:BSPIM:count_0\));


Substituting virtuals - pass 2:


----------------------------------------------------------
Circuit simplification results:

	Expanded 2 signals.
	Turned 0 signals into soft nodes.
	Maximum default expansion cost was set at 3.
----------------------------------------------------------

------------------------------------------------------
Alias Detection
------------------------------------------------------

------------------------------------------------------
Aliased 0 equations, 0 wires.
------------------------------------------------------

Last attempt to remove unused logic - pass 1:


Last attempt to remove unused logic - pass 2:


topld:  No errors.

CYPRESS_DIR    : C:\Program Files (x86)\Cypress\PSoC Creator\4.3\PSoC Creator\warp
Warp Program   : C:\Program Files (x86)\Cypress\PSoC Creator\4.3\PSoC Creator\warp\bin\warp.exe
Warp Arguments : -yv2 -q10 -ygs -o2 -v3 -.fftcfgtype=LE -ya -.fftprj=C:\Users\jonathanp\Documents\SiTime\HW\TIC\psoc\TIC\SPI_TDC7200.cydsn\SPI_TDC7200.cyprj -dcpsoc3 SPI_TDC7200.v -verilog
</CYPRESSTAG>
Warp synthesis phase: Elapsed time ==> 0s.684ms
<CYPRESSTAG name="Fitter results...">
<CYPRESSTAG name="Fitter startup details...">
cyp3fit: V4.3.0.1445, Family: PSoC3, Started at: Friday, 25 September 2020 23:19:08
Options: -yv2 -q10 -ygs -o2 -v3 -.fftcfgtype=LE -ya -.fftprj=C:\Users\jonathanp\Documents\SiTime\HW\TIC\psoc\TIC\SPI_TDC7200.cydsn\SPI_TDC7200.cyprj -d CY8C5866LTI-LP022 SPI_TDC7200.v -verilog
</CYPRESSTAG>
<CYPRESSTAG name="Design parsing">
Design parsing phase: Elapsed time ==> 0s.015ms
</CYPRESSTAG>
<CYPRESSTAG name="Tech Mapping">
<CYPRESSTAG name="Initial Mapping" icon="FILE_RPT_TECHM">
    Converted constant MacroCell: \SPI_TDC:BSPIM:so_send_reg\ from registered to combinatorial
    Converted constant MacroCell: \SPI_TDC:BSPIM:mosi_pre_reg\ from registered to combinatorial
<CYPRESSTAG name="Global Clock Selection" icon="FILE_RPT_TECHM">
    Digital Clock 0: Automatic-assigning  clock 'Clock_1'. Fanout=1, Signal=Net_38
    Digital Clock 1: Automatic-assigning  clock 'SPI_TDC_IntClock'. Fanout=1, Signal=\SPI_TDC:Net_276\
</CYPRESSTAG>

Removing unused cells resulting from optimization
Done removing unused cells.
<CYPRESSTAG name="UDB Clock/Enable Remapping Results">
    UDB Clk/Enable \SPI_TDC:BSPIM:ClkEn\: with output requested to be synchronous
        ClockIn: SPI_TDC_IntClock was determined to be a global clock that is synchronous to BUS_CLK
        EnableIn: Constant 1 was determined to be synchronous to ClockIn
        ClockOut: SPI_TDC_IntClock, EnableOut: Constant 1
</CYPRESSTAG>
ADD: pft.M0040: information: The following 4 pin(s) will be assigned a location by the fitter: SPI_CLK(0), SPI_MISO(0), SPI_MOSI(0), SPI_SS(0)


Removing unused cells resulting from optimization
Done removing unused cells.
<CYPRESSTAG name="Duplicate Macrocell detection">
</CYPRESSTAG>
</CYPRESSTAG>
<CYPRESSTAG name="Duplicate Macrocell detection">
</CYPRESSTAG>
<CYPRESSTAG name="Design Equations" icon="FILE_RPT_EQUATION">

------------------------------------------------------------
Design Equations
------------------------------------------------------------
    <CYPRESSTAG name="Pin listing">

    ------------------------------------------------------------
    Pin listing
    ------------------------------------------------------------

    Pin : Name = SPI_MOSI(0)
        Attributes:
            In Group/Port: True
            In Sync Option: AUTO
            Out Sync Option: NOSYNC
            Interrupt generated: False
            Interrupt mode: NONE
            Drive mode: CMOS_OUT
            VTrip: EITHER
            Slew: FAST
            Input Sync needed: False
            Output Sync needed: False
            SC shield enabled: False
            POR State: ANY
            LCD Mode: COMMON
            Register Mode: RegComb
            CaSense Mode: NEITHER
            Treat as pin: True
            Is OE Registered: False
            Uses Analog: False
            Can contain Digital: True
            Is SIO: False
            SIO Output Buf: NONREGULATED
            SIO Input Buf: SINGLE_ENDED
            SIO HiFreq: LOW
            SIO Hyst: DISABLED
            SIO Vtrip: MULTIPLIER_0_5
            SIO Multiplier Index: 0
            SIO RefSel: VCC_IO
            Required Capabilities: DIGITAL, ROUTABLE
            Initial Value: 1
            IO Voltage: 0
        PORT MAP (
            pa_out => SPI_MOSI(0)__PA ,
            pin_input => Net_24 ,
            pad => SPI_MOSI(0)_PAD );

    Pin : Name = SPI_SS(0)
        Attributes:
            In Group/Port: True
            In Sync Option: AUTO
            Out Sync Option: NOSYNC
            Interrupt generated: False
            Interrupt mode: NONE
            Drive mode: CMOS_OUT
            VTrip: EITHER
            Slew: FAST
            Input Sync needed: False
            Output Sync needed: False
            SC shield enabled: False
            POR State: ANY
            LCD Mode: COMMON
            Register Mode: RegComb
            CaSense Mode: NEITHER
            Treat as pin: True
            Is OE Registered: False
            Uses Analog: False
            Can contain Digital: True
            Is SIO: False
            SIO Output Buf: NONREGULATED
            SIO Input Buf: SINGLE_ENDED
            SIO HiFreq: LOW
            SIO Hyst: DISABLED
            SIO Vtrip: MULTIPLIER_0_5
            SIO Multiplier Index: 0
            SIO RefSel: VCC_IO
            Required Capabilities: DIGITAL, ROUTABLE
            Initial Value: 1
            IO Voltage: 0
        PORT MAP (
            pa_out => SPI_SS(0)__PA ,
            pin_input => Net_487 ,
            pad => SPI_SS(0)_PAD );

    Pin : Name = SPI_CLK(0)
        Attributes:
            In Group/Port: True
            In Sync Option: AUTO
            Out Sync Option: NOSYNC
            Interrupt generated: False
            Interrupt mode: NONE
            Drive mode: CMOS_OUT
            VTrip: EITHER
            Slew: FAST
            Input Sync needed: False
            Output Sync needed: False
            SC shield enabled: False
            POR State: ANY
            LCD Mode: COMMON
            Register Mode: RegComb
            CaSense Mode: NEITHER
            Treat as pin: True
            Is OE Registered: False
            Uses Analog: False
            Can contain Digital: True
            Is SIO: False
            SIO Output Buf: NONREGULATED
            SIO Input Buf: SINGLE_ENDED
            SIO HiFreq: LOW
            SIO Hyst: DISABLED
            SIO Vtrip: MULTIPLIER_0_5
            SIO Multiplier Index: 0
            SIO RefSel: VCC_IO
            Required Capabilities: DIGITAL, ROUTABLE
            Initial Value: 0
            IO Voltage: 0
        PORT MAP (
            pa_out => SPI_CLK(0)__PA ,
            pin_input => Net_27 ,
            pad => SPI_CLK(0)_PAD );

    Pin : Name = SPI_MISO(0)
        Attributes:
            In Group/Port: True
            In Sync Option: NOSYNC
            Out Sync Option: AUTO
            Interrupt generated: False
            Interrupt mode: NONE
            Drive mode: HI_Z_DIGITAL
            VTrip: CMOS
            Slew: FAST
            Input Sync needed: False
            Output Sync needed: False
            SC shield enabled: False
            POR State: ANY
            LCD Mode: COMMON
            Register Mode: RegComb
            CaSense Mode: NEITHER
            Treat as pin: True
            Is OE Registered: False
            Uses Analog: False
            Can contain Digital: True
            Is SIO: False
            SIO Output Buf: NONREGULATED
            SIO Input Buf: SINGLE_ENDED
            SIO HiFreq: LOW
            SIO Hyst: DISABLED
            SIO Vtrip: MULTIPLIER_0_5
            SIO Multiplier Index: 0
            SIO RefSel: VCC_IO
            Required Capabilities: DIGITAL, ROUTABLE
            Initial Value: 0
            IO Voltage: 0
        PORT MAP (
            pa_out => SPI_MISO(0)__PA ,
            fb => Net_100 ,
            pad => SPI_MISO(0)_PAD );
    </CYPRESSTAG>
    <CYPRESSTAG name="Macrocell listing" icon="FILE_RPT_EQUATION">

    ------------------------------------------------------------
    Macrocell listing
    ------------------------------------------------------------

    MacroCell: Name=\SPI_TDC:BSPIM:load_rx_data\, Mode=(Combinatorial)
        Total # of inputs        : 5
        Total # of product terms : 1
            Clock Enable: True
        Main Equation            : 1 pterm
        (
              !\SPI_TDC:BSPIM:count_4\ * !\SPI_TDC:BSPIM:count_3\ * 
              !\SPI_TDC:BSPIM:count_2\ * !\SPI_TDC:BSPIM:count_1\ * 
              \SPI_TDC:BSPIM:count_0\
        );
        Output = \SPI_TDC:BSPIM:load_rx_data\ (fanout=2)

    MacroCell: Name=\SPI_TDC:BSPIM:tx_status_0\, Mode=(Combinatorial)
        Total # of inputs        : 3
        Total # of product terms : 1
            Clock Enable: True
        Main Equation            : 1 pterm
        (
              \SPI_TDC:BSPIM:state_2\ * !\SPI_TDC:BSPIM:state_1\ * 
              \SPI_TDC:BSPIM:state_0\
        );
        Output = \SPI_TDC:BSPIM:tx_status_0\ (fanout=1)

    MacroCell: Name=\SPI_TDC:BSPIM:tx_status_4\, Mode=(Combinatorial)
        Total # of inputs        : 3
        Total # of product terms : 1
            Clock Enable: True
        Main Equation            : 1 pterm
        (
              !\SPI_TDC:BSPIM:state_2\ * !\SPI_TDC:BSPIM:state_1\ * 
              !\SPI_TDC:BSPIM:state_0\
        );
        Output = \SPI_TDC:BSPIM:tx_status_4\ (fanout=1)

    MacroCell: Name=\SPI_TDC:BSPIM:rx_status_6\, Mode=(Combinatorial)
        Total # of inputs        : 6
        Total # of product terms : 1
            Clock Enable: True
        Main Equation            : 1 pterm
        (
              !\SPI_TDC:BSPIM:count_4\ * !\SPI_TDC:BSPIM:count_3\ * 
              !\SPI_TDC:BSPIM:count_2\ * !\SPI_TDC:BSPIM:count_1\ * 
              \SPI_TDC:BSPIM:count_0\ * \SPI_TDC:BSPIM:rx_status_4\
        );
        Output = \SPI_TDC:BSPIM:rx_status_6\ (fanout=1)

    MacroCell: Name=Net_24, Mode=(D-Register)
        Total # of inputs        : 11
        Total # of product terms : 7
        List of special equations: 
            Clock  = (\SPI_TDC:Net_276\) => Global
            Clock Enable: True
        Main Equation            : 7 pterms
        !(
              !Net_24 * !\SPI_TDC:BSPIM:state_2\ * \SPI_TDC:BSPIM:state_0\
            + !\SPI_TDC:BSPIM:state_2\ * !\SPI_TDC:BSPIM:state_1\ * 
              !\SPI_TDC:BSPIM:state_0\
            + !\SPI_TDC:BSPIM:state_2\ * !\SPI_TDC:BSPIM:state_0\ * 
              !\SPI_TDC:BSPIM:count_4\ * !\SPI_TDC:BSPIM:count_3\ * 
              !\SPI_TDC:BSPIM:count_2\ * \SPI_TDC:BSPIM:count_1\ * 
              !\SPI_TDC:BSPIM:count_0\ * !\SPI_TDC:BSPIM:ld_ident\
            + \SPI_TDC:BSPIM:state_2\ * !\SPI_TDC:BSPIM:state_1\ * 
              \SPI_TDC:BSPIM:state_0\
            + \SPI_TDC:BSPIM:state_2\ * \SPI_TDC:BSPIM:state_1\ * 
              !\SPI_TDC:BSPIM:state_0\
            + \SPI_TDC:BSPIM:state_2\ * !\SPI_TDC:BSPIM:mosi_from_dp\
            + !\SPI_TDC:BSPIM:state_0\ * !\SPI_TDC:BSPIM:mosi_from_dp\
        );
        Output = Net_24 (fanout=2)

    MacroCell: Name=\SPI_TDC:BSPIM:state_2\, Mode=(D-Register)
        Total # of inputs        : 10
        Total # of product terms : 3
        List of special equations: 
            Clock  = (\SPI_TDC:Net_276\) => Global
            Clock Enable: True
        Main Equation            : 3 pterms
        (
              !\SPI_TDC:BSPIM:state_2\ * !\SPI_TDC:BSPIM:state_1\ * 
              \SPI_TDC:BSPIM:state_0\
            + !\SPI_TDC:BSPIM:state_2\ * \SPI_TDC:BSPIM:state_1\ * 
              !\SPI_TDC:BSPIM:state_0\ * !\SPI_TDC:BSPIM:count_4\ * 
              !\SPI_TDC:BSPIM:count_3\ * !\SPI_TDC:BSPIM:count_2\ * 
              \SPI_TDC:BSPIM:count_1\ * !\SPI_TDC:BSPIM:count_0\ * 
              !\SPI_TDC:BSPIM:ld_ident\
            + !\SPI_TDC:BSPIM:state_2\ * \SPI_TDC:BSPIM:state_0\ * 
              !\SPI_TDC:BSPIM:count_4\ * !\SPI_TDC:BSPIM:count_3\ * 
              \SPI_TDC:BSPIM:count_2\ * !\SPI_TDC:BSPIM:count_1\ * 
              \SPI_TDC:BSPIM:count_0\ * !\SPI_TDC:BSPIM:tx_status_1\
        );
        Output = \SPI_TDC:BSPIM:state_2\ (fanout=12)

    MacroCell: Name=\SPI_TDC:BSPIM:state_1\, Mode=(T-Register)
        Total # of inputs        : 10
        Total # of product terms : 4
        List of special equations: 
            Clock  = (\SPI_TDC:Net_276\) => Global
            Clock Enable: True
        Main Equation            : 4 pterms
        (
              !\SPI_TDC:BSPIM:state_2\ * !\SPI_TDC:BSPIM:state_1\ * 
              \SPI_TDC:BSPIM:state_0\
            + !\SPI_TDC:BSPIM:state_2\ * \SPI_TDC:BSPIM:state_0\ * 
              !\SPI_TDC:BSPIM:count_4\ * !\SPI_TDC:BSPIM:count_3\ * 
              \SPI_TDC:BSPIM:count_2\ * !\SPI_TDC:BSPIM:count_1\ * 
              \SPI_TDC:BSPIM:count_0\ * !\SPI_TDC:BSPIM:tx_status_1\
            + \SPI_TDC:BSPIM:state_2\ * !\SPI_TDC:BSPIM:state_0\
            + \SPI_TDC:BSPIM:state_1\ * !\SPI_TDC:BSPIM:state_0\ * 
              !\SPI_TDC:BSPIM:count_4\ * !\SPI_TDC:BSPIM:count_3\ * 
              !\SPI_TDC:BSPIM:count_2\ * \SPI_TDC:BSPIM:count_1\ * 
              !\SPI_TDC:BSPIM:count_0\ * !\SPI_TDC:BSPIM:ld_ident\
        );
        Output = \SPI_TDC:BSPIM:state_1\ (fanout=12)

    MacroCell: Name=\SPI_TDC:BSPIM:state_0\, Mode=(T-Register)
        Total # of inputs        : 4
        Total # of product terms : 3
        List of special equations: 
            Clock  = (\SPI_TDC:Net_276\) => Global
            Clock Enable: True
        Main Equation            : 3 pterms
        (
              !\SPI_TDC:BSPIM:state_2\ * \SPI_TDC:BSPIM:state_1\
            + \SPI_TDC:BSPIM:state_2\ * !\SPI_TDC:BSPIM:state_1\
            + !\SPI_TDC:BSPIM:state_1\ * !\SPI_TDC:BSPIM:state_0\ * 
              !\SPI_TDC:BSPIM:tx_status_1\
        );
        Output = \SPI_TDC:BSPIM:state_0\ (fanout=12)

    MacroCell: Name=Net_487, Mode=(D-Register)
        Total # of inputs        : 4
        Total # of product terms : 4
        List of special equations: 
            Clock  = (\SPI_TDC:Net_276\) => Global
            Clock Enable: True
        Main Equation            : 4 pterms
        !(
              !\SPI_TDC:BSPIM:state_2\ * !\SPI_TDC:BSPIM:state_1\ * 
              \SPI_TDC:BSPIM:state_0\
            + !\SPI_TDC:BSPIM:state_2\ * \SPI_TDC:BSPIM:state_1\ * !Net_487
            + \SPI_TDC:BSPIM:state_2\ * !\SPI_TDC:BSPIM:state_1\ * 
              !\SPI_TDC:BSPIM:state_0\ * !Net_487
            + \SPI_TDC:BSPIM:state_1\ * \SPI_TDC:BSPIM:state_0\ * !Net_487
        );
        Output = Net_487 (fanout=2)

    MacroCell: Name=\SPI_TDC:BSPIM:load_cond\, Mode=(T-Register)
        Total # of inputs        : 9
        Total # of product terms : 4
        List of special equations: 
            Clock  = (\SPI_TDC:Net_276\) => Global
            Clock Enable: True
        Main Equation            : 4 pterms
        (
              !\SPI_TDC:BSPIM:state_2\ * !\SPI_TDC:BSPIM:count_4\ * 
              !\SPI_TDC:BSPIM:count_3\ * !\SPI_TDC:BSPIM:count_2\ * 
              !\SPI_TDC:BSPIM:count_1\ * !\SPI_TDC:BSPIM:count_0\ * 
              \SPI_TDC:BSPIM:load_cond\
            + \SPI_TDC:BSPIM:state_2\ * !\SPI_TDC:BSPIM:state_1\ * 
              !\SPI_TDC:BSPIM:state_0\ * !\SPI_TDC:BSPIM:load_cond\
            + \SPI_TDC:BSPIM:state_1\ * !\SPI_TDC:BSPIM:count_4\ * 
              !\SPI_TDC:BSPIM:count_3\ * !\SPI_TDC:BSPIM:count_2\ * 
              !\SPI_TDC:BSPIM:count_1\ * !\SPI_TDC:BSPIM:count_0\ * 
              \SPI_TDC:BSPIM:load_cond\
            + \SPI_TDC:BSPIM:state_0\ * !\SPI_TDC:BSPIM:count_4\ * 
              !\SPI_TDC:BSPIM:count_3\ * !\SPI_TDC:BSPIM:count_2\ * 
              !\SPI_TDC:BSPIM:count_1\ * !\SPI_TDC:BSPIM:count_0\ * 
              \SPI_TDC:BSPIM:load_cond\
        );
        Output = \SPI_TDC:BSPIM:load_cond\ (fanout=1)

    MacroCell: Name=\SPI_TDC:BSPIM:ld_ident\, Mode=(T-Register)
        Total # of inputs        : 9
        Total # of product terms : 3
        List of special equations: 
            Clock  = (\SPI_TDC:Net_276\) => Global
            Clock Enable: True
        Main Equation            : 3 pterms
        (
              \SPI_TDC:BSPIM:state_2\ * !\SPI_TDC:BSPIM:state_1\ * 
              !\SPI_TDC:BSPIM:state_0\ * !\SPI_TDC:BSPIM:ld_ident\
            + \SPI_TDC:BSPIM:state_2\ * \SPI_TDC:BSPIM:state_1\ * 
              !\SPI_TDC:BSPIM:state_0\ * \SPI_TDC:BSPIM:ld_ident\
            + \SPI_TDC:BSPIM:state_1\ * !\SPI_TDC:BSPIM:state_0\ * 
              !\SPI_TDC:BSPIM:count_4\ * !\SPI_TDC:BSPIM:count_3\ * 
              !\SPI_TDC:BSPIM:count_2\ * \SPI_TDC:BSPIM:count_1\ * 
              !\SPI_TDC:BSPIM:count_0\ * \SPI_TDC:BSPIM:ld_ident\
        );
        Output = \SPI_TDC:BSPIM:ld_ident\ (fanout=4)

    MacroCell: Name=\SPI_TDC:BSPIM:cnt_enable\, Mode=(T-Register)
        Total # of inputs        : 4
        Total # of product terms : 4
        List of special equations: 
            Clock  = (\SPI_TDC:Net_276\) => Global
            Clock Enable: True
        Main Equation            : 4 pterms
        (
              !\SPI_TDC:BSPIM:state_2\ * !\SPI_TDC:BSPIM:state_1\ * 
              !\SPI_TDC:BSPIM:state_0\ * \SPI_TDC:BSPIM:cnt_enable\
            + !\SPI_TDC:BSPIM:state_2\ * \SPI_TDC:BSPIM:state_1\ * 
              \SPI_TDC:BSPIM:state_0\ * !\SPI_TDC:BSPIM:cnt_enable\
            + \SPI_TDC:BSPIM:state_2\ * !\SPI_TDC:BSPIM:state_1\ * 
              \SPI_TDC:BSPIM:state_0\ * \SPI_TDC:BSPIM:cnt_enable\
            + \SPI_TDC:BSPIM:state_2\ * \SPI_TDC:BSPIM:state_1\ * 
              !\SPI_TDC:BSPIM:state_0\ * \SPI_TDC:BSPIM:cnt_enable\
        );
        Output = \SPI_TDC:BSPIM:cnt_enable\ (fanout=2)

    MacroCell: Name=Net_27, Mode=(D-Register)
        Total # of inputs        : 4
        Total # of product terms : 2
        List of special equations: 
            Clock  = (\SPI_TDC:Net_276\) => Global
            Clock Enable: True
        Main Equation            : 2 pterms
        (
              !\SPI_TDC:BSPIM:state_2\ * \SPI_TDC:BSPIM:state_1\ * 
              \SPI_TDC:BSPIM:state_0\
            + \SPI_TDC:BSPIM:state_1\ * \SPI_TDC:BSPIM:state_0\ * Net_27
        );
        Output = Net_27 (fanout=2)
    </CYPRESSTAG>
    <CYPRESSTAG name="Datapath listing">

    ------------------------------------------------------------
    Datapath listing
    ------------------------------------------------------------

    datapathcell: Name =\SPI_TDC:BSPIM:sR8:Dp:u0\
        PORT MAP (
            clock => \SPI_TDC:Net_276\ ,
            cs_addr_2 => \SPI_TDC:BSPIM:state_2\ ,
            cs_addr_1 => \SPI_TDC:BSPIM:state_1\ ,
            cs_addr_0 => \SPI_TDC:BSPIM:state_0\ ,
            route_si => Net_100 ,
            f1_load => \SPI_TDC:BSPIM:load_rx_data\ ,
            so_comb => \SPI_TDC:BSPIM:mosi_from_dp\ ,
            f0_bus_stat_comb => \SPI_TDC:BSPIM:tx_status_2\ ,
            f0_blk_stat_comb => \SPI_TDC:BSPIM:tx_status_1\ ,
            f1_bus_stat_comb => \SPI_TDC:BSPIM:rx_status_5\ ,
            f1_blk_stat_comb => \SPI_TDC:BSPIM:rx_status_4\ );
        Properties:
        {
            a0_init = "00000000"
            a1_init = "00000000"
            ce0_sync = 1
            ce1_sync = 1
            cl0_sync = 1
            cl1_sync = 1
            cmsb_sync = 1
            co_msb_sync = 1
            cy_dpconfig = "0000000000000000000000001100000000000001010000000001000100010000000000011100000000010001000000000000000101000000000000010100000011111111000000001111111111111111000000000010001000001000111100000000000000000100"
            d0_init = "00000000"
            d1_init = "00000000"
            f0_blk_sync = 1
            f0_bus_sync = 1
            f1_blk_sync = 1
            f1_bus_sync = 1
            ff0_sync = 1
            ff1_sync = 1
            ov_msb_sync = 1
            so_sync = 1
            z0_sync = 1
            z1_sync = 1
        }
        Clock Polarity: Active High
        Clock Enable: True
    </CYPRESSTAG>
    <CYPRESSTAG name="Status register listing">

    ------------------------------------------------------------
    Status register listing
    ------------------------------------------------------------

    statuscell: Name =\STR_SPI_TDC:sts:sts_reg\
        PORT MAP (
            clock => Net_38 ,
            status_1 => Net_983 ,
            status_0 => Net_619 );
        Properties:
        {
            cy_force_order = 1
            cy_md_select = "00000011"
        }
        Clock Polarity: Active High
        Clock Enable: True
    </CYPRESSTAG>
    <CYPRESSTAG name="StatusI register listing">

    ------------------------------------------------------------
    StatusI register listing
    ------------------------------------------------------------

    statusicell: Name =\SPI_TDC:BSPIM:TxStsReg\
        PORT MAP (
            clock => \SPI_TDC:Net_276\ ,
            status_4 => \SPI_TDC:BSPIM:tx_status_4\ ,
            status_3 => \SPI_TDC:BSPIM:load_rx_data\ ,
            status_2 => \SPI_TDC:BSPIM:tx_status_2\ ,
            status_1 => \SPI_TDC:BSPIM:tx_status_1\ ,
            status_0 => \SPI_TDC:BSPIM:tx_status_0\ ,
            interrupt => Net_334 );
        Properties:
        {
            cy_force_order = 1
            cy_int_mask = "0000000"
            cy_md_select = "0001001"
        }
        Clock Polarity: Active High
        Clock Enable: True

    statusicell: Name =\SPI_TDC:BSPIM:RxStsReg\
        PORT MAP (
            clock => \SPI_TDC:Net_276\ ,
            status_6 => \SPI_TDC:BSPIM:rx_status_6\ ,
            status_5 => \SPI_TDC:BSPIM:rx_status_5\ ,
            status_4 => \SPI_TDC:BSPIM:rx_status_4\ ,
            interrupt => Net_302 );
        Properties:
        {
            cy_force_order = 1
            cy_int_mask = "0000000"
            cy_md_select = "1000000"
        }
        Clock Polarity: Active High
        Clock Enable: True
    </CYPRESSTAG>
    <CYPRESSTAG name="Sync listing">
    </CYPRESSTAG>
    <CYPRESSTAG name="Control register listing">
    </CYPRESSTAG>
    <CYPRESSTAG name="Count7 listing">

    ------------------------------------------------------------
    Count7 listing
    ------------------------------------------------------------

    count7cell: Name =\SPI_TDC:BSPIM:BitCounter\
        PORT MAP (
            clock => \SPI_TDC:Net_276\ ,
            enable => \SPI_TDC:BSPIM:cnt_enable\ ,
            count_6 => \SPI_TDC:BSPIM:count_6\ ,
            count_5 => \SPI_TDC:BSPIM:count_5\ ,
            count_4 => \SPI_TDC:BSPIM:count_4\ ,
            count_3 => \SPI_TDC:BSPIM:count_3\ ,
            count_2 => \SPI_TDC:BSPIM:count_2\ ,
            count_1 => \SPI_TDC:BSPIM:count_1\ ,
            count_0 => \SPI_TDC:BSPIM:count_0\ ,
            tc => \SPI_TDC:BSPIM:cnt_tc\ );
        Properties:
        {
            cy_alt_mode = 0
            cy_init_value = "0000000"
            cy_period = "0001111"
            cy_route_en = 1
            cy_route_ld = 0
        }
        Clock Polarity: Active High
        Clock Enable: True
    </CYPRESSTAG>
    <CYPRESSTAG name="DRQ listing">

    ------------------------------------------------------------
    DRQ listing
    ------------------------------------------------------------

    drqcell: Name =DMA_SPI_TDC_TX
        PORT MAP (
            dmareq => Net_334 ,
            termin => zero ,
            termout => Net_983 );
        Properties:
        {
            drq_type = "01"
            num_tds = 0
        }

    drqcell: Name =DMA_SPI_TDC_RX
        PORT MAP (
            dmareq => Net_302 ,
            termin => zero ,
            termout => Net_619 );
        Properties:
        {
            drq_type = "01"
            num_tds = 0
        }
    </CYPRESSTAG>
    <CYPRESSTAG name="Interrupt listing">
    </CYPRESSTAG>
</CYPRESSTAG>
<CYPRESSTAG name="Technology mapping summary" expanded>

------------------------------------------------------------
Technology mapping summary
------------------------------------------------------------

Resource Type                 : Used : Free :  Max :  % Used
============================================================
Digital Clocks                :    2 :    6 :    8 : 25.00 %
Analog Clocks                 :    0 :    4 :    4 :  0.00 %
CapSense Buffers              :    0 :    2 :    2 :  0.00 %
Digital Filter Block          :    0 :    1 :    1 :  0.00 %
Interrupts                    :    0 :   32 :   32 :  0.00 %
IO                            :    7 :   41 :   48 : 14.58 %
Segment LCD                   :    0 :    1 :    1 :  0.00 %
I2C                           :    0 :    1 :    1 :  0.00 %
USB                           :    0 :    1 :    1 :  0.00 %
DMA Channels                  :    2 :   22 :   24 :  8.33 %
Timer                         :    0 :    4 :    4 :  0.00 %
UDB                           :      :      :      :        
  Macrocells                  :   13 :  147 :  160 :  8.13 %
  Unique P-terms              :   33 :  287 :  320 : 10.31 %
  Total P-terms               :   38 :      :      :        
  Datapath Cells              :    1 :   19 :   20 :  5.00 %
  Status Cells                :    4 :   16 :   20 : 20.00 %
    Status Registers          :    1 :      :      :        
    StatusI Registers         :    2 :      :      :        
    Routed Count7 Load/Enable :    1 :      :      :        
  Control Cells               :    1 :   19 :   20 :  5.00 %
    Count7 Cells              :    1 :      :      :        
Opamp                         :    0 :    4 :    4 :  0.00 %
Comparator                    :    0 :    4 :    4 :  0.00 %
Delta-Sigma ADC               :    0 :    1 :    1 :  0.00 %
LPF                           :    0 :    2 :    2 :  0.00 %
SAR ADC                       :    0 :    1 :    1 :  0.00 %
Analog (SC/CT) Blocks         :    0 :    4 :    4 :  0.00 %
DAC                           :      :      :      :        
  VIDAC                       :    0 :    4 :    4 :  0.00 %
</CYPRESSTAG>
Technology Mapping: Elapsed time ==> 0s.109ms
Tech Mapping phase: Elapsed time ==> 0s.171ms
</CYPRESSTAG>
<CYPRESSTAG name="Analog Placement">
Initial Analog Placement Results:
Analog Placement phase: Elapsed time ==> 0s.060ms
</CYPRESSTAG>
<CYPRESSTAG name="Analog Routing">
Analog Routing phase: Elapsed time ==> 0s.000ms
</CYPRESSTAG>
<CYPRESSTAG name="Analog Code Generation">
============ Analog Final Answer Routes ============
Dump of CyAnalogRoutingResultsDB
Map of net to items {
}
Map of item to net {
}
Mux Info {
}
Dump of CyP35AnalogRoutingResultsDB
IsVddaHalfUsedForComp = False
IsVddaHalfUsedForSar0 = False
IsVddaHalfUsedForSar1 = False
Analog Code Generation phase: Elapsed time ==> 0s.245ms
</CYPRESSTAG>
<CYPRESSTAG name="Digital Placement">
<CYPRESSTAG name="Detailed placement messages">
I2076: Total run-time: 0.8 sec.

</CYPRESSTAG>
<CYPRESSTAG name="PLD Packing">
<CYPRESSTAG name="PLD Packing Summary" expanded>

------------------------------------------------------------
PLD Packing Summary
------------------------------------------------------------
            Resource Type : Used : Free :  Max :  % Used
    ====================================================
                     PLDs :    5 :   35 :   40 :  12.50%

<CYPRESSTAG name="PLD Statistics">

        PLD Resource Type :     Average/LAB
    =======================================
                   Inputs :            8.20
                   Pterms :            7.00
               Macrocells :            2.60
</CYPRESSTAG>
<CYPRESSTAG name="Packed PLD Contents">
Packed PLD Contents not displayed at this verbose level.</CYPRESSTAG>
</CYPRESSTAG>
PLD Packing: Elapsed time ==> 0s.004ms
</CYPRESSTAG>
<CYPRESSTAG name="Partitioning">
<CYPRESSTAG name="Initial Partitioning Summary">
Initial Partitioning Summary not displayed at this verbose level.</CYPRESSTAG>
<CYPRESSTAG name="Final Partitioning Summary">
Final Partitioning Summary not displayed at this verbose level.</CYPRESSTAG>
Partitioning: Elapsed time ==> 0s.019ms
</CYPRESSTAG>
<CYPRESSTAG name="Final Placement Summary">

------------------------------------------------------------
Final Placement Summary
------------------------------------------------------------

       Resource Type :      Count : Avg Inputs : Avg Outputs
    ========================================================
                 UDB :          4 :       7.25 :       3.25
<CYPRESSTAG name="Final Placement Details">
<CYPRESSTAG name="Component Details">

------------------------------------------------------------
Component Placement Details
------------------------------------------------------------
UDB [UDB=(0,1)] is empty.
UDB [UDB=(0,2)] is empty.
UDB [UDB=(0,3)] is empty.
UDB [UDB=(0,4)] is empty.
UDB [UDB=(0,5)] is empty.
UDB [UDB=(1,1)] is empty.
UDB [UDB=(1,2)] is empty.
UDB [UDB=(1,3)] is empty.
UDB [UDB=(1,4)] is empty.
UDB [UDB=(1,5)] is empty.
UDB [UDB=(2,1)] contents:
LAB@[UDB=(2,1)][LB=0] #macrocells=1, #inputs=4, #pterms=4
{
    [McSlotId=0]: (empty)
    [McSlotId=1]:     MacroCell: Name=\SPI_TDC:BSPIM:cnt_enable\, Mode=(T-Register) @ [UDB=(2,1)][LB=0][MC=1]
        Total # of inputs        : 4
        Total # of product terms : 4
        List of special equations: 
            Clock  = (\SPI_TDC:Net_276\) => Global
            Clock Enable: True
        Main Equation            : 4 pterms
        (
              !\SPI_TDC:BSPIM:state_2\ * !\SPI_TDC:BSPIM:state_1\ * 
              !\SPI_TDC:BSPIM:state_0\ * \SPI_TDC:BSPIM:cnt_enable\
            + !\SPI_TDC:BSPIM:state_2\ * \SPI_TDC:BSPIM:state_1\ * 
              \SPI_TDC:BSPIM:state_0\ * !\SPI_TDC:BSPIM:cnt_enable\
            + \SPI_TDC:BSPIM:state_2\ * !\SPI_TDC:BSPIM:state_1\ * 
              \SPI_TDC:BSPIM:state_0\ * \SPI_TDC:BSPIM:cnt_enable\
            + \SPI_TDC:BSPIM:state_2\ * \SPI_TDC:BSPIM:state_1\ * 
              !\SPI_TDC:BSPIM:state_0\ * \SPI_TDC:BSPIM:cnt_enable\
        );
        Output = \SPI_TDC:BSPIM:cnt_enable\ (fanout=3)
        Properties               : 
        {
        }

    [McSlotId=2]: (empty)
    [McSlotId=3]: (empty)
}

statusicell: Name =\SPI_TDC:BSPIM:RxStsReg\
    PORT MAP (
        clock => \SPI_TDC:Net_276\ ,
        status_6 => \SPI_TDC:BSPIM:rx_status_6\ ,
        status_5 => \SPI_TDC:BSPIM:rx_status_5\ ,
        status_4 => \SPI_TDC:BSPIM:rx_status_4\ ,
        interrupt => Net_302 );
    Properties:
    {
        cy_force_order = 1
        cy_int_mask = "0000000"
        cy_md_select = "1000000"
    }
    Clock Polarity: Active High
    Clock Enable: True

UDB [UDB=(2,2)] contents:
statuscell: Name =\STR_SPI_TDC:sts:sts_reg\
    PORT MAP (
        clock => Net_38 ,
        status_1 => Net_983 ,
        status_0 => Net_619 );
    Properties:
    {
        cy_force_order = 1
        cy_md_select = "00000011"
    }
    Clock Polarity: Active High
    Clock Enable: True

UDB [UDB=(2,3)] is empty.
UDB [UDB=(2,4)] is empty.
UDB [UDB=(2,5)] is empty.
UDB [UDB=(3,1)] contents:
LAB@[UDB=(3,1)][LB=0] #macrocells=3, #inputs=11, #pterms=8
{
    [McSlotId=0]:     MacroCell: Name=\SPI_TDC:BSPIM:load_cond\, Mode=(T-Register) @ [UDB=(3,1)][LB=0][MC=0]
        Total # of inputs        : 9
        Total # of product terms : 4
        List of special equations: 
            Clock  = (\SPI_TDC:Net_276\) => Global
            Clock Enable: True
        Main Equation            : 4 pterms
        (
              !\SPI_TDC:BSPIM:state_2\ * !\SPI_TDC:BSPIM:count_4\ * 
              !\SPI_TDC:BSPIM:count_3\ * !\SPI_TDC:BSPIM:count_2\ * 
              !\SPI_TDC:BSPIM:count_1\ * !\SPI_TDC:BSPIM:count_0\ * 
              \SPI_TDC:BSPIM:load_cond\
            + \SPI_TDC:BSPIM:state_2\ * !\SPI_TDC:BSPIM:state_1\ * 
              !\SPI_TDC:BSPIM:state_0\ * !\SPI_TDC:BSPIM:load_cond\
            + \SPI_TDC:BSPIM:state_1\ * !\SPI_TDC:BSPIM:count_4\ * 
              !\SPI_TDC:BSPIM:count_3\ * !\SPI_TDC:BSPIM:count_2\ * 
              !\SPI_TDC:BSPIM:count_1\ * !\SPI_TDC:BSPIM:count_0\ * 
              \SPI_TDC:BSPIM:load_cond\
            + \SPI_TDC:BSPIM:state_0\ * !\SPI_TDC:BSPIM:count_4\ * 
              !\SPI_TDC:BSPIM:count_3\ * !\SPI_TDC:BSPIM:count_2\ * 
              !\SPI_TDC:BSPIM:count_1\ * !\SPI_TDC:BSPIM:count_0\ * 
              \SPI_TDC:BSPIM:load_cond\
        );
        Output = \SPI_TDC:BSPIM:load_cond\ (fanout=1)
        Properties               : 
        {
        }

    [McSlotId=1]:     MacroCell: Name=\SPI_TDC:BSPIM:ld_ident\, Mode=(T-Register) @ [UDB=(3,1)][LB=0][MC=1]
        Total # of inputs        : 9
        Total # of product terms : 3
        List of special equations: 
            Clock  = (\SPI_TDC:Net_276\) => Global
            Clock Enable: True
        Main Equation            : 3 pterms
        (
              \SPI_TDC:BSPIM:state_2\ * !\SPI_TDC:BSPIM:state_1\ * 
              !\SPI_TDC:BSPIM:state_0\ * !\SPI_TDC:BSPIM:ld_ident\
            + \SPI_TDC:BSPIM:state_2\ * \SPI_TDC:BSPIM:state_1\ * 
              !\SPI_TDC:BSPIM:state_0\ * \SPI_TDC:BSPIM:ld_ident\
            + \SPI_TDC:BSPIM:state_1\ * !\SPI_TDC:BSPIM:state_0\ * 
              !\SPI_TDC:BSPIM:count_4\ * !\SPI_TDC:BSPIM:count_3\ * 
              !\SPI_TDC:BSPIM:count_2\ * \SPI_TDC:BSPIM:count_1\ * 
              !\SPI_TDC:BSPIM:count_0\ * \SPI_TDC:BSPIM:ld_ident\
        );
        Output = \SPI_TDC:BSPIM:ld_ident\ (fanout=4)
        Properties               : 
        {
        }

    [McSlotId=2]:     MacroCell: Name=\SPI_TDC:BSPIM:rx_status_6\, Mode=(Combinatorial) @ [UDB=(3,1)][LB=0][MC=2]
        Total # of inputs        : 6
        Total # of product terms : 1
            Clock Enable: True
        Main Equation            : 1 pterm
        (
              !\SPI_TDC:BSPIM:count_4\ * !\SPI_TDC:BSPIM:count_3\ * 
              !\SPI_TDC:BSPIM:count_2\ * !\SPI_TDC:BSPIM:count_1\ * 
              \SPI_TDC:BSPIM:count_0\ * \SPI_TDC:BSPIM:rx_status_4\
        );
        Output = \SPI_TDC:BSPIM:rx_status_6\ (fanout=1)
        Properties               : 
        {
        }

    [McSlotId=3]: (empty)
}

LAB@[UDB=(3,1)][LB=1] #macrocells=3, #inputs=5, #pterms=7
{
    [McSlotId=0]:     MacroCell: Name=Net_27, Mode=(D-Register) @ [UDB=(3,1)][LB=1][MC=0]
        Total # of inputs        : 4
        Total # of product terms : 2
        List of special equations: 
            Clock  = (\SPI_TDC:Net_276\) => Global
            Clock Enable: True
        Main Equation            : 2 pterms
        (
              !\SPI_TDC:BSPIM:state_2\ * \SPI_TDC:BSPIM:state_1\ * 
              \SPI_TDC:BSPIM:state_0\
            + \SPI_TDC:BSPIM:state_1\ * \SPI_TDC:BSPIM:state_0\ * Net_27
        );
        Output = Net_27 (fanout=2)
        Properties               : 
        {
        }

    [McSlotId=1]:     MacroCell: Name=Net_487, Mode=(D-Register) @ [UDB=(3,1)][LB=1][MC=1]
        Total # of inputs        : 4
        Total # of product terms : 4
        List of special equations: 
            Clock  = (\SPI_TDC:Net_276\) => Global
            Clock Enable: True
        Main Equation            : 4 pterms
        !(
              !\SPI_TDC:BSPIM:state_2\ * !\SPI_TDC:BSPIM:state_1\ * 
              \SPI_TDC:BSPIM:state_0\
            + !\SPI_TDC:BSPIM:state_2\ * \SPI_TDC:BSPIM:state_1\ * !Net_487
            + \SPI_TDC:BSPIM:state_2\ * !\SPI_TDC:BSPIM:state_1\ * 
              !\SPI_TDC:BSPIM:state_0\ * !Net_487
            + \SPI_TDC:BSPIM:state_1\ * \SPI_TDC:BSPIM:state_0\ * !Net_487
        );
        Output = Net_487 (fanout=2)
        Properties               : 
        {
        }

    [McSlotId=2]: (empty)
    [McSlotId=3]:     MacroCell: Name=\SPI_TDC:BSPIM:tx_status_4\, Mode=(Combinatorial) @ [UDB=(3,1)][LB=1][MC=3]
        Total # of inputs        : 3
        Total # of product terms : 1
            Clock Enable: True
        Main Equation            : 1 pterm
        (
              !\SPI_TDC:BSPIM:state_2\ * !\SPI_TDC:BSPIM:state_1\ * 
              !\SPI_TDC:BSPIM:state_0\
        );
        Output = \SPI_TDC:BSPIM:tx_status_4\ (fanout=1)
        Properties               : 
        {
        }
}

statusicell: Name =\SPI_TDC:BSPIM:TxStsReg\
    PORT MAP (
        clock => \SPI_TDC:Net_276\ ,
        status_4 => \SPI_TDC:BSPIM:tx_status_4\ ,
        status_3 => \SPI_TDC:BSPIM:load_rx_data\ ,
        status_2 => \SPI_TDC:BSPIM:tx_status_2\ ,
        status_1 => \SPI_TDC:BSPIM:tx_status_1\ ,
        status_0 => \SPI_TDC:BSPIM:tx_status_0\ ,
        interrupt => Net_334 );
    Properties:
    {
        cy_force_order = 1
        cy_int_mask = "0000000"
        cy_md_select = "0001001"
    }
    Clock Polarity: Active High
    Clock Enable: True

UDB [UDB=(3,2)] contents:
LAB@[UDB=(3,2)][LB=0] #macrocells=3, #inputs=11, #pterms=8
{
    [McSlotId=0]:     MacroCell: Name=Net_24, Mode=(D-Register) @ [UDB=(3,2)][LB=0][MC=0]
        Total # of inputs        : 11
        Total # of product terms : 7
        List of special equations: 
            Clock  = (\SPI_TDC:Net_276\) => Global
            Clock Enable: True
        Main Equation            : 7 pterms
        !(
              !Net_24 * !\SPI_TDC:BSPIM:state_2\ * \SPI_TDC:BSPIM:state_0\
            + !\SPI_TDC:BSPIM:state_2\ * !\SPI_TDC:BSPIM:state_1\ * 
              !\SPI_TDC:BSPIM:state_0\
            + !\SPI_TDC:BSPIM:state_2\ * !\SPI_TDC:BSPIM:state_0\ * 
              !\SPI_TDC:BSPIM:count_4\ * !\SPI_TDC:BSPIM:count_3\ * 
              !\SPI_TDC:BSPIM:count_2\ * \SPI_TDC:BSPIM:count_1\ * 
              !\SPI_TDC:BSPIM:count_0\ * !\SPI_TDC:BSPIM:ld_ident\
            + \SPI_TDC:BSPIM:state_2\ * !\SPI_TDC:BSPIM:state_1\ * 
              \SPI_TDC:BSPIM:state_0\
            + \SPI_TDC:BSPIM:state_2\ * \SPI_TDC:BSPIM:state_1\ * 
              !\SPI_TDC:BSPIM:state_0\
            + \SPI_TDC:BSPIM:state_2\ * !\SPI_TDC:BSPIM:mosi_from_dp\
            + !\SPI_TDC:BSPIM:state_0\ * !\SPI_TDC:BSPIM:mosi_from_dp\
        );
        Output = Net_24 (fanout=2)
        Properties               : 
        {
        }

    [McSlotId=1]:     MacroCell: Name=\SPI_TDC:BSPIM:load_rx_data\, Mode=(Combinatorial) @ [UDB=(3,2)][LB=0][MC=1]
        Total # of inputs        : 5
        Total # of product terms : 1
            Clock Enable: True
        Main Equation            : 1 pterm
        (
              !\SPI_TDC:BSPIM:count_4\ * !\SPI_TDC:BSPIM:count_3\ * 
              !\SPI_TDC:BSPIM:count_2\ * !\SPI_TDC:BSPIM:count_1\ * 
              \SPI_TDC:BSPIM:count_0\
        );
        Output = \SPI_TDC:BSPIM:load_rx_data\ (fanout=2)
        Properties               : 
        {
        }

    [McSlotId=2]:     MacroCell: Name=\SPI_TDC:BSPIM:tx_status_0\, Mode=(Combinatorial) @ [UDB=(3,2)][LB=0][MC=2]
        Total # of inputs        : 3
        Total # of product terms : 1
            Clock Enable: True
        Main Equation            : 1 pterm
        (
              \SPI_TDC:BSPIM:state_2\ * !\SPI_TDC:BSPIM:state_1\ * 
              \SPI_TDC:BSPIM:state_0\
        );
        Output = \SPI_TDC:BSPIM:tx_status_0\ (fanout=1)
        Properties               : 
        {
        }

    [McSlotId=3]: (empty)
}

LAB@[UDB=(3,2)][LB=1] #macrocells=3, #inputs=10, #pterms=8
{
    [McSlotId=0]:     MacroCell: Name=\SPI_TDC:BSPIM:state_1\, Mode=(T-Register) @ [UDB=(3,2)][LB=1][MC=0]
        Total # of inputs        : 10
        Total # of product terms : 4
        List of special equations: 
            Clock  = (\SPI_TDC:Net_276\) => Global
            Clock Enable: True
        Main Equation            : 4 pterms
        (
              !\SPI_TDC:BSPIM:state_2\ * !\SPI_TDC:BSPIM:state_1\ * 
              \SPI_TDC:BSPIM:state_0\
            + !\SPI_TDC:BSPIM:state_2\ * \SPI_TDC:BSPIM:state_0\ * 
              !\SPI_TDC:BSPIM:count_4\ * !\SPI_TDC:BSPIM:count_3\ * 
              \SPI_TDC:BSPIM:count_2\ * !\SPI_TDC:BSPIM:count_1\ * 
              \SPI_TDC:BSPIM:count_0\ * !\SPI_TDC:BSPIM:tx_status_1\
            + \SPI_TDC:BSPIM:state_2\ * !\SPI_TDC:BSPIM:state_0\
            + \SPI_TDC:BSPIM:state_1\ * !\SPI_TDC:BSPIM:state_0\ * 
              !\SPI_TDC:BSPIM:count_4\ * !\SPI_TDC:BSPIM:count_3\ * 
              !\SPI_TDC:BSPIM:count_2\ * \SPI_TDC:BSPIM:count_1\ * 
              !\SPI_TDC:BSPIM:count_0\ * !\SPI_TDC:BSPIM:ld_ident\
        );
        Output = \SPI_TDC:BSPIM:state_1\ (fanout=12)
        Properties               : 
        {
        }

    [McSlotId=1]:     MacroCell: Name=\SPI_TDC:BSPIM:state_2\, Mode=(D-Register) @ [UDB=(3,2)][LB=1][MC=1]
        Total # of inputs        : 10
        Total # of product terms : 3
        List of special equations: 
            Clock  = (\SPI_TDC:Net_276\) => Global
            Clock Enable: True
        Main Equation            : 3 pterms
        (
              !\SPI_TDC:BSPIM:state_2\ * !\SPI_TDC:BSPIM:state_1\ * 
              \SPI_TDC:BSPIM:state_0\
            + !\SPI_TDC:BSPIM:state_2\ * \SPI_TDC:BSPIM:state_1\ * 
              !\SPI_TDC:BSPIM:state_0\ * !\SPI_TDC:BSPIM:count_4\ * 
              !\SPI_TDC:BSPIM:count_3\ * !\SPI_TDC:BSPIM:count_2\ * 
              \SPI_TDC:BSPIM:count_1\ * !\SPI_TDC:BSPIM:count_0\ * 
              !\SPI_TDC:BSPIM:ld_ident\
            + !\SPI_TDC:BSPIM:state_2\ * \SPI_TDC:BSPIM:state_0\ * 
              !\SPI_TDC:BSPIM:count_4\ * !\SPI_TDC:BSPIM:count_3\ * 
              \SPI_TDC:BSPIM:count_2\ * !\SPI_TDC:BSPIM:count_1\ * 
              \SPI_TDC:BSPIM:count_0\ * !\SPI_TDC:BSPIM:tx_status_1\
        );
        Output = \SPI_TDC:BSPIM:state_2\ (fanout=12)
        Properties               : 
        {
        }

    [McSlotId=2]:     MacroCell: Name=\SPI_TDC:BSPIM:state_0\, Mode=(T-Register) @ [UDB=(3,2)][LB=1][MC=2]
        Total # of inputs        : 4
        Total # of product terms : 3
        List of special equations: 
            Clock  = (\SPI_TDC:Net_276\) => Global
            Clock Enable: True
        Main Equation            : 3 pterms
        (
              !\SPI_TDC:BSPIM:state_2\ * \SPI_TDC:BSPIM:state_1\
            + \SPI_TDC:BSPIM:state_2\ * !\SPI_TDC:BSPIM:state_1\
            + !\SPI_TDC:BSPIM:state_1\ * !\SPI_TDC:BSPIM:state_0\ * 
              !\SPI_TDC:BSPIM:tx_status_1\
        );
        Output = \SPI_TDC:BSPIM:state_0\ (fanout=12)
        Properties               : 
        {
        }

    [McSlotId=3]: (empty)
}

datapathcell: Name =\SPI_TDC:BSPIM:sR8:Dp:u0\
    PORT MAP (
        clock => \SPI_TDC:Net_276\ ,
        cs_addr_2 => \SPI_TDC:BSPIM:state_2\ ,
        cs_addr_1 => \SPI_TDC:BSPIM:state_1\ ,
        cs_addr_0 => \SPI_TDC:BSPIM:state_0\ ,
        route_si => Net_100 ,
        f1_load => \SPI_TDC:BSPIM:load_rx_data\ ,
        so_comb => \SPI_TDC:BSPIM:mosi_from_dp\ ,
        f0_bus_stat_comb => \SPI_TDC:BSPIM:tx_status_2\ ,
        f0_blk_stat_comb => \SPI_TDC:BSPIM:tx_status_1\ ,
        f1_bus_stat_comb => \SPI_TDC:BSPIM:rx_status_5\ ,
        f1_blk_stat_comb => \SPI_TDC:BSPIM:rx_status_4\ );
    Properties:
    {
        a0_init = "00000000"
        a1_init = "00000000"
        ce0_sync = 1
        ce1_sync = 1
        cl0_sync = 1
        cl1_sync = 1
        cmsb_sync = 1
        co_msb_sync = 1
        cy_dpconfig = "0000000000000000000000001100000000000001010000000001000100010000000000011100000000010001000000000000000101000000000000010100000011111111000000001111111111111111000000000010001000001000111100000000000000000100"
        d0_init = "00000000"
        d1_init = "00000000"
        f0_blk_sync = 1
        f0_bus_sync = 1
        f1_blk_sync = 1
        f1_bus_sync = 1
        ff0_sync = 1
        ff1_sync = 1
        ov_msb_sync = 1
        so_sync = 1
        z0_sync = 1
        z1_sync = 1
    }
    Clock Polarity: Active High
    Clock Enable: True

count7cell: Name =\SPI_TDC:BSPIM:BitCounter\
    PORT MAP (
        clock => \SPI_TDC:Net_276\ ,
        enable => \SPI_TDC:BSPIM:cnt_enable\ ,
        count_6 => \SPI_TDC:BSPIM:count_6\ ,
        count_5 => \SPI_TDC:BSPIM:count_5\ ,
        count_4 => \SPI_TDC:BSPIM:count_4\ ,
        count_3 => \SPI_TDC:BSPIM:count_3\ ,
        count_2 => \SPI_TDC:BSPIM:count_2\ ,
        count_1 => \SPI_TDC:BSPIM:count_1\ ,
        count_0 => \SPI_TDC:BSPIM:count_0\ ,
        tc => \SPI_TDC:BSPIM:cnt_tc\ );
    Properties:
    {
        cy_alt_mode = 0
        cy_init_value = "0000000"
        cy_period = "0001111"
        cy_route_en = 1
        cy_route_ld = 0
    }
    Clock Polarity: Active High
    Clock Enable: True

UDB [UDB=(3,3)] is empty.
UDB [UDB=(3,4)] is empty.
UDB [UDB=(3,5)] is empty.
Intr container @ [IntrContainer=(0)]: empty
Drq container @ [DrqContainer=(0)]: 
  Dma@ [DrqContainer=(0)][DrqId=(0)] 
    drqcell: Name =DMA_SPI_TDC_RX
        PORT MAP (
            dmareq => Net_302 ,
            termin => zero ,
            termout => Net_619 );
        Properties:
        {
            drq_type = "01"
            num_tds = 0
        }
  Dma@ [DrqContainer=(0)][DrqId=(1)] 
    drqcell: Name =DMA_SPI_TDC_TX
        PORT MAP (
            dmareq => Net_334 ,
            termin => zero ,
            termout => Net_983 );
        Properties:
        {
            drq_type = "01"
            num_tds = 0
        }
Port 0 contains the following IO cells:
[IoId=3]: 
Pin : Name = SPI_CLK(0)
    Attributes:
        In Group/Port: True
        In Sync Option: AUTO
        Out Sync Option: NOSYNC
        Interrupt generated: False
        Interrupt mode: NONE
        Drive mode: CMOS_OUT
        VTrip: EITHER
        Slew: FAST
        Input Sync needed: False
        Output Sync needed: False
        SC shield enabled: False
        POR State: ANY
        LCD Mode: COMMON
        Register Mode: RegComb
        CaSense Mode: NEITHER
        Treat as pin: True
        Is OE Registered: False
        Uses Analog: False
        Can contain Digital: True
        Is SIO: False
        SIO Output Buf: NONREGULATED
        SIO Input Buf: SINGLE_ENDED
        SIO HiFreq: LOW
        SIO Hyst: DISABLED
        SIO Vtrip: MULTIPLIER_0_5
        SIO Multiplier Index: 0
        SIO RefSel: VCC_IO
        Required Capabilities: DIGITAL, ROUTABLE
        Initial Value: 0
        IO Voltage: 0
    PORT MAP (
        pa_out => SPI_CLK(0)__PA ,
        pin_input => Net_27 ,
        pad => SPI_CLK(0)_PAD );
    Properties:
    {
    }

Port 1 contains the following IO cells:
Port 2 contains the following IO cells:
Port 3 contains the following IO cells:
Port 12 contains the following IO cells:
[IoId=3]: 
Pin : Name = SPI_MOSI(0)
    Attributes:
        In Group/Port: True
        In Sync Option: AUTO
        Out Sync Option: NOSYNC
        Interrupt generated: False
        Interrupt mode: NONE
        Drive mode: CMOS_OUT
        VTrip: EITHER
        Slew: FAST
        Input Sync needed: False
        Output Sync needed: False
        SC shield enabled: False
        POR State: ANY
        LCD Mode: COMMON
        Register Mode: RegComb
        CaSense Mode: NEITHER
        Treat as pin: True
        Is OE Registered: False
        Uses Analog: False
        Can contain Digital: True
        Is SIO: False
        SIO Output Buf: NONREGULATED
        SIO Input Buf: SINGLE_ENDED
        SIO HiFreq: LOW
        SIO Hyst: DISABLED
        SIO Vtrip: MULTIPLIER_0_5
        SIO Multiplier Index: 0
        SIO RefSel: VCC_IO
        Required Capabilities: DIGITAL, ROUTABLE
        Initial Value: 1
        IO Voltage: 0
    PORT MAP (
        pa_out => SPI_MOSI(0)__PA ,
        pin_input => Net_24 ,
        pad => SPI_MOSI(0)_PAD );
    Properties:
    {
    }

Port 15 contains the following IO cells:
[IoId=0]: 
Pin : Name = SPI_MISO(0)
    Attributes:
        In Group/Port: True
        In Sync Option: NOSYNC
        Out Sync Option: AUTO
        Interrupt generated: False
        Interrupt mode: NONE
        Drive mode: HI_Z_DIGITAL
        VTrip: CMOS
        Slew: FAST
        Input Sync needed: False
        Output Sync needed: False
        SC shield enabled: False
        POR State: ANY
        LCD Mode: COMMON
        Register Mode: RegComb
        CaSense Mode: NEITHER
        Treat as pin: True
        Is OE Registered: False
        Uses Analog: False
        Can contain Digital: True
        Is SIO: False
        SIO Output Buf: NONREGULATED
        SIO Input Buf: SINGLE_ENDED
        SIO HiFreq: LOW
        SIO Hyst: DISABLED
        SIO Vtrip: MULTIPLIER_0_5
        SIO Multiplier Index: 0
        SIO RefSel: VCC_IO
        Required Capabilities: DIGITAL, ROUTABLE
        Initial Value: 0
        IO Voltage: 0
    PORT MAP (
        pa_out => SPI_MISO(0)__PA ,
        fb => Net_100 ,
        pad => SPI_MISO(0)_PAD );
    Properties:
    {
    }

[IoId=3]: 
Pin : Name = SPI_SS(0)
    Attributes:
        In Group/Port: True
        In Sync Option: AUTO
        Out Sync Option: NOSYNC
        Interrupt generated: False
        Interrupt mode: NONE
        Drive mode: CMOS_OUT
        VTrip: EITHER
        Slew: FAST
        Input Sync needed: False
        Output Sync needed: False
        SC shield enabled: False
        POR State: ANY
        LCD Mode: COMMON
        Register Mode: RegComb
        CaSense Mode: NEITHER
        Treat as pin: True
        Is OE Registered: False
        Uses Analog: False
        Can contain Digital: True
        Is SIO: False
        SIO Output Buf: NONREGULATED
        SIO Input Buf: SINGLE_ENDED
        SIO HiFreq: LOW
        SIO Hyst: DISABLED
        SIO Vtrip: MULTIPLIER_0_5
        SIO Multiplier Index: 0
        SIO RefSel: VCC_IO
        Required Capabilities: DIGITAL, ROUTABLE
        Initial Value: 1
        IO Voltage: 0
    PORT MAP (
        pa_out => SPI_SS(0)__PA ,
        pin_input => Net_487 ,
        pad => SPI_SS(0)_PAD );
    Properties:
    {
    }

ARM group 0: empty
Cache group 0: empty
CapSense group 0: empty
Clock group 0: 
    Clock Block @ F(Clock,0): 
    clockblockcell: Name =ClockBlock
        PORT MAP (
            imo => ClockBlock_IMO ,
            pllout => ClockBlock_PLL_OUT ,
            ilo => ClockBlock_ILO ,
            clk_100k => ClockBlock_100k ,
            clk_1k => ClockBlock_1k ,
            clk_32k => ClockBlock_32k ,
            xtal => ClockBlock_XTAL ,
            clk_32k_xtal => ClockBlock_XTAL_32KHZ ,
            clk_sync => ClockBlock_MASTER_CLK ,
            clk_bus_glb => ClockBlock_BUS_CLK ,
            clk_bus => ClockBlock_BUS_CLK_local ,
            dclk_glb_0 => Net_38 ,
            dclk_0 => Net_38_local ,
            dclk_glb_1 => \SPI_TDC:Net_276\ ,
            dclk_1 => \SPI_TDC:Net_276_local\ );
        Properties:
        {
        }
Comparator group 0: empty
DFB group 0: empty
DSM group 0: empty
Decimator group 0: empty
EMIF group 0: empty
I2C group 0: empty
LCD group 0: empty
LVD group 0: empty
PICU group 0: empty
PM group 0: empty
SC group 0: empty
SPC group 0: empty
Timer group 0: empty
USB group 0: empty
VIDAC group 0: empty
OpAmp group 0: empty
CsAbuf group 0: empty
Vref group 0: empty
LPF group 0: empty
SAR group 0: empty
ANAIF group 0: empty
PHUB group 0: empty
</CYPRESSTAG>
<CYPRESSTAG name="Port Configuration Details">

------------------------------------------------------------
Port Configuration report
------------------------------------------------------------
     |     |       | Interrupt |                  |             | 
Port | Pin | Fixed |      Type |       Drive Mode |        Name | Connections
-----+-----+-------+-----------+------------------+-------------+------------
   0 |   3 |       |      NONE |         CMOS_OUT |  SPI_CLK(0) | In(Net_27)
-----+-----+-------+-----------+------------------+-------------+------------
  12 |   3 |       |      NONE |         CMOS_OUT | SPI_MOSI(0) | In(Net_24)
-----+-----+-------+-----------+------------------+-------------+------------
  15 |   0 |       |      NONE |     HI_Z_DIGITAL | SPI_MISO(0) | FB(Net_100)
     |   3 |       |      NONE |         CMOS_OUT |   SPI_SS(0) | In(Net_487)
-----------------------------------------------------------------------------
</CYPRESSTAG>
</CYPRESSTAG>
</CYPRESSTAG>
Digital component placer commit/Report: Elapsed time ==> 0s.031ms
Digital Placement phase: Elapsed time ==> 1s.205ms
</CYPRESSTAG>
<CYPRESSTAG name="Digital Routing">
"C:\Program Files (x86)\Cypress\PSoC Creator\4.3\PSoC Creator\bin/sjrouter.exe" --xml-path "C:\Program Files (x86)\Cypress\PSoC Creator\4.3\PSoC Creator\dev\psoc5/psoc5lp/route_arch-rrg.cydata" --vh2-path "SPI_TDC7200_r.vh2" --pcf-path "SPI_TDC7200.pco" --des-name "SPI_TDC7200" --dsf-path "SPI_TDC7200.dsf" --sdc-path "SPI_TDC7200.sdc" --lib-path "SPI_TDC7200_r.lib"
Routing successful.
Digital Routing phase: Elapsed time ==> 1s.474ms
</CYPRESSTAG>
<CYPRESSTAG name="Bitstream Generation">
Bitstream Generation phase: Elapsed time ==> 0s.178ms
</CYPRESSTAG>
<CYPRESSTAG name="Bitstream Verification">
Bitstream Verification phase: Elapsed time ==> 0s.038ms
</CYPRESSTAG>
<CYPRESSTAG name="Static timing analysis">
Timing report is in SPI_TDC7200_timing.html.
Static timing analysis phase: Elapsed time ==> 0s.314ms
</CYPRESSTAG>
<CYPRESSTAG name="Data reporting">
Data reporting phase: Elapsed time ==> 0s.000ms
</CYPRESSTAG>
<CYPRESSTAG name="Database update...">
Design database save phase: Elapsed time ==> 0s.195ms
</CYPRESSTAG>
cydsfit: Elapsed time ==> 3s.918ms
</CYPRESSTAG>
Fitter phase: Elapsed time ==> 3s.921ms
API generation phase: Elapsed time ==> 0s.873ms
Dependency generation phase: Elapsed time ==> 0s.017ms
Cleanup phase: Elapsed time ==> 0s.001ms
