(module TestPoint_Pad_D0.3mm (layer F.Cu) (tedit 5E80DE4B)
  (descr "SMD pad as test Point, diameter 1.0mm")
  (tags "test point SMD pad")
  (attr virtual)
  (fp_text reference REF** (at 0 -1.448) (layer F.SilkS)
    (effects (font (size 1 1) (thickness 0.15)))
  )
  (fp_text value TestPoint_Pad_D0.3mm (at 0 1.55) (layer F.Fab)
    (effects (font (size 1 1) (thickness 0.15)))
  )
  (fp_circle (center 0 0) (end 0.4 0) (layer F.SilkS) (width 0.1))
  (fp_circle (center 0 0) (end 0.5 0) (layer F.CrtYd) (width 0.05))
  (fp_text user %R (at 0 -1.45) (layer F.Fab)
    (effects (font (size 1 1) (thickness 0.15)))
  )
  (pad 1 smd circle (at 0 0) (size 0.3 0.3) (layers F.Cu F.Mask))
)
