EESchema Schematic File Version 4
EELAYER 30 0
EELAYER END
$Descr C 22000 17000
encoding utf-8
Sheet 1 1
Title ""
Date ""
Rev ""
Comp ""
Comment1 ""
Comment2 ""
Comment3 ""
Comment4 ""
$EndDescr
$Comp
L Connector_Generic:Conn_01x02 J3
U 1 1 5CB01095
P 6050 13900
F 0 "J3" H 6050 14050 50  0000 C CNN
F 1 "Conn_01x02_Lock" H 6050 13650 50  0000 C CNN
F 2 "Connector_Molex:Molex_KK-254_AE-6410-02A_1x02_P2.54mm_Vertical" H 6050 13900 50  0001 C CNN
F 3 "~" H 6050 13900 50  0001 C CNN
	1    6050 13900
	-1   0    0    -1  
$EndComp
Wire Wire Line
	6250 13900 6550 13900
Wire Wire Line
	6550 13900 6550 13750
Wire Wire Line
	6550 14000 6550 14150
$Comp
L power:+3.3V #PWR0101
U 1 1 5E0F4E60
P 6550 13450
F 0 "#PWR0101" H 6550 13300 50  0001 C CNN
F 1 "+3.3V" H 6565 13623 50  0000 C CNN
F 2 "" H 6550 13450 50  0001 C CNN
F 3 "" H 6550 13450 50  0001 C CNN
	1    6550 13450
	-1   0    0    -1  
$EndComp
$Comp
L power:+3.3V #PWR0102
U 1 1 5E0F5A3C
P 6550 14450
F 0 "#PWR0102" H 6550 14300 50  0001 C CNN
F 1 "+3.3V" H 6565 14623 50  0000 C CNN
F 2 "" H 6550 14450 50  0001 C CNN
F 3 "" H 6550 14450 50  0001 C CNN
	1    6550 14450
	1    0    0    1   
$EndComp
Wire Wire Line
	6850 13900 6550 13900
Connection ~ 6550 13900
Wire Wire Line
	6850 14000 6550 14000
Connection ~ 6550 14000
Wire Wire Line
	6550 14000 6250 14000
Text Label 6850 13900 0    50   ~ 0
I2C_SDA
Text Label 6850 14000 0    50   ~ 0
I2C_SCL
$Comp
L Device:R R5
U 1 1 5E0F7258
P 6550 14300
F 0 "R5" V 6450 14300 50  0000 C CNN
F 1 "4.7k" V 6550 14300 50  0000 C CNN
F 2 "Capacitor_SMD:C_0402_1005Metric" V 6480 14300 50  0001 C CNN
F 3 "~" H 6550 14300 50  0001 C CNN
F 4 "0402" V 6650 14300 50  0000 C CNN "Package"
	1    6550 14300
	1    0    0    -1  
$EndComp
$Comp
L Device:R R4
U 1 1 5E0F7C28
P 6550 13600
F 0 "R4" V 6450 13600 50  0000 C CNN
F 1 "4.7k" V 6550 13600 50  0000 C CNN
F 2 "Capacitor_SMD:C_0402_1005Metric" V 6480 13600 50  0001 C CNN
F 3 "~" H 6550 13600 50  0001 C CNN
F 4 "0402" V 6650 13600 50  0000 C CNN "Package"
	1    6550 13600
	1    0    0    -1  
$EndComp
$Comp
L 74xx_IEEE:74LS590 U11
U 1 1 5E79C382
P 12200 5400
F 0 "U11" H 12000 6250 50  0000 C CNN
F 1 "74HC590PW" H 12200 4600 50  0000 C CNN
F 2 "Package_SO:TSSOP-16_4.4x5mm_P0.65mm" H 12200 5400 50  0001 C CNN
F 3 "https://assets.nexperia.com/documents/data-sheet/74HC590.pdf" H 12200 5400 50  0001 C CNN
F 4 "TSSOP-14" H 12200 4500 50  0000 C CNN "Package"
	1    12200 5400
	1    0    0    -1  
$EndComp
Wire Wire Line
	10600 5100 11050 5100
Wire Wire Line
	11650 4850 11250 4850
Wire Wire Line
	11250 4850 11250 5100
Connection ~ 11250 5100
Wire Wire Line
	11250 5100 11650 5100
$Comp
L TIC:TDC7200PW U15
U 1 1 5E7BB3F0
P 18350 6550
F 0 "U15" H 18300 7200 50  0000 L CNN
F 1 "TDC7200PW" H 18350 5900 50  0000 C CNN
F 2 "Package_SO:TSSOP-14_4.4x5mm_P0.65mm" H 18400 6750 50  0001 C CNN
F 3 "http://www.ti.com/lit/ds/symlink/tdc7200.pdf" H 18400 6750 50  0001 C CNN
F 4 "TSSOP-14" H 18150 5800 50  0000 L CNN "Package"
	1    18350 6550
	1    0    0    -1  
$EndComp
Wire Wire Line
	12400 4650 12400 4500
$Comp
L power:GND #PWR0103
U 1 1 5E7D8C75
P 12250 4650
F 0 "#PWR0103" H 12250 4400 50  0001 C CNN
F 1 "GND" H 12255 4477 50  0000 C CNN
F 2 "" H 12250 4650 50  0001 C CNN
F 3 "" H 12250 4650 50  0001 C CNN
	1    12250 4650
	-1   0    0    1   
$EndComp
Wire Wire Line
	9100 5000 9100 5250
Wire Wire Line
	9100 5000 9500 5000
$Comp
L 74xx_IEEE:74LS590 U9
U 1 1 5E7DB65B
P 10050 5550
F 0 "U9" H 9850 6400 50  0000 C CNN
F 1 "74HC590PW" H 10050 4750 50  0000 C CNN
F 2 "Package_SO:TSSOP-16_4.4x5mm_P0.65mm" H 10050 5550 50  0001 C CNN
F 3 "https://assets.nexperia.com/documents/data-sheet/74HC590.pdf" H 10050 5550 50  0001 C CNN
F 4 "TSSOP-14" H 10050 4650 50  0000 C CNN "Package"
	1    10050 5550
	1    0    0    -1  
$EndComp
$Comp
L power:GND #PWR0104
U 1 1 5E7DDB8F
P 12850 4500
F 0 "#PWR0104" H 12850 4250 50  0001 C CNN
F 1 "GND" H 12855 4327 50  0000 C CNN
F 2 "" H 12850 4500 50  0001 C CNN
F 3 "" H 12850 4500 50  0001 C CNN
	1    12850 4500
	0    -1   -1   0   
$EndComp
Wire Wire Line
	12550 4500 12400 4500
Connection ~ 12400 4500
Wire Wire Line
	12400 4500 12400 4400
Wire Wire Line
	10250 4800 10250 4650
$Comp
L Device:C C14
U 1 1 5E7E2E31
P 10550 4650
F 0 "C14" V 10450 4550 50  0000 R CNN
F 1 "0.1u" V 10450 4750 50  0000 L CNN
F 2 "Capacitor_SMD:C_0402_1005Metric" H 10588 4500 50  0001 C CNN
F 3 "~" H 10550 4650 50  0001 C CNN
F 4 "0402" V 10700 4650 50  0000 C CNN "Package"
	1    10550 4650
	0    1    1    0   
$EndComp
$Comp
L power:GND #PWR0105
U 1 1 5E7E2E37
P 10700 4650
F 0 "#PWR0105" H 10700 4400 50  0001 C CNN
F 1 "GND" H 10705 4477 50  0000 C CNN
F 2 "" H 10700 4650 50  0001 C CNN
F 3 "" H 10700 4650 50  0001 C CNN
	1    10700 4650
	0    -1   -1   0   
$EndComp
Wire Wire Line
	10400 4650 10250 4650
Connection ~ 10250 4650
Wire Wire Line
	10250 4650 10250 4550
$Comp
L power:GND #PWR0106
U 1 1 5E7E36BE
P 10100 4800
F 0 "#PWR0106" H 10100 4550 50  0001 C CNN
F 1 "GND" H 10105 4627 50  0000 C CNN
F 2 "" H 10100 4800 50  0001 C CNN
F 3 "" H 10100 4800 50  0001 C CNN
	1    10100 4800
	-1   0    0    1   
$EndComp
Wire Wire Line
	11250 6850 14000 6850
Wire Wire Line
	14000 6650 13400 6650
$Comp
L power:GND #PWR0107
U 1 1 5E84D8E2
P 14200 6950
F 0 "#PWR0107" H 14200 6700 50  0001 C CNN
F 1 "GND" H 14205 6777 50  0000 C CNN
F 2 "" H 14200 6950 50  0001 C CNN
F 3 "" H 14200 6950 50  0001 C CNN
	1    14200 6950
	1    0    0    -1  
$EndComp
Wire Wire Line
	14200 6550 14200 6400
$Comp
L Device:C C22
U 1 1 5E85044A
P 14550 6400
F 0 "C22" V 14450 6300 50  0000 R CNN
F 1 "0.1u" V 14450 6500 50  0000 L CNN
F 2 "Capacitor_SMD:C_0402_1005Metric" H 14588 6250 50  0001 C CNN
F 3 "~" H 14550 6400 50  0001 C CNN
F 4 "0402" V 14700 6400 50  0000 C CNN "Package"
	1    14550 6400
	0    1    1    0   
$EndComp
$Comp
L power:GND #PWR0108
U 1 1 5E850450
P 14700 6400
F 0 "#PWR0108" H 14700 6150 50  0001 C CNN
F 1 "GND" H 14705 6227 50  0000 C CNN
F 2 "" H 14700 6400 50  0001 C CNN
F 3 "" H 14700 6400 50  0001 C CNN
	1    14700 6400
	0    -1   -1   0   
$EndComp
Wire Wire Line
	14400 6400 14200 6400
Connection ~ 14200 6400
Wire Wire Line
	14200 6400 14200 6300
$Comp
L power:GND #PWR0109
U 1 1 5E893929
P 17900 7000
F 0 "#PWR0109" H 17900 6750 50  0001 C CNN
F 1 "GND" H 17905 6827 50  0000 C CNN
F 2 "" H 17900 7000 50  0001 C CNN
F 3 "" H 17900 7000 50  0001 C CNN
	1    17900 7000
	0    1    1    0   
$EndComp
$Comp
L Device:R R3
U 1 1 5E9538A6
P 6000 2500
F 0 "R3" V 5900 2500 50  0000 C CNN
F 1 "DNI" V 6000 2500 50  0000 C CNN
F 2 "Resistor_SMD:R_0402_1005Metric" V 5930 2500 50  0001 C CNN
F 3 "~" H 6000 2500 50  0001 C CNN
F 4 "0402" V 6100 2500 50  0000 C CNN "Package"
	1    6000 2500
	0    -1   1    0   
$EndComp
Wire Wire Line
	5850 2500 5700 2500
Text Label 5700 2500 2    50   ~ 0
VDD_REG_TRACK
Text Label 14550 6950 0    50   ~ 0
RC_CLK_OUT_SEL
Text Label 17900 6400 2    50   ~ 0
TDC_START_PULSE
Text Label 17600 6100 2    50   ~ 0
TDC_EN
Wire Wire Line
	18800 6100 18950 6100
$Comp
L Device:C C27
U 1 1 5EA6684B
P 18950 5800
F 0 "C27" H 18850 5700 50  0000 R CNN
F 1 "0.1u" H 18850 5900 50  0000 R CNN
F 2 "Capacitor_SMD:C_0402_1005Metric" H 18988 5650 50  0001 C CNN
F 3 "~" H 18950 5800 50  0001 C CNN
F 4 "0402" H 18850 5800 50  0000 R CNN "Package"
	1    18950 5800
	-1   0    0    1   
$EndComp
$Comp
L power:GND #PWR0110
U 1 1 5EA66851
P 18950 5650
F 0 "#PWR0110" H 18950 5400 50  0001 C CNN
F 1 "GND" H 18955 5477 50  0000 C CNN
F 2 "" H 18950 5650 50  0001 C CNN
F 3 "" H 18950 5650 50  0001 C CNN
	1    18950 5650
	-1   0    0    1   
$EndComp
Wire Wire Line
	18950 5950 18950 6100
Connection ~ 18950 6100
Wire Wire Line
	18950 6100 19050 6100
$Comp
L power:GND #PWR0111
U 1 1 5EAB6B41
P 10650 2400
F 0 "#PWR0111" H 10650 2150 50  0001 C CNN
F 1 "GND" V 10655 2272 50  0000 R CNN
F 2 "" H 10650 2400 50  0001 C CNN
F 3 "" H 10650 2400 50  0001 C CNN
	1    10650 2400
	0    -1   1    0   
$EndComp
$Comp
L Connector_Generic:Conn_01x02 J6
U 1 1 5EAB6B47
P 10450 2300
F 0 "J6" H 10450 2450 50  0000 C CNN
F 1 "Conn_01x02_Lock" H 10450 2050 50  0000 C CNN
F 2 "Connector_Molex:Molex_KK-254_AE-6410-02A_1x02_P2.54mm_Vertical" H 10450 2300 50  0001 C CNN
F 3 "~" H 10450 2300 50  0001 C CNN
	1    10450 2300
	-1   0    0    -1  
$EndComp
Wire Wire Line
	11200 1850 11550 1850
$Comp
L Device:Ferrite_Bead_Small F1
U 1 1 5EAB6B4F
P 11650 1850
F 0 "F1" V 11323 1850 50  0000 C CNN
F 1 "Ferrite_Bead" V 11414 1850 50  0000 C CNN
F 2 "Inductor_SMD:L_0603_1608Metric" V 11580 1850 50  0001 C CNN
F 3 "~" H 11650 1850 50  0001 C CNN
F 4 "0603" V 11505 1850 50  0000 C CNN "Package"
	1    11650 1850
	0    1    1    0   
$EndComp
$Comp
L Device:R R20
U 1 1 5EAB6B56
P 11650 2300
F 0 "R20" V 11550 2300 50  0000 C CNN
F 1 "10" V 11650 2300 50  0000 C CNN
F 2 "Resistor_SMD:R_0603_1608Metric" V 11580 2300 50  0001 C CNN
F 3 "~" H 11650 2300 50  0001 C CNN
F 4 "0603" V 11750 2300 50  0000 C CNN "Package"
	1    11650 2300
	0    1    1    0   
$EndComp
Wire Wire Line
	11500 2300 11200 2300
Wire Wire Line
	11200 1850 11200 2300
Connection ~ 11200 2300
Wire Wire Line
	11200 2300 10650 2300
Text Label 9500 4900 2    50   ~ 0
~RC_OE_EN
Text Label 9500 5350 2    50   ~ 0
~RC_MRC
Text Label 11650 5200 2    50   ~ 0
~RC_MRC
Text Label 10350 3700 0    50   ~ 0
~RC_EN
$Comp
L Device:R R10
U 1 1 5EB392AF
P 10050 3700
F 0 "R10" V 9950 3700 50  0000 C CNN
F 1 "10k" V 10050 3700 50  0000 C CNN
F 2 "Resistor_SMD:R_0402_1005Metric" V 9980 3700 50  0001 C CNN
F 3 "~" H 10050 3700 50  0001 C CNN
F 4 "0402" V 10150 3700 50  0000 C CNN "Package"
	1    10050 3700
	0    1    1    0   
$EndComp
Wire Wire Line
	10200 3700 10350 3700
$Comp
L Device:R R11
U 1 1 5EB4796E
P 10050 4050
F 0 "R11" V 9950 4050 50  0000 C CNN
F 1 "10k" V 10050 4050 50  0000 C CNN
F 2 "Resistor_SMD:R_0402_1005Metric" V 9980 4050 50  0001 C CNN
F 3 "~" H 10050 4050 50  0001 C CNN
F 4 "0402" V 10150 4050 50  0000 C CNN "Package"
	1    10050 4050
	0    1    1    0   
$EndComp
Wire Wire Line
	10200 4050 10350 4050
Wire Wire Line
	9900 3700 9750 3700
Wire Wire Line
	9750 4050 9900 4050
Text Label 10350 4050 0    50   ~ 0
~RC_MRC
Text Label 9500 5150 2    50   ~ 0
~RC_EN
Text Label 11650 5000 2    50   ~ 0
~RC_EN
Text Label 11650 4750 2    50   ~ 0
~RC_OE_EN
$Comp
L power:GND #PWR0113
U 1 1 5EBAACF4
P 9750 3700
F 0 "#PWR0113" H 9750 3450 50  0001 C CNN
F 1 "GND" H 9755 3527 50  0000 C CNN
F 2 "" H 9750 3700 50  0001 C CNN
F 3 "" H 9750 3700 50  0001 C CNN
	1    9750 3700
	0    1    1    0   
$EndComp
$Comp
L power:GND #PWR0114
U 1 1 5EBAEB6C
P 9750 4050
F 0 "#PWR0114" H 9750 3800 50  0001 C CNN
F 1 "GND" H 9755 3877 50  0000 C CNN
F 2 "" H 9750 4050 50  0001 C CNN
F 3 "" H 9750 4050 50  0001 C CNN
	1    9750 4050
	0    1    1    0   
$EndComp
$Comp
L power:GND #PWR0115
U 1 1 5EBB7B55
P 17750 5650
F 0 "#PWR0115" H 17750 5400 50  0001 C CNN
F 1 "GND" H 17755 5477 50  0000 C CNN
F 2 "" H 17750 5650 50  0001 C CNN
F 3 "" H 17750 5650 50  0001 C CNN
	1    17750 5650
	-1   0    0    1   
$EndComp
Wire Wire Line
	17750 5950 17750 6100
Wire Wire Line
	17600 6100 17750 6100
Connection ~ 17750 6100
Wire Wire Line
	17750 6100 17900 6100
Text Label 18800 6400 0    50   ~ 0
SPI_CLK
Text Label 18800 6700 0    50   ~ 0
SPI_MOSI
Text Label 18800 6850 0    50   ~ 0
SPI_MISO
Text Label 18800 6550 0    50   ~ 0
~SPI_CS
Text Label 17900 6250 2    50   ~ 0
TDC_TRIGGER
$Comp
L Device:C C15
U 1 1 5E7DCB72
P 12700 4500
F 0 "C15" V 12600 4400 50  0000 R CNN
F 1 "0.1u" V 12600 4600 50  0000 L CNN
F 2 "Capacitor_SMD:C_0402_1005Metric" H 12738 4350 50  0001 C CNN
F 3 "~" H 12700 4500 50  0001 C CNN
F 4 "0402" V 12850 4500 50  0000 C CNN "Package"
	1    12700 4500
	0    1    1    0   
$EndComp
$Comp
L power:GND #PWR0116
U 1 1 5EBF2750
P 19550 6250
F 0 "#PWR0116" H 19550 6000 50  0001 C CNN
F 1 "GND" H 19555 6077 50  0000 C CNN
F 2 "" H 19550 6250 50  0001 C CNN
F 3 "" H 19550 6250 50  0001 C CNN
	1    19550 6250
	0    -1   -1   0   
$EndComp
Wire Wire Line
	19250 6250 18800 6250
$Comp
L Device:C C28
U 1 1 5EBF2758
P 19400 6250
F 0 "C28" V 19300 6150 50  0000 R CNN
F 1 "1u" V 19300 6350 50  0000 L CNN
F 2 "Capacitor_SMD:C_0603_1608Metric" H 19438 6100 50  0001 C CNN
F 3 "~" H 19400 6250 50  0001 C CNN
F 4 "0603" V 19200 6250 50  0000 C CNN "Package"
	1    19400 6250
	0    1    -1   0   
$EndComp
$Comp
L Device:R R26
U 1 1 5EC102A5
P 17750 5800
F 0 "R26" V 17650 5800 50  0000 C CNN
F 1 "10k" V 17750 5800 50  0000 C CNN
F 2 "Resistor_SMD:R_0402_1005Metric" V 17680 5800 50  0001 C CNN
F 3 "~" H 17750 5800 50  0001 C CNN
F 4 "0402" V 17850 5800 50  0000 C CNN "Package"
	1    17750 5800
	1    0    0    -1  
$EndComp
Text Label 17900 6700 2    50   ~ 0
TDC_CLK_REF
Text Label 18800 7000 0    50   ~ 0
TDC_INTERRUPT
Text Label 8950 5000 2    50   ~ 0
RC_CLK_IN
$Comp
L Device:C C26
U 1 1 5EE0A2DC
P 15550 6200
F 0 "C26" V 15450 6100 50  0000 R CNN
F 1 "0.1u" V 15450 6300 50  0000 L CNN
F 2 "Capacitor_SMD:C_0402_1005Metric" H 15588 6050 50  0001 C CNN
F 3 "~" H 15550 6200 50  0001 C CNN
F 4 "0402" V 15700 6200 50  0000 C CNN "Package"
	1    15550 6200
	0    -1   1    0   
$EndComp
$Comp
L power:GND #PWR0117
U 1 1 5EE0A2E2
P 15400 6200
F 0 "#PWR0117" H 15400 5950 50  0001 C CNN
F 1 "GND" H 15405 6027 50  0000 C CNN
F 2 "" H 15400 6200 50  0001 C CNN
F 3 "" H 15400 6200 50  0001 C CNN
	1    15400 6200
	0    1    -1   0   
$EndComp
Wire Wire Line
	15700 6200 15850 6200
Connection ~ 16000 6200
Wire Wire Line
	16000 6200 16150 6200
Wire Wire Line
	15850 6550 15850 6200
Connection ~ 15850 6200
Wire Wire Line
	15850 6200 16000 6200
Text Label 16150 7050 3    50   ~ 0
~RC_MRC
Text Label 17900 6550 2    50   ~ 0
TDC_STOP_PULSE
Text Label 17200 4850 2    50   ~ 0
TDC_TRIGGER
$Comp
L Device:R R23
U 1 1 5EE892F0
P 17500 4850
F 0 "R23" V 17400 4850 50  0000 C CNN
F 1 "DNI" V 17500 4850 50  0000 C CNN
F 2 "Resistor_SMD:R_0402_1005Metric" V 17430 4850 50  0001 C CNN
F 3 "~" H 17500 4850 50  0001 C CNN
F 4 "0402" V 17600 4850 50  0000 C CNN "Package"
	1    17500 4850
	0    1    1    0   
$EndComp
Text Label 17800 4850 0    50   ~ 0
PSOC_TDC_TRIGGER
Wire Wire Line
	17200 4850 17350 4850
Wire Wire Line
	17650 4850 17800 4850
Text Label 18100 8500 2    50   ~ 0
TDC_INTERRUPT
$Comp
L Device:R R27
U 1 1 5EE984E1
P 18400 8500
F 0 "R27" V 18300 8500 50  0000 C CNN
F 1 "0" V 18400 8500 50  0000 C CNN
F 2 "Resistor_SMD:R_0402_1005Metric" V 18330 8500 50  0001 C CNN
F 3 "~" H 18400 8500 50  0001 C CNN
F 4 "0402" V 18500 8500 50  0000 C CNN "Package"
	1    18400 8500
	0    1    1    0   
$EndComp
Text Label 18700 8500 0    50   ~ 0
PSOC_TDC_INTERRUPT
Wire Wire Line
	18100 8500 18250 8500
Wire Wire Line
	18550 8500 18700 8500
Text Label 8350 7000 0    50   ~ 0
TDC_START_PULSE
Wire Wire Line
	7600 7000 7750 7000
Wire Wire Line
	7350 7350 7350 7500
Text Label 7350 7500 3    50   ~ 0
~RC_MRC
Wire Wire Line
	7100 7200 6950 7200
Wire Wire Line
	7050 6650 7200 6650
Connection ~ 7050 6650
Wire Wire Line
	7050 7000 7050 6650
Wire Wire Line
	7100 7000 7050 7000
Text Label 6950 7200 2    50   ~ 0
RC_CLK_IN
Wire Wire Line
	7350 6650 7350 6850
Wire Wire Line
	7200 6650 7350 6650
Wire Wire Line
	7200 6650 7200 6550
Connection ~ 7200 6650
Wire Wire Line
	6900 6650 7050 6650
$Comp
L power:GND #PWR0118
U 1 1 5ED573A5
P 6600 6650
F 0 "#PWR0118" H 6600 6400 50  0001 C CNN
F 1 "GND" H 6605 6477 50  0000 C CNN
F 2 "" H 6600 6650 50  0001 C CNN
F 3 "" H 6600 6650 50  0001 C CNN
	1    6600 6650
	0    1    -1   0   
$EndComp
$Comp
L Device:C C7
U 1 1 5ED5739F
P 6750 6650
F 0 "C7" V 6650 6550 50  0000 R CNN
F 1 "0.1u" V 6650 6750 50  0000 L CNN
F 2 "Capacitor_SMD:C_0402_1005Metric" H 6788 6500 50  0001 C CNN
F 3 "~" H 6750 6650 50  0001 C CNN
F 4 "0402" V 6900 6650 50  0000 C CNN "Package"
	1    6750 6650
	0    -1   1    0   
$EndComp
Wire Wire Line
	7200 6950 7200 6650
$Comp
L power:GND #PWR0119
U 1 1 5ED4F3C1
P 7200 7250
F 0 "#PWR0119" H 7200 7000 50  0001 C CNN
F 1 "GND" V 7200 7000 50  0000 C CNN
F 2 "" H 7200 7250 50  0001 C CNN
F 3 "" H 7200 7250 50  0001 C CNN
	1    7200 7250
	1    0    0    -1  
$EndComp
$Comp
L 74xGxx:74AUC1G74 U7
U 1 1 5ED42882
P 7350 7100
F 0 "U7" H 7550 6850 50  0000 L CNN
F 1 "74AUC1G74DCU" H 7550 6750 50  0000 L CNN
F 2 "Package_SO:VSSOP-8_2.3x2mm_P0.5mm" H 7350 7100 50  0001 C CNN
F 3 "https://www.ti.com/lit/ds/symlink/sn74auc1g74.pdf" H 7350 7100 50  0001 C CNN
F 4 "VSSOP-8" H 7350 7100 50  0001 C CNN "Package"
	1    7350 7100
	1    0    0    -1  
$EndComp
$Comp
L power:GND #PWR0120
U 1 1 5E83E98C
P 7500 4900
F 0 "#PWR0120" H 7500 4650 50  0001 C CNN
F 1 "GND" H 7505 4727 50  0000 C CNN
F 2 "" H 7500 4900 50  0001 C CNN
F 3 "" H 7500 4900 50  0001 C CNN
	1    7500 4900
	0    -1   -1   0   
$EndComp
Text Label 7400 5450 0    50   ~ 0
RC_CLK_IN_SEL
$Comp
L power:GND #PWR0121
U 1 1 5E85A9C0
P 4000 3200
F 0 "#PWR0121" H 4000 2950 50  0001 C CNN
F 1 "GND" H 4005 3027 50  0000 C CNN
F 2 "" H 4000 3200 50  0001 C CNN
F 3 "" H 4000 3200 50  0001 C CNN
	1    4000 3200
	0    1    -1   0   
$EndComp
Wire Wire Line
	7050 4900 7050 4800
Connection ~ 7050 4900
Wire Wire Line
	7200 4900 7050 4900
$Comp
L Device:C C10
U 1 1 5E83E986
P 7350 4900
F 0 "C10" V 7250 4800 50  0000 R CNN
F 1 "0.1u" V 7250 5000 50  0000 L CNN
F 2 "Capacitor_SMD:C_0402_1005Metric" H 7388 4750 50  0001 C CNN
F 3 "~" H 7350 4900 50  0001 C CNN
F 4 "0402" V 7500 4900 50  0000 C CNN "Package"
	1    7350 4900
	0    1    1    0   
$EndComp
Wire Wire Line
	7050 5050 7050 4900
$Comp
L power:GND #PWR0122
U 1 1 5E83B8E7
P 7050 5450
F 0 "#PWR0122" H 7050 5200 50  0001 C CNN
F 1 "GND" H 7050 5300 50  0000 C CNN
F 2 "" H 7050 5450 50  0001 C CNN
F 3 "" H 7050 5450 50  0001 C CNN
	1    7050 5450
	1    0    0    -1  
$EndComp
Wire Wire Line
	4900 3200 5200 3200
$Comp
L 74xGxx:74LVC1G3157 U8
U 1 1 5E7A25BE
P 7050 5250
F 0 "U8" H 6800 4850 50  0000 C CNN
F 1 "74LVC1G3157" H 6800 4750 50  0000 C CNN
F 2 "Package_TO_SOT_SMD:SOT-363_SC-70-6" H 7050 5250 50  0001 C CNN
F 3 "http://www.ti.com/lit/sg/scyt129e/scyt129e.pdf" H 7050 5250 50  0001 C CNN
	1    7050 5250
	-1   0    0    -1  
$EndComp
$Comp
L TIC:DIP14 U3
U 1 1 5E79ED27
P 4450 2750
F 0 "U3" H 4450 3400 50  0000 C CNN
F 1 "DIP14" H 4450 2100 50  0000 C CNN
F 2 "Package_DIP:DIP-14_W7.62mm_Socket" H 4500 2950 50  0001 C CNN
F 3 "" H 4500 2950 50  0000 C CNN
	1    4450 2750
	1    0    0    -1  
$EndComp
$Comp
L power:GND #PWR0123
U 1 1 5E0E9B10
P 6500 5550
F 0 "#PWR0123" H 6500 5300 50  0001 C CNN
F 1 "GND" H 6505 5377 50  0000 C CNN
F 2 "" H 6500 5550 50  0001 C CNN
F 3 "" H 6500 5550 50  0001 C CNN
	1    6500 5550
	-1   0    0    -1  
$EndComp
$Comp
L Connector:Conn_Coaxial J5
U 1 1 5E0E9B0A
P 6500 5350
F 0 "J5" H 6600 5400 50  0000 L CNN
F 1 "SMA" H 6600 5300 50  0000 L CNN
F 2 "Connector_Coaxial:SMA_Amphenol_132134-16_Vertical" H 6500 5350 50  0001 C CNN
F 3 " ~" H 6500 5350 50  0001 C CNN
	1    6500 5350
	-1   0    0    -1  
$EndComp
$Comp
L Device:R R8
U 1 1 5EF4EAEB
P 8150 4950
F 0 "R8" V 8050 4950 50  0000 C CNN
F 1 "DNI" V 8150 4950 50  0000 C CNN
F 2 "Resistor_SMD:R_0402_1005Metric" V 8080 4950 50  0001 C CNN
F 3 "~" H 8150 4950 50  0001 C CNN
F 4 "0402" V 8250 4950 50  0000 C CNN "Package"
	1    8150 4950
	1    0    0    1   
$EndComp
Wire Wire Line
	8150 5250 8150 5100
Text Label 8150 4650 1    50   ~ 0
MCU_CLK_INPUT
Wire Wire Line
	8150 4800 8150 4650
Wire Wire Line
	6700 5350 6850 5350
$Comp
L Device:R R6
U 1 1 5F00259A
P 7900 7000
F 0 "R6" V 7800 7000 50  0000 C CNN
F 1 "0" V 7900 7000 50  0000 C CNN
F 2 "Resistor_SMD:R_0402_1005Metric" V 7830 7000 50  0001 C CNN
F 3 "~" H 7900 7000 50  0001 C CNN
F 4 "0402" V 8000 7000 50  0000 C CNN "Package"
	1    7900 7000
	0    1    1    0   
$EndComp
Wire Wire Line
	8050 7000 8200 7000
Connection ~ 8150 5250
$Comp
L Device:R R24
U 1 1 5F06A5E1
P 16700 6550
F 0 "R24" V 16600 6550 50  0000 C CNN
F 1 "0" V 16700 6550 50  0000 C CNN
F 2 "Resistor_SMD:R_0402_1005Metric" V 16630 6550 50  0001 C CNN
F 3 "~" H 16700 6550 50  0001 C CNN
F 4 "0402" V 16800 6550 50  0000 C CNN "Package"
	1    16700 6550
	0    1    1    0   
$EndComp
Text Label 9000 8000 0    50   ~ 0
TDC_START_PULSE
$Comp
L Device:R R7
U 1 1 5F088134
P 8700 8000
F 0 "R7" V 8600 8000 50  0000 C CNN
F 1 "DNI" V 8700 8000 50  0000 C CNN
F 2 "Resistor_SMD:R_0402_1005Metric" V 8630 8000 50  0001 C CNN
F 3 "~" H 8700 8000 50  0001 C CNN
F 4 "0402" V 8800 8000 50  0000 C CNN "Package"
	1    8700 8000
	0    1    1    0   
$EndComp
Wire Wire Line
	8850 8000 9000 8000
Text Label 8400 8000 2    50   ~ 0
MCU_START_PULSE
Wire Wire Line
	8400 8000 8550 8000
$Comp
L Device:R R25
U 1 1 5F0AE816
P 17050 6850
F 0 "R25" V 16950 6850 50  0000 C CNN
F 1 "DNI" V 17050 6850 50  0000 C CNN
F 2 "Resistor_SMD:R_0402_1005Metric" V 16980 6850 50  0001 C CNN
F 3 "~" H 17050 6850 50  0001 C CNN
F 4 "0402" V 17150 6850 50  0000 C CNN "Package"
	1    17050 6850
	1    0    0    -1  
$EndComp
Wire Wire Line
	17050 6700 17050 6550
Text Label 17050 7150 3    50   ~ 0
MCU_STOP_PULSE
Wire Wire Line
	17050 7150 17050 7000
Wire Wire Line
	14550 6950 14400 6950
Wire Wire Line
	7400 5450 7250 5450
Wire Wire Line
	16000 6500 16000 6200
Wire Wire Line
	16150 6200 16150 6400
Wire Wire Line
	16150 6900 16150 7050
Wire Wire Line
	16400 6550 16550 6550
$Comp
L power:GND #PWR0124
U 1 1 5EE0A2CE
P 16000 6800
F 0 "#PWR0124" H 16000 6550 50  0001 C CNN
F 1 "GND" V 16000 6550 50  0000 C CNN
F 2 "" H 16000 6800 50  0001 C CNN
F 3 "" H 16000 6800 50  0001 C CNN
	1    16000 6800
	1    0    0    -1  
$EndComp
Wire Wire Line
	15900 6550 15850 6550
Text Label 14550 6750 0    50   ~ 0
RC_CLK_OUT
Wire Wire Line
	14400 6750 15700 6750
Connection ~ 17050 6550
Wire Wire Line
	17050 6550 17900 6550
$Comp
L Connector:TestPoint TP2
U 1 1 5F22C282
P 8150 5400
F 0 "TP2" H 8092 5426 50  0000 R CNN
F 1 "TestPoint" H 8092 5517 50  0000 R CNN
F 2 "footprints:TestPoint_Pad_D0.3mm" H 8350 5400 50  0001 C CNN
F 3 "~" H 8350 5400 50  0001 C CNN
	1    8150 5400
	-1   0    0    1   
$EndComp
Wire Wire Line
	8150 5400 8150 5250
$Comp
L power:GND #PWR0125
U 1 1 5F2455CD
P 5000 3550
F 0 "#PWR0125" H 5000 3300 50  0001 C CNN
F 1 "GND" H 5005 3377 50  0000 C CNN
F 2 "" H 5000 3550 50  0001 C CNN
F 3 "" H 5000 3550 50  0001 C CNN
	1    5000 3550
	0    1    1    0   
$EndComp
$Comp
L Connector:Conn_Coaxial J2
U 1 1 5F2455D3
P 5200 3550
F 0 "J2" H 5300 3600 50  0000 L CNN
F 1 "SMA" H 5300 3500 50  0000 L CNN
F 2 "Connector_Coaxial:SMA_Amphenol_132134-16_Vertical" H 5200 3550 50  0001 C CNN
F 3 " ~" H 5200 3550 50  0001 C CNN
	1    5200 3550
	0    1    1    0   
$EndComp
Wire Wire Line
	5200 3350 5200 3200
Connection ~ 5200 3200
Wire Wire Line
	5200 3200 5500 3200
$Comp
L Connector:TestPoint TP3
U 1 1 5F24F820
P 11050 5000
F 0 "TP3" H 11108 5118 50  0000 L CNN
F 1 "TestPoint" H 11108 5027 50  0000 L CNN
F 2 "footprints:TestPoint_Pad_D0.3mm" H 11250 5000 50  0001 C CNN
F 3 "~" H 11250 5000 50  0001 C CNN
	1    11050 5000
	1    0    0    -1  
$EndComp
Wire Wire Line
	11050 5000 11050 5100
Connection ~ 11050 5100
Wire Wire Line
	11050 5100 11250 5100
$Comp
L Connector:TestPoint TP4
U 1 1 5F26E411
P 15700 7000
F 0 "TP4" H 15643 7026 50  0000 R CNN
F 1 "TestPoint" H 15643 7117 50  0000 R CNN
F 2 "footprints:TestPoint_Pad_D0.3mm" H 15900 7000 50  0001 C CNN
F 3 "~" H 15900 7000 50  0001 C CNN
	1    15700 7000
	1    0    0    1   
$EndComp
Wire Wire Line
	15700 7000 15700 6750
Connection ~ 15700 6750
Wire Wire Line
	15700 6750 15900 6750
$Comp
L Connector:TestPoint TP5
U 1 1 5F2829E6
P 17050 6250
F 0 "TP5" H 17108 6368 50  0000 L CNN
F 1 "TestPoint" H 17108 6277 50  0000 L CNN
F 2 "footprints:TestPoint_Pad_D0.3mm" H 17250 6250 50  0001 C CNN
F 3 "~" H 17250 6250 50  0001 C CNN
	1    17050 6250
	-1   0    0    -1  
$EndComp
Wire Wire Line
	17050 6250 17050 6550
Wire Wire Line
	16850 6550 17050 6550
$Comp
L Connector:TestPoint TP1
U 1 1 5F2A2524
P 8200 7150
F 0 "TP1" H 8142 7176 50  0000 R CNN
F 1 "TestPoint" H 8142 7267 50  0000 R CNN
F 2 "footprints:TestPoint_Pad_D0.3mm" H 8400 7150 50  0001 C CNN
F 3 "~" H 8400 7150 50  0001 C CNN
	1    8200 7150
	-1   0    0    1   
$EndComp
Wire Wire Line
	8200 7150 8200 7000
Connection ~ 8200 7000
Wire Wire Line
	8200 7000 8350 7000
$Comp
L TIC:CY8C5866LTI-LP022 U10
U 1 1 5F2C4FF2
P 10400 9550
F 0 "U10" H 11800 9938 60  0000 C CNN
F 1 "CY8C5866LTI-LP022" H 11800 9832 60  0000 C CNN
F 2 "footprints:CY8C5866LTI-LP022" H 11800 9790 60  0001 C CNN
F 3 "" H 10400 9550 60  0000 C CNN
	1    10400 9550
	1    0    0    -1  
$EndComp
Wire Wire Line
	13200 9750 14150 9750
$Comp
L power:+3.3V #PWR0126
U 1 1 5F2DE0DA
P 14300 9750
F 0 "#PWR0126" H 14300 9600 50  0001 C CNN
F 1 "+3.3V" H 14300 9900 50  0000 C CNN
F 2 "" H 14300 9750 50  0001 C CNN
F 3 "" H 14300 9750 50  0001 C CNN
	1    14300 9750
	0    1    -1   0   
$EndComp
$Comp
L power:GND #PWR0127
U 1 1 5F2F43CF
P 14150 10200
F 0 "#PWR0127" H 14150 9950 50  0001 C CNN
F 1 "GND" H 14155 10027 50  0000 C CNN
F 2 "" H 14150 10200 50  0001 C CNN
F 3 "" H 14150 10200 50  0001 C CNN
	1    14150 10200
	-1   0    0    -1  
$EndComp
$Comp
L Device:C C16
U 1 1 5F2F43D6
P 14150 10050
F 0 "C16" H 14050 9950 50  0000 R CNN
F 1 "0.1u" H 14050 10150 50  0000 R CNN
F 2 "Capacitor_SMD:C_0402_1005Metric" H 14188 9900 50  0001 C CNN
F 3 "~" H 14150 10050 50  0001 C CNN
F 4 "0402" H 14050 10050 50  0000 R CNN "Package"
	1    14150 10050
	-1   0    0    1   
$EndComp
Wire Wire Line
	14150 9750 14150 9900
Connection ~ 14150 9750
Wire Wire Line
	14150 9750 14300 9750
Wire Wire Line
	13200 11250 14100 11250
$Comp
L power:+3.3V #PWR0128
U 1 1 5F36C7ED
P 14250 11250
F 0 "#PWR0128" H 14250 11100 50  0001 C CNN
F 1 "+3.3V" H 14250 11400 50  0000 C CNN
F 2 "" H 14250 11250 50  0001 C CNN
F 3 "" H 14250 11250 50  0001 C CNN
	1    14250 11250
	0    1    -1   0   
$EndComp
$Comp
L power:GND #PWR0129
U 1 1 5F36C7F3
P 14100 11700
F 0 "#PWR0129" H 14100 11450 50  0001 C CNN
F 1 "GND" H 14105 11527 50  0000 C CNN
F 2 "" H 14100 11700 50  0001 C CNN
F 3 "" H 14100 11700 50  0001 C CNN
	1    14100 11700
	-1   0    0    -1  
$EndComp
$Comp
L Device:C C18
U 1 1 5F36C7FA
P 14100 11550
F 0 "C18" H 14000 11450 50  0000 R CNN
F 1 "0.1u" H 14000 11650 50  0000 R CNN
F 2 "Capacitor_SMD:C_0402_1005Metric" H 14138 11400 50  0001 C CNN
F 3 "~" H 14100 11550 50  0001 C CNN
F 4 "0402" H 14000 11550 50  0000 R CNN "Package"
	1    14100 11550
	-1   0    0    1   
$EndComp
Wire Wire Line
	14100 11250 14100 11400
Connection ~ 14100 11250
Wire Wire Line
	14100 11250 14250 11250
Wire Wire Line
	13200 12950 14150 12950
$Comp
L power:+3.3V #PWR0130
U 1 1 5F377BE8
P 14300 12950
F 0 "#PWR0130" H 14300 12800 50  0001 C CNN
F 1 "+3.3V" V 14300 13200 50  0000 C CNN
F 2 "" H 14300 12950 50  0001 C CNN
F 3 "" H 14300 12950 50  0001 C CNN
	1    14300 12950
	0    1    -1   0   
$EndComp
$Comp
L power:GND #PWR0131
U 1 1 5F377BEE
P 14150 13400
F 0 "#PWR0131" H 14150 13150 50  0001 C CNN
F 1 "GND" H 14155 13227 50  0000 C CNN
F 2 "" H 14150 13400 50  0001 C CNN
F 3 "" H 14150 13400 50  0001 C CNN
	1    14150 13400
	-1   0    0    -1  
$EndComp
$Comp
L Device:C C20
U 1 1 5F377BF5
P 14150 13250
F 0 "C20" H 14050 13150 50  0000 R CNN
F 1 "0.1u" H 14050 13350 50  0000 R CNN
F 2 "Capacitor_SMD:C_0402_1005Metric" H 14188 13100 50  0001 C CNN
F 3 "~" H 14150 13250 50  0001 C CNN
F 4 "0402" H 14050 13250 50  0000 R CNN "Package"
	1    14150 13250
	-1   0    0    1   
$EndComp
Wire Wire Line
	14150 12950 14150 13100
Connection ~ 14150 12950
Wire Wire Line
	14150 12950 14300 12950
$Comp
L power:GND #PWR0132
U 1 1 5F3909BA
P 10400 9550
F 0 "#PWR0132" H 10400 9300 50  0001 C CNN
F 1 "GND" V 10400 9350 50  0000 C CNN
F 2 "" H 10400 9550 50  0001 C CNN
F 3 "" H 10400 9550 50  0001 C CNN
	1    10400 9550
	0    1    -1   0   
$EndComp
$Comp
L power:GND #PWR0133
U 1 1 5F3A69D2
P 10400 9950
F 0 "#PWR0133" H 10400 9700 50  0001 C CNN
F 1 "GND" V 10400 9750 50  0000 C CNN
F 2 "" H 10400 9950 50  0001 C CNN
F 3 "" H 10400 9950 50  0001 C CNN
	1    10400 9950
	0    1    -1   0   
$EndComp
$Comp
L power:GND #PWR0134
U 1 1 5F3B1C05
P 10400 10350
F 0 "#PWR0134" H 10400 10100 50  0001 C CNN
F 1 "GND" V 10400 10150 50  0000 C CNN
F 2 "" H 10400 10350 50  0001 C CNN
F 3 "" H 10400 10350 50  0001 C CNN
	1    10400 10350
	0    1    -1   0   
$EndComp
$Comp
L power:GND #PWR0135
U 1 1 5F3BCD53
P 13200 10650
F 0 "#PWR0135" H 13200 10400 50  0001 C CNN
F 1 "GND" V 13200 10450 50  0000 C CNN
F 2 "" H 13200 10650 50  0001 C CNN
F 3 "" H 13200 10650 50  0001 C CNN
	1    13200 10650
	0    -1   1    0   
$EndComp
$Comp
L power:GND #PWR0136
U 1 1 5F3C7E46
P 13200 12150
F 0 "#PWR0136" H 13200 11900 50  0001 C CNN
F 1 "GND" V 13200 11950 50  0000 C CNN
F 2 "" H 13200 12150 50  0001 C CNN
F 3 "" H 13200 12150 50  0001 C CNN
	1    13200 12150
	0    -1   1    0   
$EndComp
$Comp
L Device:C C19
U 1 1 5F3D38AF
P 13800 12250
F 0 "C19" V 13700 12150 50  0000 R CNN
F 1 "1u" V 13700 12350 50  0000 L CNN
F 2 "Capacitor_SMD:C_0402_1005Metric" H 13838 12100 50  0001 C CNN
F 3 "~" H 13800 12250 50  0001 C CNN
F 4 "0402" V 13950 12250 50  0000 C CNN "Package"
	1    13800 12250
	0    1    1    0   
$EndComp
$Comp
L power:GND #PWR0137
U 1 1 5F3DE9D2
P 13950 12250
F 0 "#PWR0137" H 13950 12000 50  0001 C CNN
F 1 "GND" V 13950 12050 50  0000 C CNN
F 2 "" H 13950 12250 50  0001 C CNN
F 3 "" H 13950 12250 50  0001 C CNN
	1    13950 12250
	0    -1   1    0   
$EndComp
Wire Wire Line
	13650 12250 13200 12250
$Comp
L Device:C C17
U 1 1 5F3F5AE7
P 13800 10750
F 0 "C17" V 13700 10650 50  0000 R CNN
F 1 "1u" V 13700 10850 50  0000 L CNN
F 2 "Capacitor_SMD:C_0402_1005Metric" H 13838 10600 50  0001 C CNN
F 3 "~" H 13800 10750 50  0001 C CNN
F 4 "0402" V 13950 10750 50  0000 C CNN "Package"
	1    13800 10750
	0    1    1    0   
$EndComp
$Comp
L power:GND #PWR0138
U 1 1 5F3F5AED
P 13950 10750
F 0 "#PWR0138" H 13950 10500 50  0001 C CNN
F 1 "GND" H 13955 10577 50  0000 C CNN
F 2 "" H 13950 10750 50  0001 C CNN
F 3 "" H 13950 10750 50  0001 C CNN
	1    13950 10750
	0    -1   1    0   
$EndComp
Wire Wire Line
	13650 10750 13200 10750
$Comp
L power:GND #PWR0139
U 1 1 5F400ED3
P 13200 11950
F 0 "#PWR0139" H 13200 11700 50  0001 C CNN
F 1 "GND" V 13200 11750 50  0000 C CNN
F 2 "" H 13200 11950 50  0001 C CNN
F 3 "" H 13200 11950 50  0001 C CNN
	1    13200 11950
	0    -1   1    0   
$EndComp
Wire Wire Line
	10400 10250 9750 10250
$Comp
L power:+3.3V #PWR0140
U 1 1 5F425826
P 9600 10250
F 0 "#PWR0140" H 9600 10100 50  0001 C CNN
F 1 "+3.3V" V 9600 10500 50  0000 C CNN
F 2 "" H 9600 10250 50  0001 C CNN
F 3 "" H 9600 10250 50  0001 C CNN
	1    9600 10250
	0    -1   -1   0   
$EndComp
$Comp
L power:GND #PWR0141
U 1 1 5F42582C
P 9750 10700
F 0 "#PWR0141" H 9750 10450 50  0001 C CNN
F 1 "GND" H 9755 10527 50  0000 C CNN
F 2 "" H 9750 10700 50  0001 C CNN
F 3 "" H 9750 10700 50  0001 C CNN
	1    9750 10700
	1    0    0    -1  
$EndComp
$Comp
L Device:C C12
U 1 1 5F425833
P 9750 10550
F 0 "C12" H 9650 10450 50  0000 R CNN
F 1 "0.1u" H 9650 10650 50  0000 R CNN
F 2 "Capacitor_SMD:C_0402_1005Metric" H 9788 10400 50  0001 C CNN
F 3 "~" H 9750 10550 50  0001 C CNN
F 4 "0402" H 9650 10550 50  0000 R CNN "Package"
	1    9750 10550
	1    0    0    1   
$EndComp
Wire Wire Line
	9750 10250 9750 10400
Connection ~ 9750 10250
Wire Wire Line
	9750 10250 9600 10250
Wire Wire Line
	13200 10550 14600 10550
$Comp
L power:+3.3V #PWR0142
U 1 1 5F432359
P 14750 10550
F 0 "#PWR0142" H 14750 10400 50  0001 C CNN
F 1 "+3.3V" H 14750 10700 50  0000 C CNN
F 2 "" H 14750 10550 50  0001 C CNN
F 3 "" H 14750 10550 50  0001 C CNN
	1    14750 10550
	0    1    -1   0   
$EndComp
$Comp
L power:GND #PWR0143
U 1 1 5F43235F
P 14600 11000
F 0 "#PWR0143" H 14600 10750 50  0001 C CNN
F 1 "GND" H 14605 10827 50  0000 C CNN
F 2 "" H 14600 11000 50  0001 C CNN
F 3 "" H 14600 11000 50  0001 C CNN
	1    14600 11000
	-1   0    0    -1  
$EndComp
$Comp
L Device:C C23
U 1 1 5F432366
P 14600 10850
F 0 "C23" H 14500 10750 50  0000 R CNN
F 1 "0.1u" H 14500 10950 50  0000 R CNN
F 2 "Capacitor_SMD:C_0402_1005Metric" H 14638 10700 50  0001 C CNN
F 3 "~" H 14600 10850 50  0001 C CNN
F 4 "0402" H 14500 10850 50  0000 R CNN "Package"
	1    14600 10850
	-1   0    0    1   
$EndComp
Wire Wire Line
	14600 10550 14600 10700
Connection ~ 14600 10550
Wire Wire Line
	14600 10550 14750 10550
Wire Wire Line
	13200 12050 14450 12050
$Comp
L power:+3.3V #PWR0144
U 1 1 5F46274E
P 14600 12050
F 0 "#PWR0144" H 14600 11900 50  0001 C CNN
F 1 "+3.3V" V 14600 12300 50  0000 C CNN
F 2 "" H 14600 12050 50  0001 C CNN
F 3 "" H 14600 12050 50  0001 C CNN
	1    14600 12050
	0    1    -1   0   
$EndComp
$Comp
L power:GND #PWR0145
U 1 1 5F462754
P 14450 12500
F 0 "#PWR0145" H 14450 12250 50  0001 C CNN
F 1 "GND" H 14455 12327 50  0000 C CNN
F 2 "" H 14450 12500 50  0001 C CNN
F 3 "" H 14450 12500 50  0001 C CNN
	1    14450 12500
	-1   0    0    -1  
$EndComp
$Comp
L Device:C C24
U 1 1 5F46275B
P 14450 12350
F 0 "C24" H 14350 12250 50  0000 R CNN
F 1 "0.1u" H 14350 12450 50  0000 R CNN
F 2 "Capacitor_SMD:C_0402_1005Metric" H 14488 12200 50  0001 C CNN
F 3 "~" H 14450 12350 50  0001 C CNN
F 4 "0402" H 14350 12350 50  0000 R CNN "Package"
	1    14450 12350
	-1   0    0    1   
$EndComp
Wire Wire Line
	14450 12050 14450 12200
Connection ~ 14450 12050
Wire Wire Line
	14450 12050 14600 12050
$Comp
L power:GND #PWR0146
U 1 1 5F4704E6
P 10250 10900
F 0 "#PWR0146" H 10250 10650 50  0001 C CNN
F 1 "GND" H 10255 10727 50  0000 C CNN
F 2 "" H 10250 10900 50  0001 C CNN
F 3 "" H 10250 10900 50  0001 C CNN
	1    10250 10900
	-1   0    0    -1  
$EndComp
$Comp
L Device:C C13
U 1 1 5F4704ED
P 10250 10750
F 0 "C13" H 10150 10650 50  0000 R CNN
F 1 "1u" H 10150 10850 50  0000 R CNN
F 2 "Capacitor_SMD:C_0402_1005Metric" H 10288 10600 50  0001 C CNN
F 3 "~" H 10250 10750 50  0001 C CNN
F 4 "0402" H 10150 10750 50  0000 R CNN "Package"
	1    10250 10750
	1    0    0    1   
$EndComp
Wire Wire Line
	10250 10450 10250 10600
Wire Wire Line
	10250 10450 10400 10450
Wire Wire Line
	10400 10150 9750 10150
$Comp
L power:+3.3V #PWR0147
U 1 1 5F4E082A
P 9600 10150
F 0 "#PWR0147" H 9600 10000 50  0001 C CNN
F 1 "+3.3V" V 9600 10400 50  0000 C CNN
F 2 "" H 9600 10150 50  0001 C CNN
F 3 "" H 9600 10150 50  0001 C CNN
	1    9600 10150
	0    -1   1    0   
$EndComp
$Comp
L power:GND #PWR0148
U 1 1 5F4E0830
P 9750 9700
F 0 "#PWR0148" H 9750 9450 50  0001 C CNN
F 1 "GND" H 9755 9527 50  0000 C CNN
F 2 "" H 9750 9700 50  0001 C CNN
F 3 "" H 9750 9700 50  0001 C CNN
	1    9750 9700
	1    0    0    1   
$EndComp
$Comp
L Device:C C11
U 1 1 5F4E0837
P 9750 9850
F 0 "C11" H 9650 9750 50  0000 R CNN
F 1 "0.1u" H 9650 9950 50  0000 R CNN
F 2 "Capacitor_SMD:C_0402_1005Metric" H 9788 9700 50  0001 C CNN
F 3 "~" H 9750 9850 50  0001 C CNN
F 4 "0402" H 9650 9850 50  0000 R CNN "Package"
	1    9750 9850
	1    0    0    1   
$EndComp
Wire Wire Line
	9750 10150 9750 10000
Connection ~ 9750 10150
Wire Wire Line
	9750 10150 9600 10150
$Comp
L power:GND #PWR0149
U 1 1 5F513015
P 10400 9850
F 0 "#PWR0149" H 10400 9600 50  0001 C CNN
F 1 "GND" V 10400 9650 50  0000 C CNN
F 2 "" H 10400 9850 50  0001 C CNN
F 3 "" H 10400 9850 50  0001 C CNN
	1    10400 9850
	0    1    -1   0   
$EndComp
$Comp
L power:GND #PWR0150
U 1 1 5F51F7C1
P 10400 9750
F 0 "#PWR0150" H 10400 9500 50  0001 C CNN
F 1 "GND" V 10400 9550 50  0000 C CNN
F 2 "" H 10400 9750 50  0001 C CNN
F 3 "" H 10400 9750 50  0001 C CNN
	1    10400 9750
	0    1    -1   0   
$EndComp
$Comp
L Connector_Generic:Conn_02x05_Odd_Even J4
U 1 1 5F538C1D
P 6300 12300
F 0 "J4" H 6350 12650 50  0000 C CNN
F 1 "Conn_02x05_Odd_Even" H 6350 11950 50  0000 C CNN
F 2 "Connector_PinHeader_2.54mm:PinHeader_2x05_P2.54mm_Vertical" H 6300 12300 50  0001 C CNN
F 3 "~" H 6300 12300 50  0001 C CNN
	1    6300 12300
	1    0    0    -1  
$EndComp
Text Label 6600 12100 0    50   ~ 0
PSOC_SWDIO_P1[0]
Text Label 6600 12200 0    50   ~ 0
PSOC_SWDCK_P1[1]
$Comp
L power:GND #PWR0151
U 1 1 5F562871
P 6100 12200
F 0 "#PWR0151" H 6100 11950 50  0001 C CNN
F 1 "GND" V 6100 12000 50  0000 C CNN
F 2 "" H 6100 12200 50  0001 C CNN
F 3 "" H 6100 12200 50  0001 C CNN
	1    6100 12200
	0    1    -1   0   
$EndComp
$Comp
L power:GND #PWR0152
U 1 1 5F56EFA3
P 6100 12300
F 0 "#PWR0152" H 6100 12050 50  0001 C CNN
F 1 "GND" V 6100 12100 50  0000 C CNN
F 2 "" H 6100 12300 50  0001 C CNN
F 3 "" H 6100 12300 50  0001 C CNN
	1    6100 12300
	0    1    -1   0   
$EndComp
$Comp
L power:GND #PWR0153
U 1 1 5F57B5A0
P 6100 12400
F 0 "#PWR0153" H 6100 12150 50  0001 C CNN
F 1 "GND" V 6100 12200 50  0000 C CNN
F 2 "" H 6100 12400 50  0001 C CNN
F 3 "" H 6100 12400 50  0001 C CNN
	1    6100 12400
	0    1    -1   0   
$EndComp
$Comp
L power:GND #PWR0154
U 1 1 5F587B71
P 6100 12500
F 0 "#PWR0154" H 6100 12250 50  0001 C CNN
F 1 "GND" V 6100 12300 50  0000 C CNN
F 2 "" H 6100 12500 50  0001 C CNN
F 3 "" H 6100 12500 50  0001 C CNN
	1    6100 12500
	0    1    -1   0   
$EndComp
Text Label 6600 12500 0    50   ~ 0
~PSOC_XRES
Text Label 10400 10050 2    50   ~ 0
~PSOC_XRES
$Comp
L power:+3.3V #PWR0155
U 1 1 5F5BADB6
P 6100 12100
F 0 "#PWR0155" H 6100 11950 50  0001 C CNN
F 1 "+3.3V" V 6100 12350 50  0000 C CNN
F 2 "" H 6100 12100 50  0001 C CNN
F 3 "" H 6100 12100 50  0001 C CNN
	1    6100 12100
	0    -1   1    0   
$EndComp
Text Label 6600 12300 0    50   ~ 0
PSOC_SWV_TDO_P1[2]
Text Label 6600 12400 0    50   ~ 0
PSOC_TDI_P1[3]
Text Label 13200 14950 0    50   ~ 0
PSOC_SWDIO_P1[0]
Text Label 13200 14850 0    50   ~ 0
PSOC_SWDCK_P1[1]
Text Label 13200 14750 0    50   ~ 0
PSOC_SWV_TDO_P1[2]
Text Label 13200 14650 0    50   ~ 0
PSOC_TDI_P1[3]
$Comp
L power:GND #PWR0156
U 1 1 5F66619C
P 2550 6150
F 0 "#PWR0156" H 2550 5900 50  0001 C CNN
F 1 "GND" H 2555 5977 50  0000 C CNN
F 2 "" H 2550 6150 50  0001 C CNN
F 3 "" H 2550 6150 50  0001 C CNN
	1    2550 6150
	0    1    -1   0   
$EndComp
$Comp
L TIC:DIP14 U2
U 1 1 5F6661A3
P 3000 5700
F 0 "U2" H 3000 6350 50  0000 C CNN
F 1 "DIP14" H 3000 5050 50  0000 C CNN
F 2 "Package_DIP:DIP-14_W7.62mm_Socket" H 3050 5900 50  0001 C CNN
F 3 "" H 3050 5900 50  0000 C CNN
	1    3000 5700
	1    0    0    -1  
$EndComp
$Comp
L Regulator_Linear:AP2204K-3.3 U4
U 1 1 5F6A4A1A
P 4650 5350
F 0 "U4" H 4650 5692 50  0000 C CNN
F 1 "AP2210K-3.3TRG1" H 4650 5601 50  0000 C CNN
F 2 "Package_TO_SOT_SMD:SOT-23-5" H 4650 5675 50  0001 C CNN
F 3 "https://www.diodes.com/assets/Datasheets/AP2204.pdf" H 4650 5450 50  0001 C CNN
	1    4650 5350
	-1   0    0    -1  
$EndComp
$Comp
L power:GND #PWR0157
U 1 1 5F6A4A20
P 4650 5650
F 0 "#PWR0157" H 4650 5400 50  0001 C CNN
F 1 "GND" H 4650 5500 50  0000 C CNN
F 2 "" H 4650 5650 50  0001 C CNN
F 3 "" H 4650 5650 50  0001 C CNN
	1    4650 5650
	-1   0    0    -1  
$EndComp
Wire Wire Line
	4350 5250 4050 5250
Connection ~ 4050 5250
Wire Wire Line
	5450 5250 5100 5250
Wire Wire Line
	4050 5250 4050 5350
Wire Wire Line
	4050 5250 3450 5250
$Comp
L power:GND #PWR0158
U 1 1 5F6A4A2B
P 4050 5650
F 0 "#PWR0158" H 4050 5400 50  0001 C CNN
F 1 "GND" H 4050 5500 50  0000 C CNN
F 2 "" H 4050 5650 50  0001 C CNN
F 3 "" H 4050 5650 50  0001 C CNN
	1    4050 5650
	-1   0    0    -1  
$EndComp
$Comp
L Device:CP C2
U 1 1 5F6A4A31
P 4050 5500
F 0 "C2" H 4168 5546 50  0000 L CNN
F 1 "2.2u" H 4168 5455 50  0000 L CNN
F 2 "Capacitor_Tantalum_SMD:CP_EIA-3216-10_Kemet-I" H 4088 5350 50  0001 C CNN
F 3 "~" H 4050 5500 50  0001 C CNN
	1    4050 5500
	-1   0    0    -1  
$EndComp
Wire Wire Line
	5100 5250 5100 5350
Wire Wire Line
	5100 5350 4950 5350
$Comp
L Device:CP C3
U 1 1 5F6A4A48
P 5450 5550
F 0 "C3" H 5568 5596 50  0000 L CNN
F 1 "2.2u" H 5568 5505 50  0000 L CNN
F 2 "Capacitor_Tantalum_SMD:CP_EIA-3216-10_Kemet-I" H 5488 5400 50  0001 C CNN
F 3 "~" H 5450 5550 50  0001 C CNN
	1    5450 5550
	-1   0    0    -1  
$EndComp
$Comp
L power:GND #PWR0159
U 1 1 5F6A4A4E
P 5450 5700
F 0 "#PWR0159" H 5450 5450 50  0001 C CNN
F 1 "GND" H 5450 5550 50  0000 C CNN
F 2 "" H 5450 5700 50  0001 C CNN
F 3 "" H 5450 5700 50  0001 C CNN
	1    5450 5700
	-1   0    0    -1  
$EndComp
Wire Wire Line
	5450 5250 5450 5400
Connection ~ 5100 5250
Wire Wire Line
	5100 5250 4950 5250
Text Label 4550 6150 0    50   ~ 0
TDC_CLK_REF
Wire Wire Line
	3450 6150 3750 6150
$Comp
L power:GND #PWR0162
U 1 1 5F81713C
P 3950 6800
F 0 "#PWR0162" H 3950 6550 50  0001 C CNN
F 1 "GND" H 3955 6627 50  0000 C CNN
F 2 "" H 3950 6800 50  0001 C CNN
F 3 "" H 3950 6800 50  0001 C CNN
	1    3950 6800
	0    -1   1    0   
$EndComp
$Comp
L Connector:Conn_Coaxial J1
U 1 1 5F817142
P 3750 6800
F 0 "J1" H 3850 6850 50  0000 L CNN
F 1 "SMA" H 3850 6750 50  0000 L CNN
F 2 "Connector_Coaxial:SMA_Amphenol_132134-16_Vertical" H 3750 6800 50  0001 C CNN
F 3 " ~" H 3750 6800 50  0001 C CNN
	1    3750 6800
	0    -1   1    0   
$EndComp
Wire Wire Line
	3750 6300 3750 6150
Connection ~ 3750 6150
Wire Wire Line
	3750 6150 4050 6150
Wire Wire Line
	11250 5600 11250 5800
Wire Wire Line
	10600 5800 10750 5800
Wire Wire Line
	10600 6000 10750 6000
Wire Wire Line
	10600 6200 10750 6200
Wire Wire Line
	11050 5800 11250 5800
Wire Wire Line
	11050 6000 11250 6000
Wire Wire Line
	11050 6200 11250 6200
Wire Wire Line
	11050 5600 11250 5600
Wire Wire Line
	10600 5600 10750 5600
$Comp
L Device:R R12
U 1 1 5F94BF0D
P 10900 5600
F 0 "R12" V 10800 5600 50  0000 C CNN
F 1 "DNI" V 10900 5600 50  0000 C CNN
F 2 "Resistor_SMD:R_0402_1005Metric" V 10830 5600 50  0001 C CNN
F 3 "~" H 10900 5600 50  0001 C CNN
F 4 "0402" V 11000 5600 50  0001 C CNN "Package"
	1    10900 5600
	0    -1   1    0   
$EndComp
$Comp
L Device:R R13
U 1 1 5F94BF14
P 10900 5800
F 0 "R13" V 10800 5800 50  0000 C CNN
F 1 "DNI" V 10900 5800 50  0000 C CNN
F 2 "Resistor_SMD:R_0402_1005Metric" V 10830 5800 50  0001 C CNN
F 3 "~" H 10900 5800 50  0001 C CNN
F 4 "0402" V 11000 5800 50  0001 C CNN "Package"
	1    10900 5800
	0    -1   1    0   
$EndComp
$Comp
L Device:R R14
U 1 1 5F94BF1B
P 10900 6000
F 0 "R14" V 10800 6000 50  0000 C CNN
F 1 "DNI" V 10900 6000 50  0000 C CNN
F 2 "Resistor_SMD:R_0402_1005Metric" V 10830 6000 50  0001 C CNN
F 3 "~" H 10900 6000 50  0001 C CNN
F 4 "0402" V 11000 6000 50  0001 C CNN "Package"
	1    10900 6000
	0    -1   1    0   
$EndComp
$Comp
L Device:R R15
U 1 1 5F94BF22
P 10900 6200
F 0 "R15" V 10800 6200 50  0000 C CNN
F 1 "DNI" V 10900 6200 50  0000 C CNN
F 2 "Resistor_SMD:R_0402_1005Metric" V 10830 6200 50  0001 C CNN
F 3 "~" H 10900 6200 50  0001 C CNN
F 4 "0402" V 11000 6200 50  0001 C CNN "Package"
	1    10900 6200
	0    -1   1    0   
$EndComp
Connection ~ 11250 5800
Wire Wire Line
	11250 5800 11250 6000
Connection ~ 11250 6000
Wire Wire Line
	11250 6000 11250 6200
Connection ~ 11250 6200
Wire Wire Line
	11250 6200 11250 6850
Wire Wire Line
	13400 5450 13400 5650
Wire Wire Line
	12750 5650 12900 5650
Wire Wire Line
	12750 5850 12900 5850
Wire Wire Line
	12750 6050 12900 6050
Wire Wire Line
	13200 5650 13400 5650
Wire Wire Line
	13200 5850 13400 5850
Wire Wire Line
	13200 6050 13400 6050
Wire Wire Line
	13200 5450 13400 5450
Wire Wire Line
	12750 5450 12900 5450
$Comp
L Device:R R16
U 1 1 5F972095
P 13050 5450
F 0 "R16" V 12950 5450 50  0000 C CNN
F 1 "DNI" V 13050 5450 50  0000 C CNN
F 2 "Resistor_SMD:R_0402_1005Metric" V 12980 5450 50  0001 C CNN
F 3 "~" H 13050 5450 50  0001 C CNN
F 4 "0402" V 13150 5450 50  0001 C CNN "Package"
	1    13050 5450
	0    -1   1    0   
$EndComp
$Comp
L Device:R R17
U 1 1 5F97209C
P 13050 5650
F 0 "R17" V 12950 5650 50  0000 C CNN
F 1 "DNI" V 13050 5650 50  0000 C CNN
F 2 "Resistor_SMD:R_0402_1005Metric" V 12980 5650 50  0001 C CNN
F 3 "~" H 13050 5650 50  0001 C CNN
F 4 "0402" V 13150 5650 50  0001 C CNN "Package"
	1    13050 5650
	0    -1   1    0   
$EndComp
$Comp
L Device:R R18
U 1 1 5F9720A3
P 13050 5850
F 0 "R18" V 12950 5850 50  0000 C CNN
F 1 "DNI" V 13050 5850 50  0000 C CNN
F 2 "Resistor_SMD:R_0402_1005Metric" V 12980 5850 50  0001 C CNN
F 3 "~" H 13050 5850 50  0001 C CNN
F 4 "0402" V 13150 5850 50  0001 C CNN "Package"
	1    13050 5850
	0    -1   1    0   
$EndComp
$Comp
L Device:R R19
U 1 1 5F9720AA
P 13050 6050
F 0 "R19" V 12950 6050 50  0000 C CNN
F 1 "0" V 13050 6050 50  0000 C CNN
F 2 "Resistor_SMD:R_0402_1005Metric" V 12980 6050 50  0001 C CNN
F 3 "~" H 13050 6050 50  0001 C CNN
F 4 "0402" V 13150 6050 50  0001 C CNN "Package"
	1    13050 6050
	0    -1   1    0   
$EndComp
Connection ~ 13400 5650
Wire Wire Line
	13400 5650 13400 5850
Connection ~ 13400 5850
Wire Wire Line
	13400 5850 13400 6050
Connection ~ 13400 6050
Wire Wire Line
	13400 6050 13400 6650
$Comp
L 74xGxx:74LVC1G3157 U12
U 1 1 5F998F7A
P 14200 6750
F 0 "U12" H 13950 6350 50  0000 C CNN
F 1 "74LVC1G3157" H 13950 6250 50  0000 C CNN
F 2 "Package_TO_SOT_SMD:SOT-363_SC-70-6" H 14200 6750 50  0001 C CNN
F 3 "http://www.ti.com/lit/sg/scyt129e/scyt129e.pdf" H 14200 6750 50  0001 C CNN
	1    14200 6750
	-1   0    0    -1  
$EndComp
$Comp
L 74xGxx:74AUC1G74 U14
U 1 1 5F9B0D67
P 16150 6650
F 0 "U14" H 16350 6400 50  0000 L CNN
F 1 "74AUC1G74DCU" H 16350 6300 50  0000 L CNN
F 2 "Package_SO:VSSOP-8_2.3x2mm_P0.5mm" H 16150 6650 50  0001 C CNN
F 3 "https://www.ti.com/lit/ds/symlink/sn74auc1g74.pdf" H 16150 6650 50  0001 C CNN
F 4 "VSSOP-8" H 16150 6650 50  0001 C CNN "Package"
	1    16150 6650
	1    0    0    -1  
$EndComp
$Comp
L Regulator_Linear:AP2204K-3.3 U5
U 1 1 5FAB7B4C
P 6550 10650
F 0 "U5" H 6550 10992 50  0000 C CNN
F 1 "AP2210K-3.3TRG1" H 6550 10901 50  0000 C CNN
F 2 "Package_TO_SOT_SMD:SOT-23-5" H 6550 10975 50  0001 C CNN
F 3 "https://www.diodes.com/assets/Datasheets/AP2204.pdf" H 6550 10750 50  0001 C CNN
	1    6550 10650
	1    0    0    -1  
$EndComp
$Comp
L power:GND #PWR0163
U 1 1 5FAB7B52
P 6550 10950
F 0 "#PWR0163" H 6550 10700 50  0001 C CNN
F 1 "GND" H 6550 10800 50  0000 C CNN
F 2 "" H 6550 10950 50  0001 C CNN
F 3 "" H 6550 10950 50  0001 C CNN
	1    6550 10950
	1    0    0    -1  
$EndComp
Wire Wire Line
	6850 10550 7150 10550
Connection ~ 7150 10550
Wire Wire Line
	5800 10550 6100 10550
Wire Wire Line
	7150 10550 7150 10650
Wire Wire Line
	7150 10550 7150 10450
$Comp
L power:GND #PWR0164
U 1 1 5FAB7B5D
P 7150 10950
F 0 "#PWR0164" H 7150 10700 50  0001 C CNN
F 1 "GND" H 7150 10800 50  0000 C CNN
F 2 "" H 7150 10950 50  0001 C CNN
F 3 "" H 7150 10950 50  0001 C CNN
	1    7150 10950
	1    0    0    -1  
$EndComp
$Comp
L Device:CP C8
U 1 1 5FAB7B63
P 7150 10800
F 0 "C8" H 7268 10846 50  0000 L CNN
F 1 "2.2u" H 7268 10755 50  0000 L CNN
F 2 "Capacitor_Tantalum_SMD:CP_EIA-3216-10_Kemet-I" H 7188 10650 50  0001 C CNN
F 3 "~" H 7150 10800 50  0001 C CNN
	1    7150 10800
	1    0    0    -1  
$EndComp
Wire Wire Line
	6100 10650 6250 10650
Wire Wire Line
	6100 10550 6100 10650
Connection ~ 6100 10550
Wire Wire Line
	6100 10550 6250 10550
$Comp
L power:+3.3V #PWR0165
U 1 1 5FB1118E
P 7150 10450
F 0 "#PWR0165" H 7150 10300 50  0001 C CNN
F 1 "+3.3V" H 7150 10600 50  0000 C CNN
F 2 "" H 7150 10450 50  0001 C CNN
F 3 "" H 7150 10450 50  0001 C CNN
	1    7150 10450
	1    0    0    -1  
$EndComp
Wire Wire Line
	6350 2300 6350 2200
$Comp
L power:GND #PWR0166
U 1 1 5FB91668
P 6350 1900
F 0 "#PWR0166" H 6350 1650 50  0001 C CNN
F 1 "GND" H 6350 1750 50  0000 C CNN
F 2 "" H 6350 1900 50  0001 C CNN
F 3 "" H 6350 1900 50  0001 C CNN
	1    6350 1900
	-1   0    0    1   
$EndComp
$Comp
L Device:CP C5
U 1 1 5FB9166E
P 6350 2050
F 0 "C5" H 6468 2096 50  0000 L CNN
F 1 "2.2u" H 6468 2005 50  0000 L CNN
F 2 "Capacitor_Tantalum_SMD:CP_EIA-3216-10_Kemet-I" H 6388 1900 50  0001 C CNN
F 3 "~" H 6350 2050 50  0001 C CNN
	1    6350 2050
	-1   0    0    1   
$EndComp
$Comp
L Device:CP C9
U 1 1 5FB91676
P 7450 2600
F 0 "C9" H 7568 2646 50  0000 L CNN
F 1 "2.2u" H 7568 2555 50  0000 L CNN
F 2 "Capacitor_Tantalum_SMD:CP_EIA-3216-10_Kemet-I" H 7488 2450 50  0001 C CNN
F 3 "~" H 7450 2600 50  0001 C CNN
	1    7450 2600
	1    0    0    -1  
$EndComp
$Comp
L power:GND #PWR0167
U 1 1 5FB9167C
P 7450 2750
F 0 "#PWR0167" H 7450 2500 50  0001 C CNN
F 1 "GND" H 7450 2600 50  0000 C CNN
F 2 "" H 7450 2750 50  0001 C CNN
F 3 "" H 7450 2750 50  0001 C CNN
	1    7450 2750
	-1   0    0    -1  
$EndComp
Wire Wire Line
	7450 2300 7450 2450
Wire Wire Line
	7250 2400 7100 2400
Wire Wire Line
	7250 2300 7100 2300
Wire Wire Line
	7450 2300 7250 2300
Connection ~ 7250 2300
Wire Wire Line
	7250 2300 7250 2400
$Comp
L power:GND #PWR0169
U 1 1 5FB9165D
P 6800 2700
F 0 "#PWR0169" H 6800 2450 50  0001 C CNN
F 1 "GND" H 6800 2550 50  0000 C CNN
F 2 "" H 6800 2700 50  0001 C CNN
F 3 "" H 6800 2700 50  0001 C CNN
	1    6800 2700
	-1   0    0    -1  
$EndComp
$Comp
L Regulator_Linear:MIC5219YMM U6
U 1 1 5FBECA0A
P 6800 2400
F 0 "U6" H 6800 2742 50  0000 C CNN
F 1 "ADP1716" H 6800 2651 50  0000 C CNN
F 2 "Package_SO:MSOP-8_3x3mm_P0.65mm" H 6800 2725 50  0001 C CNN
F 3 "http://ww1.microchip.com/downloads/en/DeviceDoc/MIC5219-500mA-Peak-Output-LDO-Regulator-DS20006021A.pdf" H 6800 2400 50  0001 C CNN
	1    6800 2400
	-1   0    0    -1  
$EndComp
Wire Wire Line
	4900 2300 5200 2300
Connection ~ 6350 2300
Wire Wire Line
	6350 2300 6500 2300
Wire Wire Line
	6350 2500 6350 2600
$Comp
L Device:C C6
U 1 1 5E93B71C
P 6350 2750
F 0 "C6" H 6250 2650 50  0000 R CNN
F 1 "0.1u" H 6250 2850 50  0000 R CNN
F 2 "Capacitor_SMD:C_0402_1005Metric" H 6388 2600 50  0001 C CNN
F 3 "~" H 6350 2750 50  0001 C CNN
F 4 "0402" H 6250 2750 50  0000 R CNN "Package"
	1    6350 2750
	1    0    0    1   
$EndComp
$Comp
L power:GND #PWR0170
U 1 1 5E92E2F2
P 6350 2900
F 0 "#PWR0170" H 6350 2650 50  0001 C CNN
F 1 "GND" H 6350 2750 50  0000 C CNN
F 2 "" H 6350 2900 50  0001 C CNN
F 3 "" H 6350 2900 50  0001 C CNN
	1    6350 2900
	1    0    0    -1  
$EndComp
Wire Wire Line
	6150 2500 6350 2500
Connection ~ 6350 2500
Wire Wire Line
	6350 2500 6500 2500
Text Label 5500 3200 0    50   ~ 0
CLK_IN
Text Label 6700 5150 2    50   ~ 0
CLK_IN
Wire Wire Line
	6700 5150 6850 5150
$Comp
L Device:CP C4
U 1 1 5FD3B629
P 5800 10850
F 0 "C4" H 5918 10896 50  0000 L CNN
F 1 "2.2u" H 5918 10805 50  0000 L CNN
F 2 "Capacitor_Tantalum_SMD:CP_EIA-3216-10_Kemet-I" H 5838 10700 50  0001 C CNN
F 3 "~" H 5800 10850 50  0001 C CNN
	1    5800 10850
	1    0    0    -1  
$EndComp
$Comp
L power:GND #PWR0171
U 1 1 5FD3B62F
P 5800 11000
F 0 "#PWR0171" H 5800 10750 50  0001 C CNN
F 1 "GND" H 5800 10850 50  0000 C CNN
F 2 "" H 5800 11000 50  0001 C CNN
F 3 "" H 5800 11000 50  0001 C CNN
	1    5800 11000
	1    0    0    -1  
$EndComp
Wire Wire Line
	5800 10550 5800 10700
Text Label 14600 2550 3    50   ~ 0
VDDA_REG_EN
$Comp
L Device:R R21
U 1 1 5EC9083E
P 14350 2400
F 0 "R21" V 14450 2400 50  0000 C CNN
F 1 "10k" V 14350 2400 50  0000 C CNN
F 2 "Resistor_SMD:R_0402_1005Metric" V 14280 2400 50  0001 C CNN
F 3 "~" H 14350 2400 50  0001 C CNN
F 4 "0402" V 14250 2400 50  0000 C CNN "Package"
	1    14350 2400
	0    1    1    0   
$EndComp
$Comp
L Device:CP C25
U 1 1 5E1091E8
P 15550 2550
F 0 "C25" H 15668 2596 50  0000 L CNN
F 1 "2.2u" H 15668 2505 50  0000 L CNN
F 2 "Capacitor_Tantalum_SMD:CP_EIA-3216-10_Kemet-I" H 15588 2400 50  0001 C CNN
F 3 "~" H 15550 2550 50  0001 C CNN
	1    15550 2550
	1    0    0    -1  
$EndComp
$Comp
L power:GND #PWR0174
U 1 1 5E1091EE
P 15550 2700
F 0 "#PWR0174" H 15550 2450 50  0001 C CNN
F 1 "GND" H 15550 2550 50  0000 C CNN
F 2 "" H 15550 2700 50  0001 C CNN
F 3 "" H 15550 2700 50  0001 C CNN
	1    15550 2700
	1    0    0    -1  
$EndComp
Wire Wire Line
	15550 2300 15550 2400
Connection ~ 15550 2300
$Comp
L power:GND #PWR0175
U 1 1 5E7BAEA6
P 15000 2700
F 0 "#PWR0175" H 15000 2450 50  0001 C CNN
F 1 "GND" H 15000 2550 50  0000 C CNN
F 2 "" H 15000 2700 50  0001 C CNN
F 3 "" H 15000 2700 50  0001 C CNN
	1    15000 2700
	1    0    0    -1  
$EndComp
$Comp
L Regulator_Linear:AP2204K-3.3 U13
U 1 1 5E7B9D11
P 15000 2400
F 0 "U13" H 15000 2742 50  0000 C CNN
F 1 "AP2210K-3.3TRG1" H 15000 2651 50  0000 C CNN
F 2 "Package_TO_SOT_SMD:SOT-23-5" H 15000 2725 50  0001 C CNN
F 3 "https://www.diodes.com/assets/Datasheets/AP2204.pdf" H 15000 2500 50  0001 C CNN
	1    15000 2400
	1    0    0    -1  
$EndComp
$Comp
L Device:CP C21
U 1 1 5FE00B7D
P 12100 2600
F 0 "C21" H 12218 2646 50  0000 L CNN
F 1 "2.2u" H 12218 2555 50  0000 L CNN
F 2 "Capacitor_Tantalum_SMD:CP_EIA-3216-10_Kemet-I" H 12138 2450 50  0001 C CNN
F 3 "~" H 12100 2600 50  0001 C CNN
	1    12100 2600
	-1   0    0    -1  
$EndComp
$Comp
L power:GND #PWR0176
U 1 1 5FE00B83
P 12100 2750
F 0 "#PWR0176" H 12100 2500 50  0001 C CNN
F 1 "GND" H 12100 2600 50  0000 C CNN
F 2 "" H 12100 2750 50  0001 C CNN
F 3 "" H 12100 2750 50  0001 C CNN
	1    12100 2750
	1    0    0    -1  
$EndComp
$Comp
L power:+3.3VA #PWR0177
U 1 1 5FE4D198
P 7050 4800
F 0 "#PWR0177" H 7050 4650 50  0001 C CNN
F 1 "+3.3VA" H 7065 4973 50  0000 C CNN
F 2 "" H 7050 4800 50  0001 C CNN
F 3 "" H 7050 4800 50  0001 C CNN
	1    7050 4800
	1    0    0    -1  
$EndComp
$Comp
L power:+3.3VA #PWR0178
U 1 1 5FE6489D
P 10250 4550
F 0 "#PWR0178" H 10250 4400 50  0001 C CNN
F 1 "+3.3VA" H 10265 4723 50  0000 C CNN
F 2 "" H 10250 4550 50  0001 C CNN
F 3 "" H 10250 4550 50  0001 C CNN
	1    10250 4550
	1    0    0    -1  
$EndComp
$Comp
L power:+3.3VA #PWR0179
U 1 1 5FE7CFE8
P 12400 4400
F 0 "#PWR0179" H 12400 4250 50  0001 C CNN
F 1 "+3.3VA" H 12415 4573 50  0000 C CNN
F 2 "" H 12400 4400 50  0001 C CNN
F 3 "" H 12400 4400 50  0001 C CNN
	1    12400 4400
	1    0    0    -1  
$EndComp
$Comp
L power:+3.3VA #PWR0180
U 1 1 5FE9FD38
P 14200 6300
F 0 "#PWR0180" H 14200 6150 50  0001 C CNN
F 1 "+3.3VA" H 14215 6473 50  0000 C CNN
F 2 "" H 14200 6300 50  0001 C CNN
F 3 "" H 14200 6300 50  0001 C CNN
	1    14200 6300
	1    0    0    -1  
$EndComp
$Comp
L power:+3.3VA #PWR0182
U 1 1 5FEDA061
P 19050 6100
F 0 "#PWR0182" H 19050 5950 50  0001 C CNN
F 1 "+3.3VA" V 19050 6350 50  0000 C CNN
F 2 "" H 19050 6100 50  0001 C CNN
F 3 "" H 19050 6100 50  0001 C CNN
	1    19050 6100
	0    1    1    0   
$EndComp
Wire Wire Line
	2950 1900 2950 1750
Wire Wire Line
	2550 1750 2950 1750
Wire Wire Line
	2550 1750 2400 1750
Connection ~ 2550 1750
Wire Wire Line
	2550 2150 2550 1750
Wire Wire Line
	2400 2150 2550 2150
$Comp
L Device:C C1
U 1 1 5E8C2A19
P 2250 1750
F 0 "C1" V 2150 1650 50  0000 R CNN
F 1 "0.1u" V 2150 1850 50  0000 L CNN
F 2 "Capacitor_SMD:C_0402_1005Metric" H 2288 1600 50  0001 C CNN
F 3 "~" H 2250 1750 50  0001 C CNN
F 4 "0402" V 2400 1750 50  0000 C CNN "Package"
	1    2250 1750
	0    1    1    0   
$EndComp
$Comp
L power:GND #PWR0184
U 1 1 5E9A6F97
P 1600 2450
F 0 "#PWR0184" H 1600 2200 50  0001 C CNN
F 1 "GND" H 1605 2277 50  0000 C CNN
F 2 "" H 1600 2450 50  0001 C CNN
F 3 "" H 1600 2450 50  0001 C CNN
	1    1600 2450
	0    1    1    0   
$EndComp
Text Label 1600 2150 2    50   ~ 0
TRI_STATE_OE
Wire Wire Line
	4000 2300 2950 2300
$Comp
L Device:R R1
U 1 1 5E9E0327
P 2950 2050
F 0 "R1" V 2850 2050 50  0000 C CNN
F 1 "1k" V 2950 2050 50  0000 C CNN
F 2 "Resistor_SMD:R_0402_1005Metric" V 2880 2050 50  0001 C CNN
F 3 "~" H 2950 2050 50  0001 C CNN
F 4 "0402" V 3050 2050 50  0000 C CNN "Package"
	1    2950 2050
	1    0    0    -1  
$EndComp
$Comp
L Device:R R2
U 1 1 5E9E032E
P 2950 2550
F 0 "R2" V 2850 2550 50  0000 C CNN
F 1 "1k" V 2950 2550 50  0000 C CNN
F 2 "Resistor_SMD:R_0402_1005Metric" V 2880 2550 50  0001 C CNN
F 3 "~" H 2950 2550 50  0001 C CNN
F 4 "0402" V 3050 2550 50  0000 C CNN "Package"
	1    2950 2550
	1    0    0    -1  
$EndComp
$Comp
L power:GND #PWR0186
U 1 1 5E9E0335
P 2950 2700
F 0 "#PWR0186" H 2950 2450 50  0001 C CNN
F 1 "GND" H 2950 2550 50  0000 C CNN
F 2 "" H 2950 2700 50  0001 C CNN
F 3 "" H 2950 2700 50  0001 C CNN
	1    2950 2700
	1    0    0    -1  
$EndComp
Wire Wire Line
	2950 2200 2950 2300
Connection ~ 2950 2300
Wire Wire Line
	2950 2300 2400 2300
Wire Wire Line
	2950 2300 2950 2400
$Comp
L power:GND #PWR0187
U 1 1 5EA1B1E6
P 2100 1750
F 0 "#PWR0187" H 2100 1500 50  0001 C CNN
F 1 "GND" H 2100 1600 50  0000 C CNN
F 2 "" H 2100 1750 50  0001 C CNN
F 3 "" H 2100 1750 50  0001 C CNN
	1    2100 1750
	0    1    -1   0   
$EndComp
Text Label 1600 2300 2    50   ~ 0
TRI_STATE_DATA
$Comp
L TIC:74LVC1G125GV U1
U 1 1 5E9A06CA
P 2000 2300
F 0 "U1" H 2000 2650 60  0000 C CNN
F 1 "74LVC1G126GV" H 2000 1950 50  0000 C CNN
F 2 "Package_TO_SOT_SMD:SOT-353_SC-70-5" H 2000 2150 60  0001 C CNN
F 3 "https://assets.nexperia.com/documents/data-sheet/74LVC1G126.pdf" H 2000 2150 60  0001 C CNN
F 4 "SC-70-5" H 2000 1850 50  0000 C CNN "Package"
	1    2000 2300
	1    0    0    -1  
$EndComp
Wire Wire Line
	2950 1750 5200 1750
Wire Wire Line
	5200 1750 5200 2300
Connection ~ 2950 1750
Connection ~ 5200 2300
Wire Wire Line
	5200 2300 6350 2300
$Comp
L power:+3.3VA #PWR0173
U 1 1 5FB29F18
P 15550 2200
F 0 "#PWR0173" H 15550 2050 50  0001 C CNN
F 1 "+3.3VA" H 15565 2373 50  0000 C CNN
F 2 "" H 15550 2200 50  0001 C CNN
F 3 "" H 15550 2200 50  0001 C CNN
	1    15550 2200
	1    0    0    -1  
$EndComp
$Comp
L power:+3.3VA #PWR0181
U 1 1 5FEB7122
P 16000 6100
F 0 "#PWR0181" H 16000 5950 50  0001 C CNN
F 1 "+3.3VA" H 16015 6273 50  0000 C CNN
F 2 "" H 16000 6100 50  0001 C CNN
F 3 "" H 16000 6100 50  0001 C CNN
	1    16000 6100
	1    0    0    -1  
$EndComp
Wire Wire Line
	16000 6200 16000 6100
$Comp
L power:+3.3VA #PWR0183
U 1 1 5FF0B2E7
P 7200 6550
F 0 "#PWR0183" H 7200 6400 50  0001 C CNN
F 1 "+3.3VA" H 7215 6723 50  0000 C CNN
F 2 "" H 7200 6550 50  0001 C CNN
F 3 "" H 7200 6550 50  0001 C CNN
	1    7200 6550
	1    0    0    -1  
$EndComp
$Comp
L power:PWR_FLAG #FLG0101
U 1 1 601C46E8
P 15550 2300
F 0 "#FLG0101" H 15550 2375 50  0001 C CNN
F 1 "PWR_FLAG" V 15550 2428 50  0000 L CNN
F 2 "" H 15550 2300 50  0001 C CNN
F 3 "~" H 15550 2300 50  0001 C CNN
	1    15550 2300
	0    1    1    0   
$EndComp
$Comp
L power:PWR_FLAG #FLG0102
U 1 1 6025DE56
P 7150 10550
F 0 "#FLG0102" H 7150 10625 50  0001 C CNN
F 1 "PWR_FLAG" V 7150 10678 50  0000 L CNN
F 2 "" H 7150 10550 50  0001 C CNN
F 3 "~" H 7150 10550 50  0001 C CNN
	1    7150 10550
	0    1    1    0   
$EndComp
Wire Wire Line
	12100 2300 12100 2450
Wire Wire Line
	11800 2300 12100 2300
Connection ~ 12100 2300
Wire Wire Line
	11750 1850 12100 1850
Wire Wire Line
	12100 1850 12100 2300
Wire Wire Line
	12100 2300 12400 2300
Wire Wire Line
	15550 2300 15550 2200
Wire Wire Line
	15550 2300 15300 2300
$Comp
L Device:CP C29
U 1 1 6045406E
P 13900 2600
F 0 "C29" H 14018 2646 50  0000 L CNN
F 1 "2.2u" H 14018 2555 50  0000 L CNN
F 2 "Capacitor_Tantalum_SMD:CP_EIA-3216-10_Kemet-I" H 13938 2450 50  0001 C CNN
F 3 "~" H 13900 2600 50  0001 C CNN
	1    13900 2600
	-1   0    0    -1  
$EndComp
$Comp
L power:GND #PWR0160
U 1 1 60454074
P 13900 2750
F 0 "#PWR0160" H 13900 2500 50  0001 C CNN
F 1 "GND" H 13900 2600 50  0000 C CNN
F 2 "" H 13900 2750 50  0001 C CNN
F 3 "" H 13900 2750 50  0001 C CNN
	1    13900 2750
	-1   0    0    -1  
$EndComp
Wire Wire Line
	13900 2300 13900 2450
Wire Wire Line
	13900 2300 14100 2300
$Comp
L Mechanical:MountingHole H1
U 1 1 605BF721
P 17900 1750
F 0 "H1" H 18000 1841 50  0000 L CNN
F 1 "MountingHole" H 18000 1750 50  0000 L CNN
F 2 "MountingHole:MountingHole_4.3mm_M4_Pad" H 17900 1750 50  0001 C CNN
F 3 "~" H 17900 1750 50  0001 C CNN
F 4 "M4" H 18000 1659 50  0000 L CNN "Size"
	1    17900 1750
	1    0    0    -1  
$EndComp
$Comp
L Mechanical:MountingHole H2
U 1 1 605BFED1
P 17900 2100
F 0 "H2" H 18000 2191 50  0000 L CNN
F 1 "MountingHole" H 18000 2100 50  0000 L CNN
F 2 "MountingHole:MountingHole_4.3mm_M4_Pad" H 17900 2100 50  0001 C CNN
F 3 "~" H 17900 2100 50  0001 C CNN
F 4 "M4" H 18000 2009 50  0000 L CNN "Size"
	1    17900 2100
	1    0    0    -1  
$EndComp
$Comp
L Mechanical:MountingHole H3
U 1 1 605CCD7E
P 17900 2450
F 0 "H3" H 18000 2541 50  0000 L CNN
F 1 "MountingHole" H 18000 2450 50  0000 L CNN
F 2 "MountingHole:MountingHole_4.3mm_M4_Pad" H 17900 2450 50  0001 C CNN
F 3 "~" H 17900 2450 50  0001 C CNN
F 4 "M4" H 18000 2359 50  0000 L CNN "Size"
	1    17900 2450
	1    0    0    -1  
$EndComp
$Comp
L Mechanical:MountingHole H4
U 1 1 605D9D0F
P 17900 2800
F 0 "H4" H 18000 2891 50  0000 L CNN
F 1 "MountingHole" H 18000 2800 50  0000 L CNN
F 2 "MountingHole:MountingHole_4.3mm_M4_Pad" H 17900 2800 50  0001 C CNN
F 3 "~" H 17900 2800 50  0001 C CNN
F 4 "M4" H 18000 2709 50  0000 L CNN "Size"
	1    17900 2800
	1    0    0    -1  
$EndComp
Wire Wire Line
	14600 2550 14600 2400
Wire Wire Line
	14600 2400 14700 2400
Wire Wire Line
	14600 2400 14500 2400
Connection ~ 14600 2400
Wire Wire Line
	14200 2400 14100 2400
Wire Wire Line
	14100 2400 14100 2300
Connection ~ 14100 2300
Wire Wire Line
	14100 2300 14700 2300
$Comp
L Device:CP C30
U 1 1 60709318
P 11200 2600
F 0 "C30" H 11318 2646 50  0000 L CNN
F 1 "2.2u" H 11318 2555 50  0000 L CNN
F 2 "Capacitor_Tantalum_SMD:CP_EIA-3216-10_Kemet-I" H 11238 2450 50  0001 C CNN
F 3 "~" H 11200 2600 50  0001 C CNN
	1    11200 2600
	-1   0    0    -1  
$EndComp
$Comp
L power:GND #PWR0161
U 1 1 6070931E
P 11200 2750
F 0 "#PWR0161" H 11200 2500 50  0001 C CNN
F 1 "GND" H 11200 2600 50  0000 C CNN
F 2 "" H 11200 2750 50  0001 C CNN
F 3 "" H 11200 2750 50  0001 C CNN
	1    11200 2750
	1    0    0    -1  
$EndComp
Wire Wire Line
	11200 2300 11200 2450
Text Label 12400 2300 0    50   ~ 0
VCC_INPUT
Text Label 7600 2300 0    50   ~ 0
VCC_INPUT
Wire Wire Line
	7450 2300 7600 2300
Connection ~ 7450 2300
Text Label 5600 5250 0    50   ~ 0
VCC_INPUT
Wire Wire Line
	5450 5250 5600 5250
Connection ~ 5450 5250
Text Label 5650 10550 2    50   ~ 0
VCC_INPUT
Wire Wire Line
	5800 10550 5650 10550
$Comp
L Device:R R29
U 1 1 607E0E77
P 3750 6450
F 0 "R29" V 3650 6450 50  0000 C CNN
F 1 "DNI" V 3750 6450 50  0000 C CNN
F 2 "Resistor_SMD:R_0402_1005Metric" V 3680 6450 50  0001 C CNN
F 3 "~" H 3750 6450 50  0001 C CNN
F 4 "0402" V 3850 6450 50  0000 C CNN "Package"
	1    3750 6450
	1    0    0    1   
$EndComp
Text Label 13200 15150 0    50   ~ 0
I2C_SCL
Text Label 13200 15050 0    50   ~ 0
I2C_SDA
Text Label 13200 10350 0    50   ~ 0
TDC_EN
Text Label 13200 10250 0    50   ~ 0
PSOC_TDC_INTERRUPT
Text Label 13200 9950 0    50   ~ 0
MCU_STOP_PULSE
Text Label 13200 10050 0    50   ~ 0
MCU_START_PULSE
Text Label 13200 13450 0    50   ~ 0
~RC_OE_EN
Text Label 13200 12650 0    50   ~ 0
SPI_CLK
Text Label 13200 12550 0    50   ~ 0
SPI_MOSI
Text Label 13200 12750 0    50   ~ 0
SPI_MISO
Text Label 13200 12850 0    50   ~ 0
~SPI_CS
Text Label 20150 6550 2    50   ~ 0
~SPI_CS
$Comp
L Device:R R30
U 1 1 609317EA
P 20450 6550
F 0 "R30" V 20350 6550 50  0000 C CNN
F 1 "10k" V 20450 6550 50  0000 C CNN
F 2 "Resistor_SMD:R_0402_1005Metric" V 20380 6550 50  0001 C CNN
F 3 "~" H 20450 6550 50  0001 C CNN
F 4 "0402" V 20550 6550 50  0000 C CNN "Package"
	1    20450 6550
	0    1    1    0   
$EndComp
$Comp
L power:+3.3VA #PWR0168
U 1 1 6095B76D
P 20600 6550
F 0 "#PWR0168" H 20600 6400 50  0001 C CNN
F 1 "+3.3VA" H 20600 6700 50  0000 C CNN
F 2 "" H 20600 6550 50  0001 C CNN
F 3 "" H 20600 6550 50  0001 C CNN
	1    20600 6550
	0    1    -1   0   
$EndComp
Wire Wire Line
	20300 6550 20150 6550
Text Label 13200 11050 0    50   ~ 0
PSOC_TDC_TRIGGER
Text Label 13200 14050 0    50   ~ 0
MCU_CLK_INPUT
Text Label 13200 13250 0    50   ~ 0
RC_CLK_IN_SEL
Text Label 13200 13350 0    50   ~ 0
VDDA_REG_EN
$Comp
L Device:R R31
U 1 1 60AF20D4
P 8650 5250
F 0 "R31" V 8550 5250 50  0000 C CNN
F 1 "0" V 8650 5250 50  0000 C CNN
F 2 "Resistor_SMD:R_0402_1005Metric" V 8580 5250 50  0001 C CNN
F 3 "~" H 8650 5250 50  0001 C CNN
F 4 "0402" V 8750 5250 50  0000 C CNN "Package"
	1    8650 5250
	0    -1   1    0   
$EndComp
Wire Wire Line
	7250 5250 8150 5250
Wire Wire Line
	8800 5250 9100 5250
Connection ~ 9100 5250
Wire Wire Line
	9100 5250 9500 5250
Wire Wire Line
	8500 5250 8150 5250
Wire Wire Line
	9100 5000 8950 5000
Connection ~ 9100 5000
Text Label 13750 2300 2    50   ~ 0
VCC_INPUT
Wire Wire Line
	13750 2300 13900 2300
Connection ~ 13900 2300
$Comp
L power:GND #PWR0172
U 1 1 5E892782
P 13200 9550
F 0 "#PWR0172" H 13200 9300 50  0001 C CNN
F 1 "GND" H 13205 9377 50  0000 C CNN
F 2 "" H 13200 9550 50  0001 C CNN
F 3 "" H 13200 9550 50  0001 C CNN
	1    13200 9550
	0    -1   1    0   
$EndComp
Text Label 13200 11450 0    50   ~ 0
~RC_EN
Text Label 13200 11350 0    50   ~ 0
RC_CLK_OUT_SEL
Text Label 13200 10950 0    50   ~ 0
~RC_MRC
Text Label 13200 14250 0    50   ~ 0
TRI_STATE_OE
Text Label 13200 14350 0    50   ~ 0
TRI_STATE_DATA
Text Label 4000 2900 2    50   ~ 0
GND_SENSE
Text Label 3000 7900 2    50   ~ 0
PIN2_VOUT
Text Label 3000 9300 2    50   ~ 0
GND_SENSE
$Comp
L Amplifier_Operational:OPA356xxDBV U16
U 1 1 5E87DC6A
P 3450 8000
F 0 "U16" H 3600 7800 50  0000 L CNN
F 1 "OPA356xxDBV" H 3600 7700 50  0000 L CNN
F 2 "Package_TO_SOT_SMD:SOT-23-5" H 3350 7800 50  0001 L CNN
F 3 "http://www.ti.com/lit/ds/symlink/opa356.pdf" H 3450 8200 50  0001 C CNN
	1    3450 8000
	1    0    0    -1  
$EndComp
Wire Wire Line
	3150 7900 3000 7900
Text Label 4600 1750 2    50   ~ 0
DUT_VDD
$Comp
L Device:C C31
U 1 1 5E8E7732
P 3650 7550
F 0 "C31" V 3550 7450 50  0000 R CNN
F 1 "0.1u" V 3550 7650 50  0000 L CNN
F 2 "Capacitor_SMD:C_0402_1005Metric" H 3688 7400 50  0001 C CNN
F 3 "~" H 3650 7550 50  0001 C CNN
F 4 "0402" V 3800 7550 50  0000 C CNN "Package"
	1    3650 7550
	0    1    1    0   
$EndComp
$Comp
L power:GND #PWR0185
U 1 1 5E90635B
P 3800 7550
F 0 "#PWR0185" H 3800 7300 50  0001 C CNN
F 1 "GND" H 3805 7377 50  0000 C CNN
F 2 "" H 3800 7550 50  0001 C CNN
F 3 "" H 3800 7550 50  0001 C CNN
	1    3800 7550
	0    -1   1    0   
$EndComp
Wire Wire Line
	3500 7550 3350 7550
Wire Wire Line
	3350 7550 3350 7700
Wire Wire Line
	3350 7550 3200 7550
Connection ~ 3350 7550
$Comp
L power:GND #PWR0188
U 1 1 5E936425
P 3350 8300
F 0 "#PWR0188" H 3350 8050 50  0001 C CNN
F 1 "GND" H 3355 8127 50  0000 C CNN
F 2 "" H 3350 8300 50  0001 C CNN
F 3 "" H 3350 8300 50  0001 C CNN
	1    3350 8300
	-1   0    0    -1  
$EndComp
Wire Wire Line
	3150 8100 3000 8100
Wire Wire Line
	3000 8100 3000 8600
Wire Wire Line
	3000 8600 4300 8600
Wire Wire Line
	4300 8600 4300 8000
Wire Wire Line
	4300 8000 3750 8000
$Comp
L Device:R R32
U 1 1 5E9571BA
P 4600 8000
F 0 "R32" V 4500 8000 50  0000 C CNN
F 1 "0" V 4600 8000 50  0000 C CNN
F 2 "Resistor_SMD:R_0402_1005Metric" V 4530 8000 50  0001 C CNN
F 3 "~" H 4600 8000 50  0001 C CNN
F 4 "0402" V 4700 8000 50  0000 C CNN "Package"
	1    4600 8000
	0    1    1    0   
$EndComp
Wire Wire Line
	4300 8000 4450 8000
Connection ~ 4300 8000
Wire Wire Line
	4750 8000 4900 8000
Text Label 4900 8000 0    50   ~ 0
ADC_1_IN
Text Label 3200 7550 2    50   ~ 0
DUT_VDD
$Comp
L Amplifier_Operational:OPA356xxDBV U17
U 1 1 5E9CEC93
P 3450 9400
F 0 "U17" H 3600 9200 50  0000 L CNN
F 1 "OPA356xxDBV" H 3600 9100 50  0000 L CNN
F 2 "Package_TO_SOT_SMD:SOT-23-5" H 3350 9200 50  0001 L CNN
F 3 "http://www.ti.com/lit/ds/symlink/opa356.pdf" H 3450 9600 50  0001 C CNN
	1    3450 9400
	1    0    0    -1  
$EndComp
Wire Wire Line
	3150 9300 3000 9300
$Comp
L Device:C C32
U 1 1 5E9CEC9B
P 3650 8950
F 0 "C32" V 3550 8850 50  0000 R CNN
F 1 "0.1u" V 3550 9050 50  0000 L CNN
F 2 "Capacitor_SMD:C_0402_1005Metric" H 3688 8800 50  0001 C CNN
F 3 "~" H 3650 8950 50  0001 C CNN
F 4 "0402" V 3800 8950 50  0000 C CNN "Package"
	1    3650 8950
	0    1    1    0   
$EndComp
$Comp
L power:GND #PWR0189
U 1 1 5E9CECA1
P 3800 8950
F 0 "#PWR0189" H 3800 8700 50  0001 C CNN
F 1 "GND" H 3805 8777 50  0000 C CNN
F 2 "" H 3800 8950 50  0001 C CNN
F 3 "" H 3800 8950 50  0001 C CNN
	1    3800 8950
	0    -1   1    0   
$EndComp
Wire Wire Line
	3500 8950 3350 8950
Wire Wire Line
	3350 8950 3350 9100
Wire Wire Line
	3350 8950 3200 8950
Connection ~ 3350 8950
$Comp
L power:GND #PWR0190
U 1 1 5E9CECAB
P 3350 9700
F 0 "#PWR0190" H 3350 9450 50  0001 C CNN
F 1 "GND" H 3355 9527 50  0000 C CNN
F 2 "" H 3350 9700 50  0001 C CNN
F 3 "" H 3350 9700 50  0001 C CNN
	1    3350 9700
	-1   0    0    -1  
$EndComp
Wire Wire Line
	3150 9500 3000 9500
Wire Wire Line
	3000 9500 3000 10000
Wire Wire Line
	3000 10000 4300 10000
Wire Wire Line
	4300 10000 4300 9400
Wire Wire Line
	4300 9400 3750 9400
$Comp
L Device:R R33
U 1 1 5E9CECB7
P 4600 9400
F 0 "R33" V 4500 9400 50  0000 C CNN
F 1 "0" V 4600 9400 50  0000 C CNN
F 2 "Resistor_SMD:R_0402_1005Metric" V 4530 9400 50  0001 C CNN
F 3 "~" H 4600 9400 50  0001 C CNN
F 4 "0402" V 4700 9400 50  0000 C CNN "Package"
	1    4600 9400
	0    1    1    0   
$EndComp
Wire Wire Line
	4300 9400 4450 9400
Connection ~ 4300 9400
Wire Wire Line
	4750 9400 4900 9400
Text Label 4900 9400 0    50   ~ 0
ADC_2_IN
Text Label 3200 8950 2    50   ~ 0
DUT_VDD
Text Label 13200 11650 0    50   ~ 0
ADC_2_IN
$Comp
L TIC:SIT1630 X1
U 1 1 5EA2F565
P 16650 12400
F 0 "X1" H 16421 12491 50  0000 R CNN
F 1 "SIT1630" H 16421 12400 50  0000 R CNN
F 2 "Package_TO_SOT_SMD:SOT-23-5" H 16650 12050 50  0001 C CNN
F 3 "" H 16550 12400 50  0001 C CNN
F 4 "SOT23-5" H 16421 12309 50  0000 R CNN "Package"
	1    16650 12400
	-1   0    0    -1  
$EndComp
$Comp
L Device:C C33
U 1 1 5EA31766
P 16350 11950
F 0 "C33" V 16250 11850 50  0000 R CNN
F 1 "0.1u" V 16250 12050 50  0000 L CNN
F 2 "Capacitor_SMD:C_0402_1005Metric" H 16388 11800 50  0001 C CNN
F 3 "~" H 16350 11950 50  0001 C CNN
F 4 "0402" V 16500 11950 50  0000 C CNN "Package"
	1    16350 11950
	0    -1   1    0   
$EndComp
$Comp
L power:GND #PWR0191
U 1 1 5EA3176C
P 16200 11950
F 0 "#PWR0191" H 16200 11700 50  0001 C CNN
F 1 "GND" H 16205 11777 50  0000 C CNN
F 2 "" H 16200 11950 50  0001 C CNN
F 3 "" H 16200 11950 50  0001 C CNN
	1    16200 11950
	0    1    1    0   
$EndComp
Wire Wire Line
	16500 11950 16650 11950
Wire Wire Line
	16650 11950 16650 12100
Wire Wire Line
	16650 11950 16800 11950
Connection ~ 16650 11950
$Comp
L power:+3.3V #PWR0192
U 1 1 5EA44AD7
P 16800 11950
F 0 "#PWR0192" H 16800 11800 50  0001 C CNN
F 1 "+3.3V" H 16800 12100 50  0000 C CNN
F 2 "" H 16800 11950 50  0001 C CNN
F 3 "" H 16800 11950 50  0001 C CNN
	1    16800 11950
	0    1    1    0   
$EndComp
$Comp
L power:GND #PWR0193
U 1 1 5EA57C3E
P 16650 12700
F 0 "#PWR0193" H 16650 12450 50  0001 C CNN
F 1 "GND" H 16655 12527 50  0000 C CNN
F 2 "" H 16650 12700 50  0001 C CNN
F 3 "" H 16650 12700 50  0001 C CNN
	1    16650 12700
	1    0    0    -1  
$EndComp
Text Label 16200 12400 2    50   ~ 0
32kHz_OSC
Wire Wire Line
	16350 12400 16200 12400
Text Label 13200 12350 0    50   ~ 0
32kHz_OSC
Text Label 13200 9650 0    50   ~ 0
VREF
Text Label 4900 2900 0    50   ~ 0
VREF
Text Label 4000 2750 2    50   ~ 0
PIN2_VOUT
Text Label 13200 11550 0    50   ~ 0
ADC_1_IN
$Comp
L Device:R R?
U 1 1 5F11547E
P 18400 8050
F 0 "R?" V 18300 8050 50  0000 C CNN
F 1 "10k" V 18400 8050 50  0000 C CNN
F 2 "Resistor_SMD:R_0402_1005Metric" V 18330 8050 50  0001 C CNN
F 3 "~" H 18400 8050 50  0001 C CNN
F 4 "0402" V 18500 8050 50  0000 C CNN "Package"
	1    18400 8050
	0    1    1    0   
$EndComp
$Comp
L power:+3.3VA #PWR?
U 1 1 5F115484
P 18550 8050
F 0 "#PWR?" H 18550 7900 50  0001 C CNN
F 1 "+3.3VA" H 18550 8250 50  0000 C CNN
F 2 "" H 18550 8050 50  0001 C CNN
F 3 "" H 18550 8050 50  0001 C CNN
	1    18550 8050
	0    1    -1   0   
$EndComp
Wire Wire Line
	18250 8050 18100 8050
Text Label 18100 8050 2    50   ~ 0
TDC_INTERRUPT
$Comp
L Device:R R?
U 1 1 5F1FFFF0
P 4200 6150
F 0 "R?" V 4100 6150 50  0000 C CNN
F 1 "0" V 4200 6150 50  0000 C CNN
F 2 "Resistor_SMD:R_0402_1005Metric" V 4130 6150 50  0001 C CNN
F 3 "~" H 4200 6150 50  0001 C CNN
F 4 "0402" V 4300 6150 50  0000 C CNN "Package"
	1    4200 6150
	0    -1   1    0   
$EndComp
Wire Wire Line
	4350 6150 4550 6150
Text Notes 17750 7750 0    50   ~ 0
TDC_INTERRUPT is Open Drain (Active LOW)
Text Label 17200 4450 2    50   ~ 0
TDC_TRIGGER
$Comp
L Device:R R22
U 1 1 5F714E1E
P 17500 4450
F 0 "R22" V 17400 4450 50  0000 C CNN
F 1 "0" V 17500 4450 50  0000 C CNN
F 2 "Resistor_SMD:R_0402_1005Metric" V 17430 4450 50  0001 C CNN
F 3 "~" H 17500 4450 50  0001 C CNN
F 4 "0402" V 17600 4450 50  0000 C CNN "Package"
	1    17500 4450
	0    1    1    0   
$EndComp
Text Label 17800 4450 0    50   ~ 0
~RC_MRC
Wire Wire Line
	17200 4450 17350 4450
Wire Wire Line
	17650 4450 17800 4450
$Comp
L power:GND #PWR0112
U 1 1 5EBA6DFA
P 9750 3350
F 0 "#PWR0112" H 9750 3100 50  0001 C CNN
F 1 "GND" H 9755 3177 50  0000 C CNN
F 2 "" H 9750 3350 50  0001 C CNN
F 3 "" H 9750 3350 50  0001 C CNN
	1    9750 3350
	0    1    1    0   
$EndComp
Wire Wire Line
	9900 3350 9750 3350
Wire Wire Line
	10200 3350 10350 3350
$Comp
L Device:R R9
U 1 1 5EB8121F
P 10050 3350
F 0 "R9" V 9950 3350 50  0000 C CNN
F 1 "10k" V 10050 3350 50  0000 C CNN
F 2 "Resistor_SMD:R_0402_1005Metric" V 9980 3350 50  0001 C CNN
F 3 "~" H 10050 3350 50  0001 C CNN
F 4 "0402" V 10150 3350 50  0000 C CNN "Package"
	1    10050 3350
	0    1    1    0   
$EndComp
Text Label 10350 3350 0    50   ~ 0
~RC_OE_EN
$EndSCHEMATC
